[
    {
        "title": "中国创新药欧美上市高潮来袭？",
        "url": "https://cj.sina.cn/articles/view/3714208953/dd6254b9019014bvl?from=finance",
        "docid": "mzusxhp2443178"
    },
    {
        "title": "开盘：美股周三高开 PPI数据再次佐证通胀降温",
        "url": "https://finance.sina.com.cn/stock/usstock/c/2023-11-15/doc-imzutiwk7574542.shtml",
        "docid": "mzutiwk7574542"
    },
    {
        "title": "一个富二代冒险家，冒着生命危险，不远万里从印度带回一本“小黄书”……",
        "url": "https://t.cj.sina.cn/articles/view/1850988623/6e53d84f0190181mm?from=tech",
        "docid": "mzutcqn7673320"
    },
    {
        "title": "宝钢全球首发吉帕钢",
        "url": "https://finance.sina.com.cn/money/future/indu/2023-11-14/doc-imzupsvu2140042.shtml",
        "docid": "mzupsvu2140042"
    },
    {
        "title": "“苏纳克政府遭遇重大挫折”",
        "url": "https://cj.sina.cn/articles/view/1887344341/707e96d502001f4qm?from=finance",
        "docid": "mzutcqn7675667"
    },
    {
        "title": "中年人拥有多少存款才不会焦虑？内行人给出答案！",
        "url": "https://cj.sina.cn/articles/view/7631269926/1c6dbf02600100yfbj?from=finance",
        "docid": "mzushks8725322"
    },
    {
        "title": "荣耀100系列定档11月23日，首发骁龙7 Gen3，但这个卖点更吸引人！",
        "url": "https://t.cj.sina.cn/articles/view/5148219619/132db98e3019019zmk?from=digit",
        "docid": "mzutcqr5511513"
    },
    {
        "title": "中国光伏产能过剩了吗？工信部回应：总体仍处在正常范围",
        "url": "https://finance.sina.com.cn/chanjing/cyxw/2023-11-15/doc-imzusnss5444054.shtml",
        "docid": "mzusnss5444054"
    },
    {
        "title": "金融圈爆大雷！多家信托遭殃，知情人士：最大的一家30亿左右！监管已启动调查",
        "url": "https://finance.sina.com.cn/jjxw/2023-11-15/doc-imzutiwp5401234.shtml",
        "docid": "mzutiwp5401234"
    },
    {
        "title": "欧盟中国商会发布《中国企业在欧盟发展报告》，外交部回应",
        "url": "https://finance.sina.com.cn/jjxw/2023-11-15/doc-imzussyn8572571.shtml",
        "docid": "mzussyn8572571"
    },
    {
        "title": "原来美国人，居然这么羡慕我们留学生......",
        "url": "https://finance.sina.com.cn/jjxw/2023-11-15/doc-imzutiwk7577049.shtml",
        "docid": "mzutiwk7577049"
    },
    {
        "title": "日本分解华为新手机",
        "url": "https://finance.sina.com.cn/wm/2023-11-15/doc-imzusaay8112497.shtml",
        "docid": "mzusaay8112497"
    },
    {
        "title": "独家：某运营商有大事发生？业内期待已久的事情终于要有结果了？",
        "url": "https://finance.sina.com.cn/tech/roll/2023-11-15/doc-imzutiwk7556244.shtml",
        "docid": "mzutiwk7556244"
    },
    {
        "title": "深夜狂飙！中国资产突传利好！\"大空头\"狂买中概股，什么信号？最牛人工智能最新宣布：暂停",
        "url": "https://finance.sina.com.cn/stock/marketresearch/2023-11-15/doc-imzutiwp5414680.shtml",
        "docid": "mzutiwp5414680"
    },
    {
        "title": "补个地漏要价12000元！北京房山警方：“维修工”庞某，被刑拘！",
        "url": "https://finance.sina.com.cn/jjxw/2023-11-15/doc-imzutcqm2342972.shtml",
        "docid": "mzutcqm2342972"
    },
    {
        "title": "被收购了，这家银行即将解散！",
        "url": "https://finance.sina.com.cn/jjxw/2023-11-15/doc-imzussyr2538176.shtml",
        "docid": "mzussyr2538176"
    },
    {
        "title": "西安最新通报！",
        "url": "https://cj.sina.cn/articles/view/1915671961/722ed59901901a3h6?from=finance",
        "docid": "mzutcqn7654658"
    },
    {
        "title": "被套的光伏，能解套了吗？",
        "url": "https://finance.sina.com.cn/stock/relnews/cn/2023-11-15/doc-imzutiwi2248014.shtml",
        "docid": "mzutiwi2248014"
    },
    {
        "title": "刚刚，壳股终止重组！",
        "url": "https://finance.sina.com.cn/roll/2023-11-15/doc-imzutiwi2232885.shtml",
        "docid": "mzutiwi2232885"
    },
    {
        "title": "净利暴降90%，陆金所为何9.33亿接盘平安壹账通银行？",
        "url": "https://cj.sina.cn/articles/view/2972154552/b1277ab8020013icz?from=finance",
        "docid": "mzuqpzk1772956"
    },
    {
        "title": "大堵船！“插队费”3000万元…",
        "url": "https://finance.sina.com.cn/jjxw/2023-11-14/doc-imzuqyrh9349875.shtml",
        "docid": "mzuqyrh9349875"
    },
    {
        "title": "成功重仓埋伏大肉！",
        "url": "https://cj.sina.cn/articles/view/6273954244/175f4f1c4001015wuv?from=finance&subch=astocks",
        "docid": "mzusxht5607636"
    },
    {
        "title": "保险股走成这样 股民坐不住了 咋办？",
        "url": "https://cj.sina.cn/articles/view/7371658994/1b76296f2019015z9w?from=finance",
        "docid": "mzushkw8014058"
    },
    {
        "title": "智微智能(001339.SZ)：目前主要提供机器人、机器视觉相关控制主板、整机产品",
        "url": "https://finance.sina.com.cn/stock/relnews/cn/2023-11-15/doc-imzutcqp8708588.shtml",
        "docid": "mzutcqp8708588"
    },
    {
        "title": "明年楼市有望迎来“小阳春”",
        "url": "https://cj.sina.cn/articles/view/1988645095/768850e70200170p0?from=estate",
        "docid": "mzutqef2130455"
    },
    {
        "title": "机构：美联储最关心的通胀指标或将左右市场",
        "url": "https://finance.sina.com.cn/stock/usstock/c/2023-11-15/doc-imzutqef2130561.shtml",
        "docid": "mzutqef2130561"
    },
    {
        "title": "产业带直播上的创新路",
        "url": "http://gd.sina.com.cn/finance/2023-11-15/cj-imzutqef2130667.shtml",
        "docid": "mzutqef2130667"
    },
    {
        "title": "全国性AMC不再有华融：中国华融拟更名中信金融资产，全面融入中信集团",
        "url": "https://news.sina.com.cn/c/2023-11-15/doc-imzutqef2131595.shtml",
        "docid": "mzutqef2131595"
    },
    {
        "title": "王兴柱：抢抓市场机遇谋发展 聚力担当作为抓落实",
        "url": "https://finance.sina.com.cn/jjxw/2023-11-15/doc-imzutqef2132792.shtml",
        "docid": "mzutqef2132792"
    },
    {
        "title": "高盛Q3大举买入SPDR标普500指数ETF看跌期权 增持苹果、微软等科技巨头",
        "url": "https://cj.sina.cn/articles/view/1829577443/6d0d22e302001ag28?from=finance",
        "docid": "mzutqef2132890"
    },
    {
        "title": "炮轰格力王自如“吃软饭” 猎豹傅盛最新回应：骂人不对 已删除相关内容",
        "url": "https://finance.sina.com.cn/chanjing/gsnews/2023-11-16/doc-imzutqeh7461515.shtml",
        "docid": "mzutqeh7461515"
    },
    {
        "title": "A股高开回落 重点关注权重股",
        "url": "https://cj.sina.cn/articles/view/1403611582/53a969be02001ef19?from=finance",
        "docid": "mzutqef2136430"
    },
    {
        "title": "传花旗集团开始执行CEO推动企业改革必要的裁员",
        "url": "https://cj.sina.cn/articles/view/5115326071/130e5ae77020020r3m?from=finance",
        "docid": "mzutqef2136887"
    },
    {
        "title": "国际油价持续走低 俄罗斯将下调石油出口关税 系7月以来首次",
        "url": "https://finance.sina.com.cn/jjxw/2023-11-16/doc-imzutqef2137769.shtml",
        "docid": "mzutqef2137769"
    },
    {
        "title": "腾讯扣非净利增长近4成 首提微信“泛内循环广告收入”概念",
        "url": "https://finance.sina.com.cn/jjxw/2023-11-16/doc-imzutqef2137776.shtml",
        "docid": "mzutqef2137776"
    },
    {
        "title": "北京第二批通学车已完成样车制造",
        "url": "https://finance.sina.com.cn/jjxw/2023-11-16/doc-imzutqef2138373.shtml",
        "docid": "mzutqef2138373"
    },
    {
        "title": "药品说明书改造就该“来硬的”",
        "url": "https://finance.sina.com.cn/jjxw/2023-11-16/doc-imzutqef2138379.shtml",
        "docid": "mzutqef2138379"
    },
    {
        "title": "婚介机构的“甜蜜陷阱” 亟需多方合力填平",
        "url": "https://finance.sina.com.cn/jjxw/2023-11-16/doc-imzutqef2138382.shtml",
        "docid": "mzutqef2138382"
    },
    {
        "title": "波兰铜业公司三季度净利润高于预期",
        "url": "https://cj.sina.cn/articles/view/2868676035/aafc85c30200176kr?from=finance",
        "docid": "mzutqef2138663"
    },
    {
        "title": "Shelby Series 1，谢尔比本人唯一全程参与打造美式超跑，450匹机增，限量70台 | 酷乐汽车",
        "url": "https://finance.sina.com.cn/wm/2023-11-16/doc-imzutqef2141492.shtml",
        "docid": "mzutqef2141492"
    },
    {
        "title": "网约车司机受够了！一口价订单是如何得罪司机的？",
        "url": "https://t.cj.sina.cn/articles/view/6425175673/17ef8667900101b53j?from=tech",
        "docid": "mzuquik9448418"
    },
    {
        "title": "农夫山泉：公司很赚钱，投资者却赚不到钱",
        "url": "https://finance.sina.com.cn/stock/hkstock/ggscyd/2023-11-14/doc-imzuqyrk6105388.shtml",
        "docid": "mzuqyrk6105388"
    },
    {
        "title": "沪电股份：800G交换机产品已开始批量交付",
        "url": "https://finance.sina.com.cn/jjxw/2023-11-15/doc-imzusaau8828719.shtml",
        "docid": "mzusaau8828719"
    },
    {
        "title": "产业园区点亮乡村经济",
        "url": "https://cj.sina.cn/articles/view/1702883112/657fef2802001r4k0?from=news&subch=onews",
        "docid": "mzutqef2142260"
    },
    {
        "title": "打造产业集群发展新格局",
        "url": "https://cj.sina.cn/articles/view/1702883112/657fef2802001r4k4?from=news&subch=onews",
        "docid": "mzutqef2142262"
    },
    {
        "title": "连续7年 研发经费增速超 10%",
        "url": "https://cj.sina.cn/articles/view/1702883112/657fef2802001r4k7?from=news&subch=onews",
        "docid": "mzutqef2142266"
    },
    {
        "title": "道达投资手记：光伏迎超级利好 A股后市有望续升",
        "url": "https://finance.sina.com.cn/jjxw/2023-11-16/doc-imzutqef2142302.shtml",
        "docid": "mzutqef2142302"
    },
    {
        "title": "理想汽车公关总监余巍：成长是企业长期贯穿的驱动力",
        "url": "https://finance.sina.com.cn/jjxw/2023-11-16/doc-imzutqef2142327.shtml",
        "docid": "mzutqef2142327"
    },
    {
        "title": "10月国内汽车产销量再创历史同期新高 中汽协：预计行业有望较好完成全年目标",
        "url": "https://finance.sina.com.cn/jjxw/2023-11-16/doc-imzutqef2142331.shtml",
        "docid": "mzutqef2142331"
    },
    {
        "title": "今年我国汽车出口预计450万辆 西欧、东盟等将成“出海”主阵地",
        "url": "https://finance.sina.com.cn/jjxw/2023-11-16/doc-imzutqef2142332.shtml",
        "docid": "mzutqef2142332"
    },
    {
        "title": "珠海万达商管试图延期支付上市对赌所涉300亿元股权回购款，初步方案未获投资人同意",
        "url": "https://finance.sina.com.cn/jjxw/2023-11-15/doc-imzutcqn7677820.shtml",
        "docid": "mzutcqn7677820"
    },
    {
        "title": "东风日产汽车销售有限公司用户运营中心部长张劲华：合资车企仍将在中国汽车市场扮演重要角色",
        "url": "https://finance.sina.com.cn/jjxw/2023-11-16/doc-imzutqef2142333.shtml",
        "docid": "mzutqef2142333"
    },
    {
        "title": "哪吒汽车副总裁江峰：加速向全球高科技技术公司转型",
        "url": "https://finance.sina.com.cn/jjxw/2023-11-16/doc-imzutqef2142341.shtml",
        "docid": "mzutqef2142341"
    },
    {
        "title": "欧盟恐无法兑现向乌提供百万发炮弹承诺",
        "url": "https://cj.sina.cn/articles/view/2868676035/aafc85c30200176ku?from=news&subch=onews",
        "docid": "mzutqef2142448"
    },
    {
        "title": "微软官宣：与AMD和英伟达建立新的合作伙伴关系",
        "url": "https://finance.sina.com.cn/stock/usstock/c/2023-11-16/doc-imzutqef2142889.shtml",
        "docid": "mzutqef2142889"
    },
    {
        "title": "锐科激光因未及时披露公司重大事件被深圳证券交易所采取监管措施",
        "url": "https://cj.sina.cn/articles/view/1850649324/6e4eaaec02001aacg?from=finance",
        "docid": "mzutqef2143731"
    },
    {
        "title": "京东三季度财报出炉 同时宣布 京东零售更换CEO",
        "url": "https://finance.sina.com.cn/jjxw/2023-11-16/doc-imzutqef2143796.shtml",
        "docid": "mzutqef2143796"
    },
    {
        "title": "9432米！亚洲最深井，开井测试！",
        "url": "https://finance.sina.com.cn/tech/roll/2023-11-16/doc-imzutqef2143811.shtml",
        "docid": "mzutqef2143811"
    },
    {
        "title": "白云区七大创新举措 深入推进知识产权保护",
        "url": "https://finance.sina.com.cn/tech/roll/2023-11-16/doc-imzutqef2143850.shtml",
        "docid": "mzutqef2143850"
    },
    {
        "title": "央行释放6000亿元流动性",
        "url": "https://finance.sina.com.cn/jjxw/2023-11-16/doc-imzutqef2144120.shtml",
        "docid": "mzutqef2144120"
    },
    {
        "title": "月内20余家上市公司发布股权激励计划 科技企业积极出手绑定高端人才",
        "url": "https://finance.sina.com.cn/jjxw/2023-11-16/doc-imzutqef2145450.shtml",
        "docid": "mzutqef2145450"
    },
    {
        "title": "18楼阳台护栏突然掉落“吓坏”楼下散步者",
        "url": "https://finance.sina.com.cn/jjxw/2023-11-16/doc-imzutqef2145679.shtml",
        "docid": "mzutqef2145679"
    },
    {
        "title": "中企承建的孟加拉国首个海陆一体化超大型石油储运工程落成",
        "url": "https://finance.sina.com.cn/jjxw/2023-11-16/doc-imzutqef2146466.shtml",
        "docid": "mzutqef2146466"
    },
    {
        "title": "欧洲股市升至近两个月高位 因通胀数据降温",
        "url": "https://finance.sina.com.cn/stock/usstock/c/2023-11-16/doc-imzutqef2146524.shtml",
        "docid": "mzutqef2146524"
    },
    {
        "title": "生产销售过度包装商品使不得",
        "url": "https://finance.sina.com.cn/jjxw/2023-11-16/doc-imzutqeh7468506.shtml",
        "docid": "mzutqeh7468506"
    },
    {
        "title": "MR检查相关知识",
        "url": "https://finance.sina.com.cn/jjxw/2023-11-16/doc-imzutqei8535315.shtml",
        "docid": "mzutqei8535315"
    },
    {
        "title": "腾讯第三季度实现营收1546.3亿元 国际市场游戏收入连续三个季度双位数增长",
        "url": "https://finance.sina.com.cn/jjxw/2023-11-16/doc-imzutqem5312133.shtml",
        "docid": "mzutqem5312133"
    },
    {
        "title": "查政策找解读就在这一“站”",
        "url": "https://finance.sina.com.cn/jjxw/2023-11-16/doc-imzutqem5312546.shtml",
        "docid": "mzutqem5312546"
    },
    {
        "title": "无废的探索",
        "url": "https://finance.sina.com.cn/jjxw/2023-11-16/doc-imzutunc2016522.shtml",
        "docid": "mzutunc2016522"
    },
    {
        "title": "德技并修育匠才",
        "url": "https://finance.sina.com.cn/jjxw/2023-11-16/doc-imzutunc2016689.shtml",
        "docid": "mzutunc2016689"
    },
    {
        "title": "这才是最牛逼的国家队",
        "url": "https://cj.sina.cn/articles/view/1766006574/69431f2e01901b02o?from=finance",
        "docid": "mzusaay8124866"
    },
    {
        "title": "楼市，这两天信息量有点大！懂行人预测：明年或将超出很多人想象",
        "url": "https://cj.sina.cn/articles/view/7127695145/1a8d7ff290200135zw?from=estate",
        "docid": "mzutiwm8615605"
    },
    {
        "title": "欧盟九国争抢",
        "url": "https://finance.sina.com.cn/wm/2023-11-16/doc-imzutqeh7460931.shtml",
        "docid": "mzutqeh7460931"
    },
    {
        "title": "不再兼容安卓！华为HMS，未来是福还是祸？",
        "url": "https://t.cj.sina.cn/articles/view/5389480151/1413cf0d700104k3dj?from=tech&subch=internet",
        "docid": "mzusxhr8807837"
    },
    {
        "title": "前三季度兵团规模以上服务业营收同比增长14.1%",
        "url": "https://finance.sina.com.cn/jjxw/2023-11-16/doc-imzutunc2016703.shtml",
        "docid": "mzutunc2016703"
    },
    {
        "title": "奏响特色产业“富民曲”",
        "url": "https://finance.sina.com.cn/jjxw/2023-11-16/doc-imzutunc2016710.shtml",
        "docid": "mzutunc2016710"
    },
    {
        "title": "精准监管助推营商环境优化",
        "url": "https://finance.sina.com.cn/jjxw/2023-11-16/doc-imzutunc2016714.shtml",
        "docid": "mzutunc2016714"
    },
    {
        "title": "加快质量升级 打响质量品牌",
        "url": "https://finance.sina.com.cn/jjxw/2023-11-16/doc-imzutunc2016719.shtml",
        "docid": "mzutunc2016719"
    },
    {
        "title": "屋外雪花纷飞 屋内暖意融融",
        "url": "https://finance.sina.com.cn/jjxw/2023-11-16/doc-imzutunc2018200.shtml",
        "docid": "mzutunc2018200"
    },
    {
        "title": "伦敦股市15日上涨",
        "url": "https://finance.sina.com.cn/jjxw/2023-11-16/doc-imzutunc2019039.shtml",
        "docid": "mzutunc2019039"
    },
    {
        "title": "北京金融科技产业联盟：2023年金融业IPv6发展演进白皮书",
        "url": "https://finance.sina.com.cn/tech/roll/2023-11-16/doc-imzutunc2020195.shtml",
        "docid": "mzutunc2020195"
    },
    {
        "title": "广发基金总经理王凡：增强投资者获得感 基金投顾大有可为",
        "url": "https://finance.sina.com.cn/roll/2023-11-16/doc-imzutunc2020956.shtml",
        "docid": "mzutunc2020956"
    },
    {
        "title": "中金安徽交控高速公路封闭式基础设施证券投资基金基金产品资料概要",
        "url": "https://finance.sina.com.cn/roll/2023-11-16/doc-imzutunc2021114.shtml",
        "docid": "mzutunc2021114"
    },
    {
        "title": "中化国际（控股）股份有限公司",
        "url": "https://finance.sina.com.cn/roll/2023-11-16/doc-imzutunc2021564.shtml",
        "docid": "mzutunc2021564"
    },
    {
        "title": "推动金融高质量发展是建设金融强国的根本路径",
        "url": "https://finance.sina.com.cn/roll/2023-11-16/doc-imzutunc2021566.shtml",
        "docid": "mzutunc2021566"
    },
    {
        "title": "需求太过火爆！德国监管机构考虑实施Ozempic出口禁令",
        "url": "https://finance.sina.com.cn/jjxw/2023-11-16/doc-imzutunc2021920.shtml",
        "docid": "mzutunc2021920"
    },
    {
        "title": "践行ESG正由“选择题”变为“必答题”",
        "url": "https://finance.sina.com.cn/jjxw/2023-11-16/doc-imzutunc2023006.shtml",
        "docid": "mzutunc2023006"
    },
    {
        "title": "提升动力电池回收利用水平 补链新能源汽车产业绿色发展",
        "url": "https://finance.sina.com.cn/jjxw/2023-11-16/doc-imzutunc2023011.shtml",
        "docid": "mzutunc2023011"
    },
    {
        "title": "善用社情民意“直通车” 写好绿色低碳“大文章”",
        "url": "https://finance.sina.com.cn/jjxw/2023-11-16/doc-imzutunc2023037.shtml",
        "docid": "mzutunc2023037"
    },
    {
        "title": "技术和创新一直是市场化媒体的核心竞争力",
        "url": "https://finance.sina.com.cn/jjxw/2023-11-16/doc-imzutunc2023493.shtml",
        "docid": "mzutunc2023493"
    },
    {
        "title": "腾讯大涨近6%，Q3调整后净利润远超预期",
        "url": "https://finance.sina.com.cn/stock/usstock/c/2023-11-15/doc-imzutiwk7581174.shtml",
        "docid": "mzutiwk7581174"
    },
    {
        "title": "中国镍基超导体机理研究获重大突破",
        "url": "https://finance.sina.com.cn/jjxw/2023-11-16/doc-imzutunc2023518.shtml",
        "docid": "mzutunc2023518"
    },
    {
        "title": "推进“放管服”改革 深化“数字政府”建设",
        "url": "https://finance.sina.com.cn/jjxw/2023-11-16/doc-imzutunc2023965.shtml",
        "docid": "mzutunc2023965"
    },
    {
        "title": "保密无小事 责任重于山",
        "url": "https://finance.sina.com.cn/jjxw/2023-11-16/doc-imzutunc2023994.shtml",
        "docid": "mzutunc2023994"
    },
    {
        "title": "腾讯第三季度实现净利449亿同比大增39%",
        "url": "https://finance.sina.com.cn/jjxw/2023-11-16/doc-imzutunc2024755.shtml",
        "docid": "mzutunc2024755"
    },
    {
        "title": "多举措助力税费政策精准落地",
        "url": "https://finance.sina.com.cn/jjxw/2023-11-16/doc-imzutunc2026032.shtml",
        "docid": "mzutunc2026032"
    },
    {
        "title": "“税力量”护航企业“走出去”",
        "url": "https://finance.sina.com.cn/jjxw/2023-11-16/doc-imzutunc2026036.shtml",
        "docid": "mzutunc2026036"
    },
    {
        "title": "便捷高效丰富生活场景 标准化体系待建立",
        "url": "https://finance.sina.com.cn/jjxw/2023-11-16/doc-imzutunc2026042.shtml",
        "docid": "mzutunc2026042"
    },
    {
        "title": "*ST炼石募资十亿“补血”",
        "url": "https://finance.sina.com.cn/jjxw/2023-11-16/doc-imzutunc2026045.shtml",
        "docid": "mzutunc2026045"
    },
    {
        "title": "稳增长再发力 央行大规模超量平价续作MLF",
        "url": "https://finance.sina.com.cn/jjxw/2023-11-16/doc-imzutunc2026050.shtml",
        "docid": "mzutunc2026050"
    },
    {
        "title": "11月16日热点精选：特斯拉新品即将发布，这些核心供应商将受益",
        "url": "https://t.cj.sina.cn/articles/view/2151871124/8042f294001013dhw?from=tech",
        "docid": "mzutiwp5396088"
    },
    {
        "title": "持续投资中国市场 如新揭幕总部园区二期项目",
        "url": "https://t.cj.sina.cn/articles/view/1959451603/74cadbd302001572r?from=tech",
        "docid": "mzutunc2027668"
    },
    {
        "title": "到2035年 工业增加值破万亿",
        "url": "https://finance.sina.com.cn/jjxw/2023-11-16/doc-imzutunc2027686.shtml",
        "docid": "mzutunc2027686"
    },
    {
        "title": "县域地区部分指标增速领先全市",
        "url": "https://finance.sina.com.cn/jjxw/2023-11-16/doc-imzutunc2029430.shtml",
        "docid": "mzutunc2029430"
    },
    {
        "title": "地铁3号线1标宝马新工厂站车站及区间主体结构施工全部完成",
        "url": "https://finance.sina.com.cn/jjxw/2023-11-16/doc-imzutunc2029461.shtml",
        "docid": "mzutunc2029461"
    },
    {
        "title": "熟悉的剧本 有新结局？",
        "url": "https://cj.sina.cn/articles/view/1700648435/655dd5f3020018da2?from=finance",
        "docid": "mzutunc2030386"
    },
    {
        "title": "靠前监督 保障重大项目建设",
        "url": "https://finance.sina.com.cn/jjxw/2023-11-16/doc-imzutune7350530.shtml",
        "docid": "mzutune7350530"
    },
    {
        "title": "新能源汽车进入超充时代还要多久？",
        "url": "https://finance.sina.com.cn/jjxw/2023-11-16/doc-imzutune7350830.shtml",
        "docid": "mzutune7350830"
    },
    {
        "title": "美联储戴利警告不要在紧缩政策问题上“走走停停”",
        "url": "https://cj.sina.cn/articles/view/2868676035/aafc85c30200176l8?from=finance",
        "docid": "mzutune7351295"
    },
    {
        "title": "微软首款自研AI芯片亮相 英伟达一家独大时代宣告结束？",
        "url": "https://finance.sina.com.cn/jjxw/2023-11-16/doc-imzutune7351753.shtml",
        "docid": "mzutune7351753"
    },
    {
        "title": "美股泡沫已超1929，聪明人巴菲特手持巨额现金已发出警告！我们要做好准备，做好A股与美股的风险隔离！",
        "url": "http://blog.sina.com.cn/s/blog_4d5d149301033qmi.html",
        "docid": "mzutqem5293553"
    },
    {
        "title": "大跌！终于盼到！",
        "url": "https://cj.sina.cn/articles/view/1680430844/642956fc01901dsoz?from=finance",
        "docid": "mzutcqm2360292"
    },
    {
        "title": "ASML对中国出口倍增，日本出口下跌，谁更重要不言自明",
        "url": "https://cj.sina.cn/articles/view/3769804445/e0b2a69d001018tqp?from=finance",
        "docid": "mzussyq5339249"
    },
    {
        "title": "别让“末端服务”成快递业短板",
        "url": "https://finance.sina.com.cn/jjxw/2023-11-16/doc-imzutytz1902627.shtml",
        "docid": "mzutytz1902627"
    },
    {
        "title": "“双11”不能止于低价",
        "url": "https://finance.sina.com.cn/jjxw/2023-11-16/doc-imzutytz1902641.shtml",
        "docid": "mzutytz1902641"
    },
    {
        "title": "助力构筑“反诈拒赌”防线",
        "url": "https://finance.sina.com.cn/jjxw/2023-11-16/doc-imzutytz1902648.shtml",
        "docid": "mzutytz1902648"
    },
    {
        "title": "智能电视操作系统（TVOS）5.0发布",
        "url": "https://finance.sina.com.cn/jjxw/2023-11-16/doc-imzutytz1902985.shtml",
        "docid": "mzutytz1902985"
    },
    {
        "title": "全国电影票房已超500亿元",
        "url": "https://finance.sina.com.cn/jjxw/2023-11-16/doc-imzutytz1903387.shtml",
        "docid": "mzutytz1903387"
    },
    {
        "title": "税收回升折射经济加快恢复",
        "url": "https://cj.sina.cn/articles/view/1663612603/6328b6bb02001gqmd?from=finance",
        "docid": "mzutytz1905059"
    },
    {
        "title": "补齐农村养老服务短板",
        "url": "https://cj.sina.cn/articles/view/1663612603/6328b6bb02001gqmo?from=news&subch=onews",
        "docid": "mzutytz1905594"
    },
    {
        "title": "网游侵权的认定边界在哪儿",
        "url": "https://finance.sina.com.cn/jjxw/2023-11-16/doc-imzutytz1906017.shtml",
        "docid": "mzutytz1906017"
    },
    {
        "title": "高质效能动履职打击作品“搬运工”",
        "url": "https://finance.sina.com.cn/jjxw/2023-11-16/doc-imzutytz1906044.shtml",
        "docid": "mzutytz1906044"
    },
    {
        "title": "提供中国式现代化国际仲裁样本",
        "url": "https://finance.sina.com.cn/jjxw/2023-11-16/doc-imzutytz1906048.shtml",
        "docid": "mzutytz1906048"
    },
    {
        "title": "深挖司法大数据富矿助力基层治理",
        "url": "https://finance.sina.com.cn/jjxw/2023-11-16/doc-imzutytz1906051.shtml",
        "docid": "mzutytz1906051"
    },
    {
        "title": "激发创作热情让产品“火出圈”",
        "url": "https://finance.sina.com.cn/jjxw/2023-11-16/doc-imzutytz1906079.shtml",
        "docid": "mzutytz1906079"
    },
    {
        "title": "黄金消费迎来小高峰",
        "url": "https://cj.sina.cn/articles/view/1663612603/6328b6bb02001gqms?from=finance",
        "docid": "mzutytz1906112"
    },
    {
        "title": "跨界联名“搏出圈”还要顾长远",
        "url": "https://cj.sina.cn/articles/view/3037284894/b5094a1e02001f49n?from=finance",
        "docid": "mzutytz1907607"
    },
    {
        "title": "生态环境损害赔偿要落地见效",
        "url": "https://cj.sina.cn/articles/view/3037284894/b5094a1e02001f49p?from=finance",
        "docid": "mzutytz1907611"
    },
    {
        "title": "掂掂成色促进优化——个人养老金制度实施一周年回眸",
        "url": "https://cj.sina.cn/articles/view/3037284894/b5094a1e02001f49m?from=finance",
        "docid": "mzutytz1907615"
    },
    {
        "title": "一根玻纤串起百亿级产业链——浙江桐乡玻璃纤维产业集群建设调查",
        "url": "https://cj.sina.cn/articles/view/3037284894/b5094a1e02001f49q?from=finance",
        "docid": "mzutytz1907619"
    },
    {
        "title": "多家银行官宣！",
        "url": "https://finance.sina.cn/2023-11-15/detail-imzussys7827516.d.html",
        "docid": "mzussys7827516"
    },
    {
        "title": "刚刚，小米史上最重磅的产品彻底曝光！雷军这次真的要拼啦",
        "url": "https://t.cj.sina.cn/articles/view/5970362599/163dc80e701901cwp7?from=tech",
        "docid": "mzutiwm8634364"
    },
    {
        "title": "检察机关依法分别对潘新祥、金所军、韦勇球、郭宝成、华东决定逮捕",
        "url": "https://finance.sina.com.cn/jjxw/2023-11-15/doc-imzussyr2543368.shtml",
        "docid": "mzussyr2543368"
    },
    {
        "title": "时隔17个月金刚光伏20%涨停",
        "url": "https://finance.sina.com.cn/jjxw/2023-11-15/doc-imzutiwm8630198.shtml",
        "docid": "mzutiwm8630198"
    },
    {
        "title": "中美合作，汽车赢麻了！",
        "url": "https://cj.sina.cn/articles/view/5920679670/160e666f602701ifka?from=finance",
        "docid": "mzusxhq7774810"
    },
    {
        "title": "中国又一家手机企业赶超苹果，逼得苹果降价抢占3000元市场",
        "url": "https://t.cj.sina.cn/articles/view/3769804445/e0b2a69d001018tqk?from=digit",
        "docid": "mzussyn8560649"
    },
    {
        "title": "收盘：PPI数据显示通胀降温 美股收高道指四连涨",
        "url": "https://finance.sina.com.cn/stock/usstock/c/2023-11-16/doc-imzutyuc8314881.shtml",
        "docid": "mzutyuc8314881"
    },
    {
        "title": "君山渔业跑出高质量发展新速度",
        "url": "https://finance.sina.com.cn/jjxw/2023-11-16/doc-imzutytz1911573.shtml",
        "docid": "mzutytz1911573"
    },
    {
        "title": "全省首家菜鸟天猫国际保税自营仓在曹妃甸综合保税区开仓",
        "url": "https://finance.sina.com.cn/jjxw/2023-11-16/doc-imzutytz1911728.shtml",
        "docid": "mzutytz1911728"
    },
    {
        "title": "强化党建引领 打造让百姓放心的医院",
        "url": "https://finance.sina.com.cn/jjxw/2023-11-16/doc-imzutytz1911731.shtml",
        "docid": "mzutytz1911731"
    },
    {
        "title": "德国监管机构考虑实施Ozempic出口禁令",
        "url": "https://cj.sina.cn/articles/view/5115326071/130e5ae77020020r48?from=finance",
        "docid": "mzuuezz8196318"
    },
    {
        "title": "市工投旗下两家企业上榜",
        "url": "https://finance.sina.com.cn/jjxw/2023-11-16/doc-imzuuezx1787314.shtml",
        "docid": "mzuuezx1787314"
    },
    {
        "title": "周四你需要知道的隔夜全球要闻",
        "url": "https://finance.sina.com.cn/roll/2023-11-16/doc-imzuuezx1788013.shtml",
        "docid": "mzuuezx1788013"
    },
    {
        "title": "上海市代表团来渝考察对口支援工作",
        "url": "https://finance.sina.com.cn/jjxw/2023-11-16/doc-imzuuezx1788097.shtml",
        "docid": "mzuuezx1788097"
    },
    {
        "title": "五年内规上企业实现产值500亿元",
        "url": "https://finance.sina.com.cn/jjxw/2023-11-16/doc-imzuuezx1788105.shtml",
        "docid": "mzuuezx1788105"
    },
    {
        "title": "党建引领农机社会化服务 蹚出强村富民路",
        "url": "https://finance.sina.com.cn/jjxw/2023-11-16/doc-imzuuezx1788139.shtml",
        "docid": "mzuuezx1788139"
    },
    {
        "title": "阜新医保结算实现“刷脸”支付",
        "url": "https://finance.sina.com.cn/jjxw/2023-11-16/doc-imzuuezx1788223.shtml",
        "docid": "mzuuezx1788223"
    },
    {
        "title": "32个高频事项实现八城通办",
        "url": "https://finance.sina.com.cn/jjxw/2023-11-16/doc-imzuuezx1788225.shtml",
        "docid": "mzuuezx1788225"
    },
    {
        "title": "“敬协天行”观象台",
        "url": "https://finance.sina.com.cn/jjxw/2023-11-16/doc-imzuuezx1788274.shtml",
        "docid": "mzuuezx1788274"
    },
    {
        "title": "欧盟百万枚炮弹援乌悬了！德防长第一个公开表示：没有承诺过要提供",
        "url": "https://finance.sina.com.cn/jjxw/2023-11-16/doc-imzuuezx1788353.shtml",
        "docid": "mzuuezx1788353"
    },
    {
        "title": "玩偶姐姐炒币破产，重启P站，急需男主",
        "url": "https://cj.sina.cn/articles/view/6173010488/16ff0aa3801901c4jn?from=finance",
        "docid": "mzutqem5290225"
    },
    {
        "title": "著名心血管病专家胡大一，实名举报！多方回应",
        "url": "https://finance.sina.com.cn/jjxw/2023-11-15/doc-imzutcqn7658283.shtml",
        "docid": "mzutcqn7658283"
    },
    {
        "title": "许继电气(000400)：三季度业绩持续增长 有望深度受益特高压加速推进",
        "url": "https://finance.sina.com.cn/stock/relnews/cn/2023-11-14/doc-imzupxcx3830824.shtml",
        "docid": "mzupxcx3830824"
    },
    {
        "title": "每天看董明珠做什么是一件幸福的事？傅盛发文怒怼王自如：不仅是个吃软饭的，而且是个流氓【附格力电器企业分析】",
        "url": "https://finance.sina.com.cn/stock/relnews/cn/2023-11-15/doc-imzutcqp8705988.shtml",
        "docid": "mzutcqp8705988"
    },
    {
        "title": "我被老板坑惨了！又一起兜底式员工持股，东方雨虹都得叫“师傅”",
        "url": "https://cj.sina.cn/articles/view/5930172409/161773ff9001019zkh?from=finance&subch=astocks",
        "docid": "mzussyn8577105"
    },
    {
        "title": "千亿券商第一大股东出手！加仓买入二股东",
        "url": "https://finance.sina.com.cn/stock/relnews/hk/2023-11-16/doc-imzutqeh7459890.shtml",
        "docid": "mzutqeh7459890"
    },
    {
        "title": "99岁芒格最新万字访谈：越来越难了",
        "url": "https://cj.sina.cn/articles/view/2099880822/7d29a376019016gj6?from=finance",
        "docid": "mzutcqm2360665"
    },
    {
        "title": "县城又一超级独角兽，诞生了",
        "url": "https://cj.sina.cn/articles/view/5395803974/1419d6f4601901e417?from=finance",
        "docid": "mzuqitn1847307"
    },
    {
        "title": "94岁老太，成了中国女首富",
        "url": "https://finance.sina.com.cn/stock/relnews/hk/2023-11-15/doc-imzusxhr8833612.shtml",
        "docid": "mzusxhr8833612"
    },
    {
        "title": "热门中概股周三普涨 京东涨超7% 微博爱奇艺涨超5% 阿里百度拼多多涨超3%",
        "url": "https://finance.sina.com.cn/stock/usstock/c/2023-11-16/doc-imzutyuf5094485.shtml",
        "docid": "mzutyuf5094485"
    },
    {
        "title": "空调巨头瞄准顾家家居控制权",
        "url": "https://cj.sina.cn/articles/view/5170894003/1343594b3001010mgk?from=finance&subch=astocks",
        "docid": "mzutqeh7452179"
    },
    {
        "title": "海军军医大学联合兄弟单位开展岗位实践活动",
        "url": "https://finance.sina.com.cn/jjxw/2023-11-16/doc-imzuuezx1796559.shtml",
        "docid": "mzuuezx1796559"
    },
    {
        "title": "远兴能源信披考评被交易所降级：大成基金、兴证全球基金、浙商基金等重仓持股",
        "url": "https://finance.sina.com.cn/stock/relnews/cn/2023-11-16/doc-imzuuezx1797005.shtml",
        "docid": "mzuuezx1797005"
    },
    {
        "title": "一高校原校长被逮捕",
        "url": "https://finance.sina.com.cn/jjxw/2023-11-16/doc-imzuuezx1797140.shtml",
        "docid": "mzuuezx1797140"
    },
    {
        "title": "稳健医疗：已经部分切入医美相关产品",
        "url": "https://t.cj.sina.cn/articles/view/5182171545/134e1a99902001nq4e?from=tech",
        "docid": "mzuuezx1797824"
    },
    {
        "title": "渤海首个千亿方大气田Ⅰ期投产 清洁能源助力山东高质量发展",
        "url": "https://k.sina.cn/article_5328858693_m13d9fee4502001rhsu.html?from=news&subch=onews",
        "docid": "mzuuezx1798001"
    },
    {
        "title": "头对头替尔泊肽：诺和诺德CagriSema启动减肥三期临床",
        "url": "https://finance.sina.com.cn/stock/med/2023-11-16/doc-imzuuezx1798122.shtml",
        "docid": "mzuuezx1798122"
    },
    {
        "title": "国家统计局：政策效果缓慢释放，10月销售额降幅再收窄",
        "url": "https://finance.sina.com.cn/stock/estate/sd/2023-11-16/doc-imzuuezx1798250.shtml",
        "docid": "mzuuezx1798250"
    },
    {
        "title": "光大期货：利多悉数落地，金价小幅调整",
        "url": "https://finance.sina.com.cn/money/nmetal/hjzx/2023-11-16/doc-imzuuezx1798264.shtml",
        "docid": "mzuuezx1798264"
    },
    {
        "title": "休闲食品三季报冰火两重天 拐点期谁将成为新晋“黑马”",
        "url": "https://finance.sina.com.cn/tech/roll/2023-11-16/doc-imzuuezx1798295.shtml",
        "docid": "mzuuezx1798295"
    },
    {
        "title": "OPEC观察人士预计：沙特将把减产协议延长至2024年",
        "url": "https://finance.sina.com.cn/stock/usstock/c/2023-11-16/doc-imzutunc2026296.shtml",
        "docid": "mzutunc2026296"
    },
    {
        "title": "比亚迪上班福利惹关注，比亚迪凭啥吸引三万应届生？",
        "url": "https://cj.sina.cn/articles/view/2219338054/84486946001019zi1?from=job",
        "docid": "mzusaay8114920"
    },
    {
        "title": "一加手机全球摄影展18日深圳开幕 一加12样张将亮相",
        "url": "https://finance.sina.com.cn/tech/mobile/n/n/2023-11-16/doc-imzussyn8573255.shtml",
        "docid": "mzussyn8573255"
    },
    {
        "title": "智能清洁电器双十一增长强劲，线下销售量额高增",
        "url": "https://finance.sina.com.cn/tech/mobile/n/n/2023-11-16/doc-imzussyn8577387.shtml",
        "docid": "mzussyn8577387"
    },
    {
        "title": "理想揭秘麒麟5C电池：2018年启动研究 投入超1000人",
        "url": "https://finance.sina.com.cn/tech/mobile/n/n/2023-11-16/doc-imzussyq5350733.shtml",
        "docid": "mzussyq5350733"
    },
    {
        "title": "2023年前三季度大家电市场总结（工程篇）",
        "url": "https://finance.sina.com.cn/tech/mobile/n/n/2023-11-16/doc-imzussyr2538378.shtml",
        "docid": "mzussyr2538378"
    },
    {
        "title": "产品“内卷” 电动牙刷争夺“戴森门票”",
        "url": "https://finance.sina.com.cn/tech/mobile/n/n/2023-11-16/doc-imzussys7837687.shtml",
        "docid": "mzussys7837687"
    },
    {
        "title": "重磅！小米汽车亮相工信部网站 造型酷炫 尾标暗含深意",
        "url": "https://finance.sina.com.cn/tech/mobile/n/n/2023-11-16/doc-imzusxhk8462990.shtml",
        "docid": "mzusxhk8462990"
    },
    {
        "title": "K70同款设计！Redmi Note 13R Pro现身：超窄直屏+直边",
        "url": "https://finance.sina.com.cn/tech/mobile/n/n/2023-11-16/doc-imzutqef2137637.shtml",
        "docid": "mzutqef2137637"
    },
    {
        "title": "小米汽车闪亮登场！看第一眼我就中毒了",
        "url": "https://finance.sina.com.cn/tech/mobile/n/n/2023-11-16/doc-imzutqef2143372.shtml",
        "docid": "mzutqef2143372"
    },
    {
        "title": "充分利用科技突破创造新需求",
        "url": "https://finance.sina.com.cn/jjxw/2023-11-16/doc-imzuuezx1805432.shtml",
        "docid": "mzuuezx1805432"
    },
    {
        "title": "「容钠新能源」完成数千万元A轮融资，专注钠离子电池硬炭负极材料研发生产｜早起看早期",
        "url": "https://finance.sina.com.cn/tech/roll/2023-11-16/doc-imzuuezy7128979.shtml",
        "docid": "mzuuezy7128979"
    },
    {
        "title": "合适安排：避免少抵扣进项",
        "url": "https://finance.sina.com.cn/stock/zqgd/2023-11-16/doc-imzuuezy7129009.shtml",
        "docid": "mzuuezy7129009"
    },
    {
        "title": "双十一的税会处理",
        "url": "https://finance.sina.com.cn/stock/zqgd/2023-11-16/doc-imzuuezy7129020.shtml",
        "docid": "mzuuezy7129020"
    },
    {
        "title": "11月16日操盘必读：影响股市利好或利空消息",
        "url": "https://finance.sina.com.cn/stock/cpbd/2023-11-16/doc-imzuuezz8214351.shtml",
        "docid": "mzuuezz8214351"
    },
    {
        "title": "华宝证券：原材料成本下降 加快电车渗透率提振",
        "url": "https://finance.sina.com.cn/jjxw/2023-11-16/doc-imzuuezz8214938.shtml",
        "docid": "mzuuezz8214938"
    },
    {
        "title": "720亿！中国女首富换人！泉州一对母女上榜",
        "url": "https://zx.sina.cn/push/2023-11-16/detail-imzuuezz8215093.d.html",
        "docid": "mzuuezz8215093"
    },
    {
        "title": "全电发票正式更名为“数电票”！企业财务报销与归档迎来哪些巨变？",
        "url": "https://finance.sina.com.cn/stock/zqgd/2023-11-16/doc-imzuuezz8215292.shtml",
        "docid": "mzuuezz8215292"
    },
    {
        "title": "港股印花税降至0.1%，恒指重返1.8万点，中国资产确立涨势了吗？",
        "url": "https://cj.sina.cn/articles/view/2637695114/9d38088a00101dapb?from=finance&subch=astocks",
        "docid": "mzuufac4991901"
    },
    {
        "title": "【早盘快报】昨日恒生科技30ETF(513010)强势收涨2.51%，恒生科技指数单日涨超4%",
        "url": "https://cj.sina.cn/articles/view/6192937794/17120bb4202002488h?from=finance",
        "docid": "mzuumiv1675449"
    },
    {
        "title": "航天发展筹码连续3期集中",
        "url": "https://finance.sina.com.cn/jjxw/2023-11-15/doc-imzusxhq7778362.shtml",
        "docid": "mzusxhq7778362"
    },
    {
        "title": "重磅利好来袭！光伏持续拉升 赛道回暖了吗？",
        "url": "https://finance.sina.com.cn/roll/2023-11-15/doc-imzussyr2518236.shtml",
        "docid": "mzussyr2518236"
    },
    {
        "title": "新疆塔克拉玛干沙漠边缘阻击战现场推进会签约中国铁建和亿利资源集团防沙治沙项目",
        "url": "https://cj.sina.cn/articles/view/7082786426/1a62abe7a020014fy8?from=finance",
        "docid": "mzuqits6403080"
    },
    {
        "title": "光伏产业空间巨大，政策利好频现，金刚光伏等涨停",
        "url": "https://finance.sina.com.cn/stock/relnews/cn/2023-11-15/doc-imzusnsu7955407.shtml",
        "docid": "mzusnsu7955407"
    },
    {
        "title": "年化5%的货基，秒杀大多数理财，打开账户的我瞬间后悔了",
        "url": "https://finance.sina.com.cn/stock/stockzmt/2023-11-14/doc-imzuqpzk1771849.shtml",
        "docid": "mzuqpzk1771849"
    },
    {
        "title": "大增50%，储能又起量了！",
        "url": "https://cj.sina.cn/articles/view/5224789915/1376bf79b001017bod",
        "docid": "mzussyn8560087"
    },
    {
        "title": "卫星互联网板块拉升 波导股份涨停",
        "url": "https://cj.sina.cn/articles/view/5115326071/130e5ae77020020qjz?from=finance",
        "docid": "mzussyq5322603"
    },
    {
        "title": "中国华融更名：中信金融资产！出售“5张牌照” 全面融入中信集团？",
        "url": "https://finance.sina.com.cn/chanjing/gsnews/2023-11-16/doc-imzutiwp5412978.shtml",
        "docid": "mzutiwp5412978"
    },
    {
        "title": "字节跳动上半年营收达540亿美元，已超腾讯",
        "url": "https://finance.sina.com.cn/jjxw/2023-11-15/doc-imzussyn8581549.shtml",
        "docid": "mzussyn8581549"
    },
    {
        "title": "韦勇球，被逮捕",
        "url": "https://finance.sina.com.cn/jjxw/2023-11-15/doc-imzusxhq7779956.shtml",
        "docid": "mzusxhq7779956"
    },
    {
        "title": "“木头姐”称比特币反弹刚开始，最高能涨到150万美元",
        "url": "https://finance.sina.com.cn/stock/usstock/c/2023-11-16/doc-imzuuezx1804809.shtml",
        "docid": "mzuuezx1804809"
    },
    {
        "title": "股海导航 11月16日沪深股市公告与交易提示",
        "url": "https://finance.sina.com.cn/stock/s/2023-11-16/doc-imzuuezz8213627.shtml",
        "docid": "mzuuezz8213627"
    },
    {
        "title": "中粮势赢交易：黑色回暖 甲醇再次上攻",
        "url": "https://finance.sina.com.cn/money/future/roll/2023-11-16/doc-imzuuezz8206587.shtml",
        "docid": "mzuuezz8206587"
    },
    {
        "title": "中钢协：前三季度中国对欧盟钢材出口下降7.3%",
        "url": "https://finance.sina.com.cn/money/future/indu/2023-11-16/doc-imzuumiz4862714.shtml",
        "docid": "mzuumiz4862714"
    },
    {
        "title": "23款丰田酷路泽76硬派越野车配置报价",
        "url": "http://tj.auto.sina.com.cn/shcs/2023-11-15/detail-imzushks8758462.shtml",
        "docid": "mzushks8758462"
    },
    {
        "title": "24款丰田埃尔法天津港现车提车立省8万",
        "url": "http://tj.auto.sina.com.cn/shcs/2023-11-15/detail-imzushks8758772.shtml",
        "docid": "mzushks8758772"
    },
    {
        "title": "24款丰田格兰维亚V6天津最新价格配置",
        "url": "http://tj.auto.sina.com.cn/shcs/2023-11-15/detail-imzushku5536170.shtml",
        "docid": "mzushku5536170"
    },
    {
        "title": "我骂内资属于唾面自干，大家骂几句就得了。我之前说过，央行在2019年在全国30个省（自治区、直辖市）对3万余户城镇居民家...",
        "url": "https://finance.sina.com.cn/roll/2023-11-15/doc-imzushkv2728032.shtml",
        "docid": "mzushkv2728032"
    },
    {
        "title": "碳中和概念股异动，雪迪龙直线拉升涨停",
        "url": "https://cj.sina.cn/articles/view/1829577443/6d0d22e302001aftl?from=finance",
        "docid": "mzushkw8026003"
    },
    {
        "title": "吉利10月销量翻番，背后暗藏国产芯片“大杀器”",
        "url": "https://finance.sina.com.cn/wm/2023-11-15/doc-imzushkw8026999.shtml",
        "docid": "mzushkw8026999"
    },
    {
        "title": "光伏行业2023年三季度专题报告：各环节业绩分化显现 领先龙头有望穿越周期",
        "url": "http://stock.finance.sina.com.cn/stock/go.php/vReport_Show/kind/lastest/rptid/753416091902/index.phtml",
        "docid": "mzutcqr5505232"
    },
    {
        "title": "iPhone 16 外观曝光！国产手机看完笑了",
        "url": "https://t.cj.sina.cn/articles/view/6179635071/17055bf7f019016sl8?from=tech",
        "docid": "mzutqei8517900"
    },
    {
        "title": "银行存款利率又迎调整",
        "url": "https://finance.sina.com.cn/jjxw/2023-11-15/doc-imzurrpc3021495.shtml",
        "docid": "mzurrpc3021495"
    },
    {
        "title": "年近70岁的厅官被捕！曾任中国第一产煤县“一把手”",
        "url": "https://finance.sina.com.cn/wm/2023-11-15/doc-imzusxhq7757665.shtml",
        "docid": "mzusxhq7757665"
    },
    {
        "title": "司机聊收入被弹窗？滴滴回应了",
        "url": "https://t.cj.sina.cn/articles/view/6425175673/17ef8667902701b58n?from=tech",
        "docid": "mzutcqn7657588"
    },
    {
        "title": "印度电信诈骗：它说排第二，谁敢排第一？",
        "url": "https://cj.sina.cn/articles/view/1632067682/614760620270158a7?from=news&subch=onews",
        "docid": "mzutcqm2358803"
    },
    {
        "title": "证监会方星海：A股上市公司总市值近80万亿元，稳居全球第二位【附A股上市公司分析】",
        "url": "https://finance.sina.com.cn/roll/2023-11-15/doc-imzutcqr5514457.shtml",
        "docid": "mzutcqr5514457"
    },
    {
        "title": "腾讯悄悄投了一家创新药",
        "url": "https://finance.sina.com.cn/tech/roll/2023-11-15/doc-imzusxhq7767933.shtml",
        "docid": "mzusxhq7767933"
    },
    {
        "title": "开了5天问界M7后 我才明白为啥它订单能破9万",
        "url": "https://finance.sina.com.cn/tech/mobile/n/n/2023-11-16/doc-imzutqeh7460538.shtml",
        "docid": "mzutqeh7460538"
    },
    {
        "title": "华为总负债突破7000亿元大关，创历史新高！",
        "url": "https://cj.sina.cn/articles/view/2918559854/adf5b06e0190197gg?from=finance",
        "docid": "mzusxhr8807415"
    },
    {
        "title": "通过王自如，来看看格力面临的问题（上）",
        "url": "https://t.cj.sina.cn/articles/view/1658890872/62e0aa7800102482s?from=tech",
        "docid": "mzutcqp8733175"
    },
    {
        "title": "日本10月出口同比增1.6% 胜预期",
        "url": "https://cj.sina.cn/articles/view/5115326071/130e5ae77020020r98?from=finance",
        "docid": "mzuumiz4903849"
    },
    {
        "title": "德国监管机构考虑实施Ozempic出口禁令-36氪",
        "url": "https://finance.sina.com.cn/stock/relnews/us/2023-11-16/doc-imzuumiw7026721.shtml",
        "docid": "mzuumiw7026721"
    },
    {
        "title": "新款iPhone 16的泄密，曝光了苹果迟来的决定",
        "url": "https://finance.sina.com.cn/stock/relnews/us/2023-11-15/doc-imzushkw8045455.shtml",
        "docid": "mzushkw8045455"
    },
    {
        "title": "韩国瑜称有岛内移民公司业绩今年成长三倍，国台办回应",
        "url": "https://finance.sina.com.cn/jjxw/2023-11-15/doc-imzushkw8047858.shtml",
        "docid": "mzushkw8047858"
    },
    {
        "title": "中国30家上市公司第六卷-金融-中国平安（一学-谢永林）.23.1115.平.李祯海",
        "url": "http://blog.sina.com.cn/s/blog_635cc2a40102yzq4.html",
        "docid": "mzusnsq8634046"
    },
    {
        "title": "猪价、猪病双夹击！仔猪市场“颓势”，养殖户仍将面临2大难题！",
        "url": "https://cj.sina.cn/articles/view/6652117697/18c7f42c1001011u0h?from=finance&subch=futures",
        "docid": "mzusnsq8641058"
    },
    {
        "title": "“纯血鸿蒙”问世！摆脱安卓套皮！微信、支付宝加紧适配！",
        "url": "https://t.cj.sina.cn/articles/view/5763597638/157898546019017ljq?from=tech",
        "docid": "mzusnst2625605"
    },
    {
        "title": "百度李彦宏：其他大模型都是在“重复造轮子”，国内200多个模型没什么使用量｜钛媒体焦点",
        "url": "https://finance.sina.com.cn/stock/relnews/us/2023-11-15/doc-imzusnsu7927188.shtml",
        "docid": "mzusnsu7927188"
    },
    {
        "title": "瑞银：传闻中新的支持楼市措施是解决当前内房困境积极举措",
        "url": "https://finance.sina.com.cn/stock/estate/integration/2023-11-15/doc-imzusnsu7936072.shtml",
        "docid": "mzusnsu7936072"
    },
    {
        "title": "大豆“突发变局”！“仓容有限”中储粮最新通知！",
        "url": "https://k.sina.cn/article_5786808691_158ebb17301901aaci.html",
        "docid": "mzutytz1908968"
    },
    {
        "title": "惹谁别惹董事长",
        "url": "https://finance.sina.com.cn/money/fund/fundzmt/2023-11-15/doc-imzutcqr5514403.shtml",
        "docid": "mzutcqr5514403"
    },
    {
        "title": "汇金股份注销300万股回购股份，正被调查面临股民索赔",
        "url": "https://cj.sina.cn/articles/view/7317133861/1b4229a25001017lfz?from=finance&subch=astocks",
        "docid": "mzuquin6219553"
    },
    {
        "title": "券商股震荡拉升 信达证券涨停",
        "url": "https://cj.sina.cn/articles/view/2868676035/aafc85c30200176bm?from=finance",
        "docid": "mzushkv2693269"
    },
    {
        "title": "借车载同事上班致其成植物人被判赔40万：出借人也需赔30万",
        "url": "https://t.cj.sina.cn/articles/view/1659643027/62ec249302001ao26?from=tech",
        "docid": "mzushkv2697135"
    },
    {
        "title": "小米首款汽车外观正式公布：光这车标就值200万！",
        "url": "https://finance.sina.com.cn/tech/roll/2023-11-16/doc-imzutqei8531693.shtml",
        "docid": "mzutqei8531693"
    },
    {
        "title": "董明珠“绯闻”员工王自如，到底什么来路？ 这位CEO怒怼他后又道歉",
        "url": "https://finance.sina.com.cn/stock/relnews/cn/2023-11-16/doc-imzuufac4981813.shtml",
        "docid": "mzuufac4981813"
    },
    {
        "title": "94岁女首富的宫斗史：逼宫儿子，为儿媳斗小三、分百亿遗产",
        "url": "https://cj.sina.cn/articles/view/6179501165/17053b46d027016sk5?from=estate",
        "docid": "mzutcqm2351949"
    },
    {
        "title": "11月MLF净投放创年内新高，银行间利率有所回升，降准仍可期待？",
        "url": "https://finance.sina.com.cn/stock/marketresearch/2023-11-16/doc-imzuuezx1791734.shtml",
        "docid": "mzuuezx1791734"
    },
    {
        "title": "特斯拉粉丝吐槽150美元两瓶的赛博啤酒喝起来像垃圾",
        "url": "https://finance.sina.com.cn/stock/usstock/c/2023-11-16/doc-imzuumiz4895671.shtml",
        "docid": "mzuumiz4895671"
    },
    {
        "title": "爱喝白酒的年轻人越来越少，还需要这么多白酒品牌吗？",
        "url": "https://finance.sina.com.cn/chanjing/jync/zxxx/2023-11-16/doc-imzuufac4992327.shtml",
        "docid": "mzuufac4992327"
    },
    {
        "title": "扬尘污染、擅自开工建设等 绿城旗下多家企业被处罚",
        "url": "https://finance.sina.com.cn/jjxw/2023-11-16/doc-imzuurrv8010352.shtml",
        "docid": "mzuurrv8010352"
    },
    {
        "title": "10月70城房价出炉：各线城市商品住宅销售价格环比下降",
        "url": "https://finance.sina.com.cn/china/gncj/2023-11-16/doc-imzuumiw7022513.shtml",
        "docid": "mzuumiw7022513"
    },
    {
        "title": "华为汽车概念拉升 隆基机械涨停",
        "url": "https://cj.sina.cn/articles/view/2868676035/aafc85c30200176ej?from=auto&subch=oauto",
        "docid": "mzusnst2634829"
    },
    {
        "title": "西部矿业(601168)深度报告：攻守属性兼备的铜矿巨头",
        "url": "https://finance.sina.com.cn/stock/relnews/cn/2023-11-15/doc-imzusnsu7943093.shtml",
        "docid": "mzusnsu7943093"
    },
    {
        "title": "民进党当局称明年开放台湾团客赴大陆旅游，国台办回应",
        "url": "https://finance.sina.com.cn/jjxw/2023-11-15/doc-imzusnsu7945610.shtml",
        "docid": "mzusnsu7945610"
    },
    {
        "title": "知名家具公司直营店一半关闭",
        "url": "https://cj.sina.cn/articles/view/2408661644/8f91428c019013qqh?from=finance",
        "docid": "mzusnsu7949159"
    },
    {
        "title": "理想汽车揭秘麒麟5C电池如何成全球第一：超1000人花3年打了场硬仗",
        "url": "https://finance.sina.com.cn/tech/discovery/2023-11-15/doc-imzusnsu7953546.shtml",
        "docid": "mzusnsu7953546"
    },
    {
        "title": "台湾“蓝白合”成局，尚留一悬念待揭晓",
        "url": "https://finance.sina.com.cn/wm/2023-11-15/doc-imzussyn8541518.shtml",
        "docid": "mzussyn8541518"
    },
    {
        "title": "前三季度业绩增速创7年来新低！五粮液怎样得到年轻人的心？",
        "url": "https://cj.sina.cn/articles/view/3815062128/e3653a7000101ffww?from=finance&subch=futures",
        "docid": "mzussyn8546253"
    },
    {
        "title": "鸿蒙官宣，6款荣耀手机喜提4.0正式版，搭载麒麟990/985芯片",
        "url": "https://t.cj.sina.cn/articles/view/1287413390/4cbc5e8e001018h96?from=digit",
        "docid": "mzuuezz8198534"
    },
    {
        "title": "10万亿大消息！抢！跑！再不抢来不及了？",
        "url": "https://cj.sina.cn/articles/view/3277221682/c3566f32019018grr?from=finance",
        "docid": "mzutqem5306546"
    },
    {
        "title": "知名品牌宣布：涨价！",
        "url": "https://finance.sina.com.cn/wm/2023-11-15/doc-imzusaax2794915.shtml",
        "docid": "mzusaax2794915"
    },
    {
        "title": "“光伏茅”隆基绿能进入阵痛期",
        "url": "https://cj.sina.cn/articles/view/6247453921/1746094e10010158if?from=finance&subch=astocks",
        "docid": "mzusaaw5613733"
    },
    {
        "title": "周立波不幸染病在京逝世，把一生积蓄捐给祖国！妻子哭成泪人",
        "url": "https://finance.sina.com.cn/wm/2023-11-16/doc-imzuumiw7015526.shtml",
        "docid": "mzuumiw7015526"
    },
    {
        "title": "上海人从小喝到大的“光明”被淘汰、下架？企业回应→",
        "url": "https://finance.sina.com.cn/jjxw/2023-11-15/doc-imzushkv2697859.shtml",
        "docid": "mzushkv2697859"
    },
    {
        "title": "网传第八代五粮液出厂价每瓶将涨至1000元以上",
        "url": "https://finance.sina.com.cn/chanjing/jync/zxxx/2023-11-16/doc-imzuuezx1800315.shtml",
        "docid": "mzuuezx1800315"
    },
    {
        "title": "许家印海上盛宴幻灭之后",
        "url": "https://cj.sina.cn/articles/view/2389641745/8e6f0a1102001yzl6?from=finance",
        "docid": "mzusxhr8834069"
    },
    {
        "title": "刘銮雄与许家印十年恩怨纠葛",
        "url": "https://finance.sina.com.cn/cj/2023-11-16/doc-imzuuezy7128811.shtml",
        "docid": "mzuuezy7128811"
    },
    {
        "title": "王自如经典语录刷屏网络，让全网打工人自愧不如！",
        "url": "https://t.cj.sina.cn/articles/view/5876375021/15e425ded001015c6t?from=tech",
        "docid": "mzusxht5596994"
    },
    {
        "title": "我国在15个城市启动 首批公共领域车辆全面电动化先行区试点",
        "url": "https://finance.sina.com.cn/jjxw/2023-11-15/doc-imzurexi3254027.shtml",
        "docid": "mzurexi3254027"
    },
    {
        "title": "“预计10万”亲以人士奔赴华盛顿，美政府“一级”戒备",
        "url": "https://cj.sina.cn/articles/view/1887344341/707e96d502001f4cn?from=finance",
        "docid": "mzuqpzk1749959"
    },
    {
        "title": "美降息时间表提速 人民币汇率积极向好",
        "url": "https://finance.sina.com.cn/stock/yjdt/2023-11-16/doc-imzuuezy7128334.shtml",
        "docid": "mzuuezy7128334"
    },
    {
        "title": "胆儿肥！明知涉嫌洗钱，理直气壮去公安局要求解冻银行卡",
        "url": "https://finance.sina.com.cn/jjxw/2023-11-15/doc-imzusnsu7950551.shtml",
        "docid": "mzusnsu7950551"
    },
    {
        "title": "小盘股雄起",
        "url": "https://cj.sina.cn/articles/view/2183570524/8226a45c00101agi8",
        "docid": "mzussyn8563502"
    },
    {
        "title": "瑞银：中国股市将在2024年跑赢印度股市",
        "url": "https://cj.sina.cn/articles/view/1829577443/6d0d22e302001afwh?from=finance",
        "docid": "mzussyn8567415"
    },
    {
        "title": "掌握全球第一大锂矿资源,A股锂矿板块毛利率排名第1,证金公司入股",
        "url": "https://cj.sina.cn/articles/view/7669966052/1c92a64e4001014csx?from=finance&subch=astocks",
        "docid": "mzussyn8568964"
    },
    {
        "title": "音频｜谁是全球销量冠军？ 大众高尔夫还是丰田卡罗拉",
        "url": "https://finance.sina.com.cn/wm/2023-11-15/doc-imzussyr2515735.shtml",
        "docid": "mzussyr2515735"
    },
    {
        "title": "突发行情！金价短线急涨突破1970美元",
        "url": "https://finance.sina.com.cn/money/nmetal/hjzx/2023-11-15/doc-imzussyr2518498.shtml",
        "docid": "mzussyr2518498"
    },
    {
        "title": "福赛科技(301529.SZ)：公司产品运用于新能源汽车领先企业",
        "url": "https://finance.sina.com.cn/stock/hkstock/ggscyd/2023-11-15/doc-imzussys7833517.shtml",
        "docid": "mzussys7833517"
    },
    {
        "title": "董明珠为什么错了！",
        "url": "https://cj.sina.cn/articles/view/1035993027/3dbfffc3019020rah",
        "docid": "mzuurrv8013943"
    },
    {
        "title": "太厉害了！外国摄影师在中国拍到的这一幕，看完惊呆了！",
        "url": "https://t.cj.sina.cn/articles/view/3483222471/cf9dc1c70190129na?from=digit",
        "docid": "mzuumix8099519"
    },
    {
        "title": "中国最有钱的女人，太苦了！",
        "url": "https://cj.sina.cn/articles/view/5224789915/1376bf79b020017buf?from=ent&subch=oent",
        "docid": "mzuurru6916489"
    },
    {
        "title": "巨亏！三星“翻滚”下坡",
        "url": "https://k.sina.cn/article_5782647650_158ac3362001015c65.html",
        "docid": "mzusxhp2430186"
    },
    {
        "title": "门店几乎全关！曾开遍上海商圈的知名餐饮品牌公司破产清算？",
        "url": "https://finance.sina.com.cn/wm/2023-11-16/doc-imzuumiw7015545.shtml",
        "docid": "mzuumiw7015545"
    },
    {
        "title": "苹果 “翻车”，网友：退钱！",
        "url": "https://finance.sina.com.cn/jjxw/2023-11-15/doc-imzusaax2794135.shtml",
        "docid": "mzusaax2794135"
    },
    {
        "title": "光刻胶概念持续活跃，西陇科学再度涨停",
        "url": "https://cj.sina.cn/articles/view/5182171545/m134e1a99902001nqah?from=finance",
        "docid": "mzuurru6909923"
    },
    {
        "title": "恒为科技再度涨停，录得6天4板",
        "url": "https://finance.sina.com.cn/jjxw/2023-11-16/doc-imzuumiv1704390.shtml",
        "docid": "mzuumiv1704390"
    },
    {
        "title": "光耀世界，晶澳科技DeepBlue 4.0 Pro 2465组件登上“世界屋脊”",
        "url": "https://cj.sina.cn/articles/view/5145329956/132af812400101cwsk",
        "docid": "mzuumiz4893634"
    },
    {
        "title": "全系混动，全新一代凯美瑞来了！",
        "url": "https://finance.sina.com.cn/wm/2023-11-16/doc-imzuumiw7021666.shtml",
        "docid": "mzuumiw7021666"
    },
    {
        "title": "120亿元！中石化已破净，为什么还能再融资？",
        "url": "https://finance.sina.com.cn/jjxw/2023-11-14/doc-imzuqpzn9511086.shtml",
        "docid": "mzuqpzn9511086"
    },
    {
        "title": "周小川：当下问题，要对症下药",
        "url": "https://cj.sina.cn/articles/view/1908759833/71c55d19019010044?from=finance",
        "docid": "mzutiwk7554662"
    },
    {
        "title": "尾盘：美股继续上扬 道指突破35000点",
        "url": "https://finance.sina.com.cn/stock/usstock/c/2023-11-16/doc-imzutyuc8301864.shtml",
        "docid": "mzutyuc8301864"
    },
    {
        "title": "不再兼容安卓？华为鸿蒙概念爆发！哪些公司有望受益？",
        "url": "https://t.cj.sina.cn/articles/view/1667856794/6369799a001012ncu?from=tech",
        "docid": "mzussyn8541987"
    },
    {
        "title": "持续向上突破态势已成",
        "url": "https://cj.sina.cn/articles/view/1285707277/4ca2560d00101bjed?from=finance&subch=astocks",
        "docid": "mzussyn8549473"
    },
    {
        "title": "掌趣科技与蓝亚盒子达成战略合作协议 布局AI游戏引擎",
        "url": "https://finance.sina.com.cn/stock/relnews/cn/2023-11-15/doc-imzussyq5320620.shtml",
        "docid": "mzussyq5320620"
    },
    {
        "title": "宁波海运：目前没有与宁波远洋合并的计划",
        "url": "https://cj.sina.cn/articles/view/5182171545/m134e1a99902001npmd?from=finance",
        "docid": "mzussyq5327867"
    },
    {
        "title": "俄油上限已成国际笑话？欧盟苦思出新招：让丹麦“紧扼”海运要道……",
        "url": "https://finance.sina.com.cn/stock/usstock/c/2023-11-15/doc-imzussys7851653.shtml",
        "docid": "mzussys7851653"
    },
    {
        "title": "11月16日大盘监测图",
        "url": "https://cj.sina.cn/articles/view/1448623274/56583caa019022649?from=finance",
        "docid": "mzussys7860503"
    },
    {
        "title": "苏州固锝(002079.SZ)：截至2023年第三季度，光伏电子浆料产品的营收和利润占比已经超过集团公司的50%",
        "url": "https://finance.sina.com.cn/stock/relnews/cn/2023-11-15/doc-imzussys7861329.shtml",
        "docid": "mzussys7861329"
    },
    {
        "title": "终于让中方给等到了，联合国机构正式落户上海，拜登1.5亿要白花了",
        "url": "https://finance.sina.com.cn/wm/2023-11-16/doc-imzuurrt1620368.shtml",
        "docid": "mzuurrt1620368"
    },
    {
        "title": "A100 算力：收费上调 100%",
        "url": "https://t.cj.sina.cn/articles/view/3172142827/bd130eeb0190137lp?from=tech",
        "docid": "mzurexk8571744"
    },
    {
        "title": "万科的“后台”，够强够硬！",
        "url": "https://cj.sina.cn/articles/view/1035993027/3dbfffc3019020rai",
        "docid": "mzuurru6920871"
    },
    {
        "title": "“中国第一高楼”深圳世茂深港国际中心降价26亿后再度流拍",
        "url": "https://finance.sina.com.cn/jjxw/2023-11-16/doc-imzuurru6942467.shtml",
        "docid": "mzuurru6942467"
    },
    {
        "title": "东方雨虹员工持股巨亏",
        "url": "https://finance.sina.com.cn/jjxw/2023-11-16/doc-imzuufac4976379.shtml",
        "docid": "mzuufac4976379"
    },
    {
        "title": "半导体板块涨1.36% 寒武纪涨13.19%居首",
        "url": "https://finance.sina.com.cn/roll/2023-11-14/doc-imzuqpzr3539132.shtml",
        "docid": "mzuqpzr3539132"
    },
    {
        "title": "上海顶流学区房价格跌回6年前",
        "url": "https://finance.sina.com.cn/jjxw/2023-11-16/doc-imzuuezx1798224.shtml",
        "docid": "mzuuezx1798224"
    },
    {
        "title": "200块的「第二医保」，便宜也别随便买",
        "url": "https://finance.sina.com.cn/wm/2023-11-15/doc-imzutiwm8624189.shtml",
        "docid": "mzutiwm8624189"
    },
    {
        "title": "限购“松绑”，楼市反响如何？",
        "url": "https://finance.sina.com.cn/money/future/indu/2023-11-16/doc-imzuumiv1677137.shtml",
        "docid": "mzuumiv1677137"
    },
    {
        "title": "北上广深10月房价变动：上海新房同环比均上涨 广州继续下降且降幅扩大",
        "url": "https://finance.sina.com.cn/stock/hkstock/marketalerts/2023-11-16/doc-imzuumix8115930.shtml",
        "docid": "mzuumix8115930"
    },
    {
        "title": "华为又“上新”！余承东：“科技车皇”即将亮相！",
        "url": "https://finance.sina.com.cn/wm/2023-11-16/doc-imzuuvxt7916265.shtml",
        "docid": "mzuuvxt7916265"
    },
    {
        "title": "楼市松绑！这个热门城市出手了，多子女家庭购房还有优惠",
        "url": "https://finance.sina.com.cn/stock/relnews/hk/2023-11-16/doc-imzuumix8115411.shtml",
        "docid": "mzuumix8115411"
    },
    {
        "title": "银行备战“开门红” 存款产品热销",
        "url": "https://finance.sina.com.cn/money/bank/bank_hydt/2023-11-16/doc-imzuuezy7123068.shtml",
        "docid": "mzuuezy7123068"
    },
    {
        "title": "央行大幅加量平价续作MLF 年内仍有降准可能",
        "url": "https://finance.sina.com.cn/jjxw/2023-11-16/doc-imzutqeh7468018.shtml",
        "docid": "mzutqeh7468018"
    },
    {
        "title": "云南白药：上半年养元青洗护产品实现营收同比大增90%",
        "url": "https://finance.sina.com.cn/stock/relnews/cn/2023-11-15/doc-imzussyn8586029.shtml",
        "docid": "mzussyn8586029"
    },
    {
        "title": "方正证券回应与平安证券同业竞争问题：正与各方一起按监管指引开展工作",
        "url": "https://cj.sina.cn/articles/view/2868676035/aafc85c30200176f3?from=finance",
        "docid": "mzussyr2523802"
    },
    {
        "title": "玲珑轮胎：预计今年会有较大新增产能",
        "url": "https://finance.sina.com.cn/jjxw/2023-11-15/doc-imzussys7860127.shtml",
        "docid": "mzussys7860127"
    },
    {
        "title": "一体式压铸技术惹争议，特斯拉向保险公司证明汽车维修成本并不高",
        "url": "https://t.cj.sina.cn/articles/view/1826017320/6cd6d028020019n6n?from=tech",
        "docid": "mzussys7867368"
    },
    {
        "title": "士兰微(600460.SH)：厦门12吋产线计划在明年第二季度、最晚第三季度实现基本满产",
        "url": "https://finance.sina.com.cn/stock/relnews/cn/2023-11-15/doc-imzusxhn5244860.shtml",
        "docid": "mzusxhn5244860"
    },
    {
        "title": "易纲：当前经济运行的九个特点",
        "url": "https://news.sina.com.cn/o/2023-11-15/doc-imzusxhp2418030.shtml",
        "docid": "mzusxhp2418030"
    },
    {
        "title": "缅甸知情人士：缅甸电诈家族遭打击后大批交人",
        "url": "https://cj.sina.cn/articles/view/1776830283/69e8474b02001ca9d?from=ent&subch=oent",
        "docid": "mzuqpzq6297114"
    },
    {
        "title": "天汽模最新筹码趋于集中",
        "url": "https://finance.sina.com.cn/jjxw/2023-11-15/doc-imzusxhp2423402.shtml",
        "docid": "mzusxhp2423402"
    },
    {
        "title": "刚刚，小米官宣：面向全球，正式开源！",
        "url": "https://finance.sina.com.cn/jjxw/2023-11-16/doc-imzuurrx4814189.shtml",
        "docid": "mzuurrx4814189"
    },
    {
        "title": "迪拜航展，印度光辉战机关键时刻掉链子｜京酿馆",
        "url": "https://finance.sina.com.cn/jjxw/2023-11-16/doc-imzuurrv8004041.shtml",
        "docid": "mzuurrv8004041"
    },
    {
        "title": "九万多元苹果代销商卖了不到五万元 低价没先商量？",
        "url": "https://t.cj.sina.cn/articles/view/2334162530/m8b207e62033015twn?from=tech",
        "docid": "mzusxhp2418175"
    },
    {
        "title": "士兰微(600460.SH)：预计今年4季度公司产品综合毛利率水平将企稳并逐步改善",
        "url": "https://finance.sina.com.cn/stock/relnews/cn/2023-11-15/doc-imzusxhp2426516.shtml",
        "docid": "mzusxhp2426516"
    },
    {
        "title": "博俊科技：公司为赛力斯问界M7和M9车型供应车身件等相关产品",
        "url": "https://cj.sina.cn/articles/view/1850649324/6e4eaaec02001a9y9?from=finance",
        "docid": "mzusxhp2445159"
    },
    {
        "title": "锂电企业定增中止！",
        "url": "https://finance.sina.com.cn/stock/relnews/cn/2023-11-15/doc-imzusxhp2449850.shtml",
        "docid": "mzusxhp2449850"
    },
    {
        "title": "碳酸锂：电芯还増得动吗",
        "url": "https://finance.sina.com.cn/money/future/wemedia/2023-11-15/doc-imzusxhp2450699.shtml",
        "docid": "mzusxhp2450699"
    },
    {
        "title": "名校本科毕业却考研进入“非名校”？麦可思研究院：逆向考研“往下读”比例上升",
        "url": "https://finance.sina.com.cn/jjxw/2023-11-15/doc-imzusxhp2451006.shtml",
        "docid": "mzusxhp2451006"
    },
    {
        "title": "历时13年！北斗系统正式加入国际民航组织（ICAO）标准，今后可全球民航通用【附卫星导航服务产业分析】",
        "url": "https://finance.sina.com.cn/roll/2023-11-16/doc-imzuurru6938009.shtml",
        "docid": "mzuurru6938009"
    },
    {
        "title": "日本10月贸易逆差6625亿日元，对华出口连续11个月下降",
        "url": "https://cj.sina.cn/articles/view/1887344341/707e96d502001f4yj?from=finance",
        "docid": "mzuuvxs6847460"
    },
    {
        "title": "一天2万亿，水来了！",
        "url": "https://cj.sina.cn/articles/view/5875131404/15e2f640c00101ahdl?from=finance",
        "docid": "mzuurrt1618235"
    },
    {
        "title": "汽车整车板块走高 江铃汽车2连板",
        "url": "https://finance.sina.com.cn/stock/hkstock/marketalerts/2023-11-15/doc-imzushkw8039814.shtml",
        "docid": "mzushkw8039814"
    },
    {
        "title": "上海顶流学区房价格跌回六年前 学区房价格已经悄悄走下神坛",
        "url": "https://cj.sina.cn/articles/view/1193725273/m4726cd5905302h4w7?from=estate",
        "docid": "mzuuvxr1509195"
    },
    {
        "title": "明年起，手握定期存款的人需要做好三个准备，了解一下！",
        "url": "https://cj.sina.cn/articles/view/7631269926/1c6dbf02600100yfb6?from=finance&subch=bank",
        "docid": "mzushku5491971"
    },
    {
        "title": "中美发表重磅声明！光伏股集体直线飙升",
        "url": "https://finance.sina.com.cn/jjxw/2023-11-16/doc-imzuurrv8026198.shtml",
        "docid": "mzuurrv8026198"
    },
    {
        "title": "难了！该促消费了！",
        "url": "https://finance.sina.com.cn/wm/2023-11-15/doc-imzusxhp2440602.shtml",
        "docid": "mzusxhp2440602"
    },
    {
        "title": "光伏的2023，是“星辰大海”前的泥泞路，还是“大逃杀”的前奏曲？",
        "url": "https://cj.sina.cn/articles/view/2853016445/aa0d937d02000yfeq?from=finance",
        "docid": "mzuumiw7031685"
    },
    {
        "title": "一天狂赚1000万美元，散户逼空华尔街，原来股票是这么玩的？",
        "url": "https://cj.sina.cn/articles/view/2143550005/m7fc3fa35053016lab?from=finance",
        "docid": "mzusaax2811722"
    },
    {
        "title": "一个女人决定与宁波首富鱼死网破",
        "url": "https://finance.sina.com.cn/wm/2023-11-16/doc-imzuurru6931979.shtml",
        "docid": "mzuurru6931979"
    },
    {
        "title": "巴菲特的碳酸锂期货大战：重仓抄底，多头与空头的巅峰对决",
        "url": "http://blog.sina.com.cn/s/blog_67d52a5e0102zb1v.html",
        "docid": "mzuuvxv4709050"
    },
    {
        "title": "北方开始供暖，他却永远离开了……",
        "url": "https://cj.sina.cn/articles/view/1766006574/69431f2e01901b0bz?from=finance",
        "docid": "mzuuezz8200880"
    },
    {
        "title": "王东升辞职",
        "url": "https://finance.sina.com.cn/stock/relnews/cn/2023-11-15/doc-imzutcqp8712614.shtml",
        "docid": "mzutcqp8712614"
    },
    {
        "title": "190万公里！全球行驶里程最长的特斯拉诞生，比油车还耐用？",
        "url": "https://t.cj.sina.cn/articles/view/5061312402/12dad7f9202001r9f0?from=tech",
        "docid": "mzuurru6919583"
    },
    {
        "title": "城中村改造的最终目的是什么",
        "url": "https://finance.sina.com.cn/jjxw/2023-11-16/doc-imzuumiv1683511.shtml",
        "docid": "mzuumiv1683511"
    },
    {
        "title": "特斯拉回应2万元山寨版“老头乐”：已跟进",
        "url": "https://finance.sina.com.cn/stock/hkstock/marketalerts/2023-11-16/doc-imzuurrt1607030.shtml",
        "docid": "mzuurrt1607030"
    },
    {
        "title": "水牛奶知名品牌“南国乳业”产品酸度不合格 被广东省市场监督管理局通报",
        "url": "https://finance.sina.com.cn/jjxw/2023-11-16/doc-imzuvafp1420710.shtml",
        "docid": "mzuvafp1420710"
    },
    {
        "title": "世界城地组织亚太区物流委员会在浙江义乌成立",
        "url": "https://cj.sina.cn/articles/view/1784473157/6a5ce64502002sppj?from=finance",
        "docid": "mzuvafp1420869"
    },
    {
        "title": "小米汽车，年轻人可能买不起",
        "url": "https://finance.sina.com.cn/tech/csj/2023-11-16/doc-imzuvafp1421093.shtml",
        "docid": "mzuvafp1421093"
    },
    {
        "title": "北京延庆法院执行局：织密保障民生之网",
        "url": "https://finance.sina.com.cn/jjxw/2023-11-16/doc-imzuvafp1421925.shtml",
        "docid": "mzuvafp1421925"
    },
    {
        "title": "沃尔玛计划将越南作为亚洲区域商品供应中心 寻求扩大采购",
        "url": "https://t.cj.sina.cn/articles/view/2868676035/aafc85c30200176rc?from=tech",
        "docid": "mzuvafp1422198"
    },
    {
        "title": "刘强东为何又换帅？",
        "url": "https://finance.sina.com.cn/wm/2023-11-16/doc-imzuumiz4864099.shtml",
        "docid": "mzuumiz4864099"
    },
    {
        "title": "最危险的历史时刻，再次重演…",
        "url": "https://cj.sina.cn/articles/view/5896607775/15f77181f00101p4dx?from=news",
        "docid": "mzuurrv8039965"
    },
    {
        "title": "大降！即将大降",
        "url": "https://k.sina.cn/article_1692079024_64db13b001901088d.html",
        "docid": "mzuumiw7017451"
    },
    {
        "title": "94岁当中国女首富，是她最不想要的",
        "url": "https://cj.sina.cn/articles/view/2328665481/8acc9d8900101jc6z?from=ent&subch=star",
        "docid": "mzuumix8129522"
    },
    {
        "title": "银行里的钱到期后，要不要把钱取出来？内行人提醒，别做错了",
        "url": "https://cj.sina.cn/articles/view/7631269926/1c6dbf02600100yfb0?from=finance&subch=bank",
        "docid": "mzusaau8838593"
    },
    {
        "title": "抖音概念股震荡拉升 省广集团涨停",
        "url": "https://cj.sina.cn/articles/view/2868676035/aafc85c30200176o9",
        "docid": "mzuurrv8013439"
    },
    {
        "title": "突然，全线暴涨！",
        "url": "https://cj.sina.cn/articles/view/3748698515/df70999301901n05d?from=finance",
        "docid": "mzusxht5608644"
    },
    {
        "title": "iPhone 17 Pro首发！苹果将迈入单挖孔屏时代：告别药丸屏",
        "url": "https://finance.sina.com.cn/tech/roll/2023-11-16/doc-imzuuezx1806036.shtml",
        "docid": "mzuuezx1806036"
    },
    {
        "title": "A股调整，但消除了这个“隐忧”",
        "url": "https://finance.sina.com.cn/jjxw/2023-11-16/doc-imzuvafr7841211.shtml",
        "docid": "mzuvafr7841211"
    },
    {
        "title": "股市早8点丨应严查遏制内资持续恶意做空行径",
        "url": "https://cj.sina.cn/articles/view/1279884602/4c497d3a0010157or?from=finance&subch=astocks",
        "docid": "mzuuezz8193035"
    },
    {
        "title": "许皮带不但割穷人，割富豪也是一套一套的……",
        "url": "https://cj.sina.cn/articles/view/2272673835/8776402b040011tzn?from=finance",
        "docid": "mzushkv2721853"
    },
    {
        "title": "美联储停止加息板上钉钉？美股机会可能出现在哪里",
        "url": "https://finance.sina.com.cn/roll/2023-11-16/doc-imzuuezy7121920.shtml",
        "docid": "mzuuezy7121920"
    },
    {
        "title": "今冬不再上演“抢气大战”？传亚洲天然气买家因库存过多寻求转售货物",
        "url": "https://finance.sina.com.cn/stock/hkstock/ggscyd/2023-11-16/doc-imzuvafr7845620.shtml",
        "docid": "mzuvafr7845620"
    },
    {
        "title": "Mysteel日报：黑色金属期货震荡上涨",
        "url": "https://finance.sina.com.cn/money/future/inducom/2021-11-17/doc-iktzscyy6110197.shtml",
        "docid": "ktzscyy6110197"
    },
    {
        "title": "贵阳银行股权再被国资股东质押，一致行动体质押比例已接近50%",
        "url": "https://cj.sina.cn/articles/view/5617041192/14ecd3f2802001es2n?from=finance",
        "docid": "mzuvafp1440463"
    },
    {
        "title": "一“升”两“降” 湖南前三季度“双碳”成绩表出炉",
        "url": "https://cj.sina.cn/articles/view/3363163410/c875cd1202001j31d?from=finance",
        "docid": "mzuvafp1440547"
    },
    {
        "title": "11月16日青鸟消防现3884.84万元大宗交易",
        "url": "https://finance.sina.com.cn/stock/relnews/cn/2023-11-16/doc-imzuvafp1440927.shtml",
        "docid": "mzuvafp1440927"
    },
    {
        "title": "年轻人何以成为数字外贸创业主力？",
        "url": "https://finance.sina.com.cn/jjxw/2023-11-16/doc-imzuvafp1441010.shtml",
        "docid": "mzuvafp1441010"
    },
    {
        "title": "四川农大牵头组建“粮食安全”教育科技创新联盟",
        "url": "https://finance.sina.com.cn/jjxw/2023-11-16/doc-imzuvafq6763923.shtml",
        "docid": "mzuvafq6763923"
    },
    {
        "title": "《“百城、千街、万店”消费指数报告》发布：供需两端需协同发力推动市场回暖",
        "url": "https://finance.sina.com.cn/jjxw/2023-11-16/doc-imzuvafr7867498.shtml",
        "docid": "mzuvafr7867498"
    },
    {
        "title": "突发重磅利好，拐点再次确认！",
        "url": "https://finance.sina.com.cn/tech/roll/2023-11-16/doc-imzuumix8089824.shtml",
        "docid": "mzuumix8089824"
    },
    {
        "title": "微软深夜连甩三大炸弹",
        "url": "https://finance.sina.com.cn/jjxw/2023-11-16/doc-imzuuvxs6832380.shtml",
        "docid": "mzuuvxs6832380"
    },
    {
        "title": "明天，很可能这样走！",
        "url": "https://cj.sina.cn/articles/view/1053985634/3ed28b6202701dar9?from=finance",
        "docid": "mzuvafp1420480"
    },
    {
        "title": "统一股份人气暴涨，今天又涨停了",
        "url": "https://cj.sina.cn/articles/view/1961718870/74ed745604001anmg",
        "docid": "mzuurrt1600074"
    },
    {
        "title": "周五操作：继续关注大金融的调整",
        "url": "http://blog.sina.com.cn/s/blog_5efd68e10102z8l0.html",
        "docid": "mzuvafr7835701"
    },
    {
        "title": "下架，打击！抖音、快手、微信集体出手",
        "url": "https://finance.sina.com.cn/jjxw/2023-11-16/doc-imzuvafp1407742.shtml",
        "docid": "mzuvafp1407742"
    },
    {
        "title": "华为负债与恒大负债有很大不同，大家不要谈债色变！",
        "url": "https://cj.sina.cn/articles/view/2918559854/adf5b06e0190197ke?from=finance",
        "docid": "mzuvafp1417272"
    },
    {
        "title": "鸿蒙概念异动拉升 润和软件涨近10%",
        "url": "https://t.cj.sina.cn/articles/view/2868676035/aafc85c30200176pv?from=tech",
        "docid": "mzuuvxr1512466"
    },
    {
        "title": "龙高股份5连板，股价创出历史新高",
        "url": "https://finance.sina.com.cn/jjxw/2023-11-16/doc-imzuumiw7023715.shtml",
        "docid": "mzuumiw7023715"
    },
    {
        "title": "10月住户存款减少6369亿元，中长期看“存款搬家”现象或将强化",
        "url": "https://cj.sina.cn/articles/view/1926909715/72da4f130010258m6?from=finance&subch=bank",
        "docid": "mzuqyrk6135575"
    },
    {
        "title": "“台独”又盯上了“北斗”→",
        "url": "https://finance.sina.com.cn/wm/2023-11-15/doc-imzutiwm8621324.shtml",
        "docid": "mzutiwm8621324"
    },
    {
        "title": "上汽奥迪“控制库存”，内部员工价A7L最高直降20万",
        "url": "https://t.cj.sina.cn/articles/view/6890756658/19ab89a3204001anmd?from=auto&subch=oauto",
        "docid": "mzuurrt1596397"
    },
    {
        "title": "警惕！骗子对孩子的微信号下手了",
        "url": "https://finance.sina.com.cn/jjxw/2023-11-15/doc-imzusxhq7767923.shtml",
        "docid": "mzusxhq7767923"
    },
    {
        "title": "恒为科技(603496)：算力调优&训推一体机打开AI成长空间",
        "url": "https://finance.sina.com.cn/stock/relnews/cn/2023-11-15/doc-imzushks8711950.shtml",
        "docid": "mzushks8711950"
    },
    {
        "title": "高盛：“壮丽七姊妹”2023年撑起美股，2024年有望继续领跑",
        "url": "https://finance.sina.com.cn/stock/usstock/c/2023-11-16/doc-imzuvaft4610843.shtml",
        "docid": "mzuvaft4610843"
    },
    {
        "title": "金域医学通过国家临检中心mNGS室间质评",
        "url": "https://finance.sina.com.cn/jjxw/2023-11-16/doc-imzuvhpm1329024.shtml",
        "docid": "mzuvhpm1329024"
    },
    {
        "title": "特斯拉：期待在新能源汽车、储能、人工智能等领域与行业共同发展",
        "url": "https://finance.sina.com.cn/jjxw/2023-11-16/doc-imzuvhpm1329113.shtml",
        "docid": "mzuvhpm1329113"
    },
    {
        "title": "亚马逊海外购开启2023年黑五全球购物季 宁波前置保税仓参与最快2日可达",
        "url": "https://finance.sina.com.cn/jjxw/2023-11-16/doc-imzuvhpm1329184.shtml",
        "docid": "mzuvhpm1329184"
    },
    {
        "title": "小米造车版图有多大？多家公司回应合作关系，券商看好车机生态协同",
        "url": "https://finance.sina.com.cn/jjxw/2023-11-16/doc-imzuvhpm1329307.shtml",
        "docid": "mzuvhpm1329307"
    },
    {
        "title": "印尼与美国升级双边关系，能否用镍撬动更大的蛋糕",
        "url": "https://finance.sina.com.cn/jjxw/2023-11-16/doc-imzuvhpm1329707.shtml",
        "docid": "mzuvhpm1329707"
    },
    {
        "title": "王思聪突发！刚刚，公司被强制执行！刘涛等大批明星停播？印度\"土皇帝\"逝世，拥有146万平豪宅...",
        "url": "https://cj.sina.cn/articles/view/1664176597/633151d502001ejid?from=ent&subch=oent",
        "docid": "mzuurru6949129"
    },
    {
        "title": "A股历史或会重演，下周，“变盘”已确立？",
        "url": "http://blog.sina.com.cn/s/blog_67d52a5e0102zb31.html",
        "docid": "mzuuvxt7932105"
    },
    {
        "title": "22股获北向资金加仓超亿元",
        "url": "https://finance.sina.com.cn/jjxw/2023-11-16/doc-imzuumiz4874177.shtml",
        "docid": "mzuumiz4874177"
    },
    {
        "title": "深圳楼市，重大信号！",
        "url": "https://finance.sina.com.cn/jjxw/2023-11-16/doc-imzuvafr7852596.shtml",
        "docid": "mzuvafr7852596"
    },
    {
        "title": "东方雨虹背后的金主现身了",
        "url": "https://cj.sina.cn/articles/view/5055342581/12d5267f5020017e33?from=finance",
        "docid": "mzuvafp1431180"
    },
    {
        "title": "等待调整结束信号",
        "url": "http://blog.sina.com.cn/s/blog_803f40c50102z0a0.html",
        "docid": "mzuvafr7831367"
    },
    {
        "title": "这一轮通胀下跌，远比你想象的复杂",
        "url": "https://cj.sina.cn/articles/view/5896607775/15f77181f00101p4dq?from=finance",
        "docid": "mzuurrv8033842"
    },
    {
        "title": "永聚煤业起火已致26人遇难，逃生者：黑烟呛得出不来气，被困40分钟后从4楼爬云梯逃生",
        "url": "https://finance.sina.com.cn/tech/roll/2023-11-16/doc-imzuvafr7850798.shtml",
        "docid": "mzuvafr7850798"
    },
    {
        "title": "47%！华为Mate60 Pro国产零件价值占比数据出炉，不是98%吗？",
        "url": "https://t.cj.sina.cn/articles/view/5048846089/12cef470900101ag6w?from=digit",
        "docid": "mzuuvxv4699826"
    },
    {
        "title": "啥情况！6900万股封死跌停板 股民：亏损40%还能回本吗？",
        "url": "https://finance.sina.com.cn/roll/2023-11-16/doc-imzuvhpm1317400.shtml",
        "docid": "mzuvhpm1317400"
    },
    {
        "title": "办公区域空置，员工数月未发工资，地铁通车后被拍卖的“广州圆”能否起死回生？",
        "url": "https://finance.sina.com.cn/wm/2023-11-16/doc-imzuumiz4877851.shtml",
        "docid": "mzuumiz4877851"
    },
    {
        "title": "事发大连一小区，顶层业主竟然掀了房顶！楼下居民怒了",
        "url": "https://finance.sina.com.cn/jjxw/2023-11-15/doc-imzutqeh7453428.shtml",
        "docid": "mzutqeh7453428"
    },
    {
        "title": "全球七成来自中国！能转弯，会爬坡，耐极寒……“新国货”实现完美逆袭",
        "url": "https://finance.sina.com.cn/wm/2023-11-16/doc-imzuurru6934976.shtml",
        "docid": "mzuurru6934976"
    },
    {
        "title": "杭州30亿量化跑路事件始末:原大连圣亚总经理毛崴的一地鸡毛",
        "url": "https://cj.sina.cn/articles/view/1656297687/62b918d7001011m84?from=finance&subch=bank",
        "docid": "mzuuvxv4704577"
    },
    {
        "title": "打个车去机场，车是比亚迪“秦”，我看车里干干净净……",
        "url": "https://t.cj.sina.cn/articles/view/1481944214/5854ac96040015k0z",
        "docid": "mzuvafp1430271"
    },
    {
        "title": "并行科技：向中科云达等采购AI算力服务器",
        "url": "https://finance.sina.com.cn/jjxw/2023-11-16/doc-imzuvhpm1342570.shtml",
        "docid": "mzuvhpm1342570"
    },
    {
        "title": "还原“30亿私募跑路”事件！幕后主导已被抓，曾操控55个账户买卖股票被罚千万",
        "url": "https://finance.sina.com.cn/tech/roll/2023-11-16/doc-imzuvhpm1342667.shtml",
        "docid": "mzuvhpm1342667"
    },
    {
        "title": "多伦科技(603528.SH)：与华为公司没有业务合作 未向华为公司销售产品或提供服务",
        "url": "https://finance.sina.com.cn/stock/hkstock/ggscyd/2023-11-16/doc-imzuvhpm1342783.shtml",
        "docid": "mzuvhpm1342783"
    },
    {
        "title": "杰创智能(301248.SZ)：公司承接过多个大型数据中心建设",
        "url": "https://finance.sina.com.cn/stock/hkstock/ggscyd/2023-11-16/doc-imzuvhpm1342978.shtml",
        "docid": "mzuvhpm1342978"
    },
    {
        "title": "传礼来(LLY.US)计划投资20亿欧元在德国新建工厂",
        "url": "https://finance.sina.com.cn/stock/hkstock/ggscyd/2023-11-16/doc-imzuvhpm1343246.shtml",
        "docid": "mzuvhpm1343246"
    },
    {
        "title": "注意，今天是洗盘？还是假摔？",
        "url": "https://cj.sina.cn/articles/view/5751923188/156d761f401901c1n9?from=finance",
        "docid": "mzuvafp1413910"
    },
    {
        "title": "房地产数据一来，新一轮楼市大招呼之欲出，传万亿再救楼市",
        "url": "https://cj.sina.cn/articles/view/1223891223/48f319170270191ql?from=estate",
        "docid": "mzuvafp1408305"
    },
    {
        "title": "A股出现重大变化！",
        "url": "https://cj.sina.cn/articles/view/1850649324/6e4eaaec02001aaq9?from=finance",
        "docid": "mzuvafq6758019"
    },
    {
        "title": "10月份中国一线城市房价转跌",
        "url": "https://finance.sina.com.cn/jjxw/2023-11-16/doc-imzuvafq6731552.shtml",
        "docid": "mzuvafq6731552"
    },
    {
        "title": "北向资金今日净卖出21.9亿元 隆基绿能遭净卖出4.47亿元",
        "url": "https://cj.sina.cn/articles/view/2868676035/aafc85c30200176sb?from=finance",
        "docid": "mzuvhpm1313473"
    },
    {
        "title": "5块钱1桶美式！年轻人快把咖啡店“薅秃”了！",
        "url": "https://t.cj.sina.cn/articles/view/5075846512/12e8b457000101i8in?from=tech",
        "docid": "mzuumix8116807"
    },
    {
        "title": "“史上最重磅文件”出台：人形机器人吹响冲锋号",
        "url": "https://t.cj.sina.cn/articles/view/1498865052/5956dd9c00101c2hb?from=tech&subch=otech",
        "docid": "mzuvafr7831707"
    },
    {
        "title": "马云突然出手，投资中东！",
        "url": "https://cj.sina.cn/articles/view/1664176597/633151d501901ejif?from=finance",
        "docid": "mzuuvxt7916264"
    },
    {
        "title": "退钱通知！",
        "url": "https://k.sina.cn/article_1692079024_64db13b001901089g.html",
        "docid": "mzuurrx4789847"
    },
    {
        "title": "父母为已婚子女购房，担心离婚后被另一半分走？这样做最放心",
        "url": "https://t.cj.sina.cn/articles/view/1652484947/627eeb5301901hp1b?from=digit",
        "docid": "mzuurrx4802956"
    },
    {
        "title": "曝有人租问界汽车故意制造事故 试图抹黑",
        "url": "https://t.cj.sina.cn/articles/view/1659643027/62ec249302001ao8u?from=tech",
        "docid": "mzuvhpm1312599"
    },
    {
        "title": "机构：2024还不是牛市",
        "url": "https://cj.sina.cn/articles/view/1768359107/696704c3001015l8b",
        "docid": "mzuumiz4908899"
    },
    {
        "title": "李大霄：美国通胀超预期下降全球兴奋，中国股市融冰之旅或已启程",
        "url": "https://finance.sina.com.cn/roll/2023-11-15/doc-imzushkw8052871.shtml",
        "docid": "mzushkw8052871"
    },
    {
        "title": "俄罗斯的王炸！经济增速完爆所有西方预测 全面复苏是如何实现的？",
        "url": "https://finance.sina.com.cn/world/2023-11-16/doc-imzuvafr7860727.shtml",
        "docid": "mzuvafr7860727"
    },
    {
        "title": "国家一级演员苏孝林被公诉！曾被通报“追求低级趣味、道德败坏”",
        "url": "https://finance.sina.com.cn/jjxw/2023-11-16/doc-imzuvafp1419799.shtml",
        "docid": "mzuvafp1419799"
    },
    {
        "title": "兰格报道：突发火灾！煤矿停产“双焦”大涨 钢市怎么走？",
        "url": "https://finance.sina.com.cn/money/future/indu/2023-11-16/doc-imzuvhpn6645901.shtml",
        "docid": "mzuvhpn6645901"
    },
    {
        "title": "中共中央批准，副部级“内鬼”被中纪委处分",
        "url": "https://finance.sina.com.cn/jjxw/2023-11-16/doc-imzuvafr7858306.shtml",
        "docid": "mzuvafr7858306"
    },
    {
        "title": "摩根大通卖债买油，提醒黄金有超跌风险",
        "url": "https://finance.sina.com.cn/stock/usstock/c/2023-11-16/doc-imzuvaft4620714.shtml",
        "docid": "mzuvaft4620714"
    },
    {
        "title": "持续寻找品牌动力与榜样！2024中国上市公司首席品牌官及经典品牌案例评选征集启动",
        "url": "https://finance.sina.com.cn/jjxw/2023-11-16/doc-imzuvnvi1224104.shtml",
        "docid": "mzuvnvi1224104"
    },
    {
        "title": "中原证券：食品板块跌幅收窄 市场偏好回归头部",
        "url": "https://finance.sina.com.cn/stock/hkstock/ggscyd/2023-11-16/doc-imzuvnvi1224151.shtml",
        "docid": "mzuvnvi1224151"
    },
    {
        "title": "“充电桩”第一龙头沉睡3年！拟10转40派8获批，有望从6元到106元",
        "url": "https://cj.sina.cn/articles/view/7762299128/1ceab48f800101dzg8?from=finance&subch=astocks",
        "docid": "mzuvhpp7769186"
    },
    {
        "title": "豪掷40多亿抢来的项目计划47万卖掉 “防水一哥”东方雨虹演的哪一出",
        "url": "https://finance.sina.com.cn/stock/relnews/cn/2023-11-16/doc-imzuvhpn6661335.shtml",
        "docid": "mzuvhpn6661335"
    },
    {
        "title": "5天5涨停又一妖股问世实控方想清仓甩卖",
        "url": "https://finance.sina.com.cn/zmt/2023-11-16/doc-imzuvhpp7755926.shtml",
        "docid": "mzuvhpp7755926"
    },
    {
        "title": "要涨多少才回本？",
        "url": "https://cj.sina.cn/articles/view/2183570524/8226a45c02701agt7?from=finance",
        "docid": "mzuvafq6752756"
    },
    {
        "title": "解数｜谁是A股算力之王",
        "url": "https://finance.sina.com.cn/jjxw/2023-11-16/doc-imzuvafr7839190.shtml",
        "docid": "mzuvafr7839190"
    },
    {
        "title": "中银基金，连养老金都亏了……",
        "url": "https://cj.sina.cn/articles/view/2949462582/afcd3a3600101jbx2?from=finance&subch=fund",
        "docid": "mzusnsq8643934"
    },
    {
        "title": "中国平安趟入同一条河流：金融和地产",
        "url": "https://finance.sina.com.cn/stock/hkstock/2023-11-16/doc-imzuuvxt7933810.shtml",
        "docid": "mzuuvxt7933810"
    },
    {
        "title": "基金玩崩了就跑，跳槽到泉果基金重新“出发”！钱思佳的基金你敢买吗？",
        "url": "https://finance.sina.com.cn/money/fund/2023-11-16/doc-imzuvhpn6647913.shtml",
        "docid": "mzuvhpn6647913"
    },
    {
        "title": "力挺！步步高集团创始人段永平：万科能活下来",
        "url": "https://cj.sina.cn/articles/view/3815062128/e3653a7002701fg8j?from=finance",
        "docid": "mzuvhpn6652504"
    },
    {
        "title": "明天“惯性下跌”，还是“先抑后抽”？",
        "url": "http://blog.sina.com.cn/s/blog_714f071f010342wc.html",
        "docid": "mzuvafr7829001"
    },
    {
        "title": "黑石集团有意出售11个物流园：总价超百亿元 已有意向买家",
        "url": "https://finance.sina.com.cn/stock/usstock/c/2023-11-16/doc-imzuvafq6751944.shtml",
        "docid": "mzuvafq6751944"
    },
    {
        "title": "黑石集团有意出售11个物流园：总价超百亿元，已有意向买家",
        "url": "https://finance.sina.com.cn/chanjing/gsnews/2023-11-16/doc-imzuvafr7852932.shtml",
        "docid": "mzuvafr7852932"
    },
    {
        "title": "国家发改委：回归PPP本源，最大程度鼓励民营企业参与",
        "url": "https://finance.sina.com.cn/china/2023-11-16/doc-imzuuvxr1518257.shtml",
        "docid": "mzuuvxr1518257"
    },
    {
        "title": "阿里2024财年Q2财报：营收2247.9亿元 不再推进阿里云完全分拆",
        "url": "https://finance.sina.cn/zt_d/alibaba24q2?ver=cj",
        "docid": "mzutcqp8740269"
    },
    {
        "title": "国家开发银行原党委委员、副行长周清玉严重违纪违法被开除党籍",
        "url": "https://finance.sina.com.cn/china/2023-11-16/doc-imzuuvxt7951939.shtml",
        "docid": "mzuuvxt7951939"
    },
    {
        "title": "厦门全域解除限购，全国楼市限制性政策还有松绑空间？",
        "url": "https://cj.sina.cn/articles/view/1651428902/626ece26020015x8x?from=estate",
        "docid": "mzuvhpn6635863"
    },
    {
        "title": "“时代青年之问”论坛在京举行",
        "url": "https://finance.sina.com.cn/jjxw/2023-11-16/doc-imzuvnvi1235163.shtml",
        "docid": "mzuvnvi1235163"
    },
    {
        "title": "龙虎榜丨佳云科技今日涨停，知名游资章盟主净买入1411.15万元",
        "url": "https://cj.sina.cn/articles/view/6192937794/17120bb420200248te?from=finance",
        "docid": "mzuvnvi1235673"
    },
    {
        "title": "龙虎榜丨皇庭国际今日跌停，上榜营业部席位全天成交2.98亿元",
        "url": "https://cj.sina.cn/articles/view/6192937794/17120bb420200248ti?from=finance",
        "docid": "mzuvnvi1235688"
    },
    {
        "title": "苑东生物：盐酸纳美芬注射液获得美国FDA药品注册批准，正与经销商一起制定上市计划与方案",
        "url": "https://cj.sina.cn/articles/view/6192937794/17120bb420200248tx?from=finance",
        "docid": "mzuvnvi1235693"
    },
    {
        "title": "华为支付，有新消息！",
        "url": "https://finance.sina.com.cn/money/bank/bank_hydt/2023-11-16/doc-imzuvnvk6543122.shtml",
        "docid": "mzuvnvk6543122"
    },
    {
        "title": "谁在砸盘？",
        "url": "https://cj.sina.cn/articles/view/6232767532/173807c2c001014jy4?from=finance&subch=astocks",
        "docid": "mzuvaft4630984"
    },
    {
        "title": "炸裂！私募卷款数百亿跑路后续：幕后老板已被控制，资金去向不明",
        "url": "https://finance.sina.com.cn/wm/2023-11-16/doc-imzuvhpp7772574.shtml",
        "docid": "mzuvhpp7772574"
    },
    {
        "title": "这个A股大佬，竟是黑社会老大",
        "url": "https://finance.sina.com.cn/wm/2023-11-16/doc-imzuvhpm1342605.shtml",
        "docid": "mzuvhpm1342605"
    },
    {
        "title": "退居二线？车臣领导人卡德罗夫火速提拔15岁儿子！曾称：我的时间已经到了……",
        "url": "https://finance.sina.com.cn/jjxw/2023-11-16/doc-imzuvnvp4435139.shtml",
        "docid": "mzuvnvp4435139"
    },
    {
        "title": "大跌7.46%！油价最新消息→",
        "url": "https://finance.sina.com.cn/wm/2023-11-15/doc-imzusxhp2427413.shtml",
        "docid": "mzusxhp2427413"
    },
    {
        "title": "因个人原因辞去人大代表职务的他，消失数月后被省纪委书记证实其已落马",
        "url": "https://finance.sina.com.cn/wm/2023-11-16/doc-imzuvhpn6666770.shtml",
        "docid": "mzuvhpn6666770"
    },
    {
        "title": "是时候将存款搬到股市了",
        "url": "https://cj.sina.cn/articles/view/1284139322/4c8a693a027017jso?from=finance",
        "docid": "mzuvafp1436491"
    },
    {
        "title": "全球半导体，明年暴涨20.2％",
        "url": "https://t.cj.sina.cn/articles/view/3856710564/e5e0bba401901iqqo?from=tech",
        "docid": "mzushkw8023469"
    },
    {
        "title": "北汽蓝谷(600733)震荡走弱，主力资金净流出4.84亿元",
        "url": "https://finance.sina.com.cn/jjxw/2023-11-16/doc-imzuurrt1591977.shtml",
        "docid": "mzuurrt1591977"
    },
    {
        "title": "A股开始步入雷区！",
        "url": "https://cj.sina.cn/articles/view/2144596567/m7fd3f257033013jk4?from=finance",
        "docid": "mzuvhpm1343805"
    },
    {
        "title": "车臣领导人卡德罗夫火速提拔15岁儿子担任要职！分析称其正准备退居二线",
        "url": "https://finance.sina.com.cn/jjxw/2023-11-16/doc-imzuvhpn6665134.shtml",
        "docid": "mzuvhpn6665134"
    },
    {
        "title": "大盘反弹是否已经结束？",
        "url": "http://blog.sina.com.cn/s/blog_4c30308401033du8.html",
        "docid": "mzuvaft4609924"
    },
    {
        "title": "有钱可以任性，苹果开辟第二战场，力压国产手机",
        "url": "https://t.cj.sina.cn/articles/view/3769804445/e0b2a69d001018tya?from=digit",
        "docid": "mzuvhpr4527621"
    },
    {
        "title": "人形机器人深度系列报告：机器人运动的“心脏” 电机有望迎来广阔空间",
        "url": "http://stock.finance.sina.com.cn/stock/go.php/vReport_Show/kind/lastest/rptid/753464299584/index.phtml",
        "docid": "mzuvaft4619722"
    },
    {
        "title": "“纯血鸿蒙”手机PC都要来了！未来将脱离安卓Windows 华为谋划建立自有生态",
        "url": "https://t.cj.sina.cn/articles/view/1659643027/62ec249302001ao6w?from=tech",
        "docid": "mzuurrx4817054"
    },
    {
        "title": "苹果背弃富士康，郭台铭心都碎了，付出巨额代价却没得到回报",
        "url": "https://t.cj.sina.cn/articles/view/3769804445/e0b2a69d001018tyc?from=tech",
        "docid": "mzuvhpr4529470"
    },
    {
        "title": "明学昌、明珍珍、明国平被抓！",
        "url": "https://finance.sina.com.cn/jjxw/2023-11-16/doc-imzuvhpp7770326.shtml",
        "docid": "mzuvhpp7770326"
    },
    {
        "title": "国家话剧院《鼓楼那些事儿》首演 讲述“背包法官胡同断案”的故事",
        "url": "https://finance.sina.com.cn/jjxw/2023-11-16/doc-imzuvtcf1115938.shtml",
        "docid": "mzuvtcf1115938"
    },
    {
        "title": "衍生品交易未履行信披义务 台华新材及时任董秘遭监管警示",
        "url": "https://finance.sina.com.cn/jjxw/2023-11-16/doc-imzuvtcf1116056.shtml",
        "docid": "mzuvtcf1116056"
    },
    {
        "title": "又是降价又是减产，丰田真的卖不动了？",
        "url": "https://finance.sina.com.cn/wm/2023-11-15/doc-imzusaaw5592186.shtml",
        "docid": "mzusaaw5592186"
    },
    {
        "title": "71岁香港女富豪：不当豪门阔太去种棉花，李嘉诚都夸她牛！",
        "url": "https://finance.sina.com.cn/wm/2023-11-15/doc-imzusnst2607664.shtml",
        "docid": "mzusnst2607664"
    },
    {
        "title": "一轮牛市在眼前",
        "url": "https://cj.sina.cn/articles/view/1284139322/m4c8a693a033017jtb?from=finance",
        "docid": "mzuvnvk6541720"
    },
    {
        "title": "金星暗讽“董明珠王自如”不删文？因为她的“讽刺”中没有恶意",
        "url": "https://t.cj.sina.cn/articles/view/1913114071/7207cdd7001015la7?from=tech",
        "docid": "mzuvnvp4437090"
    },
    {
        "title": "阿里巴巴股价大跌",
        "url": "https://cj.sina.cn/articles/view/1642634100/61e89b7404001d8g2?from=finance",
        "docid": "mzuvnvi1217987"
    },
    {
        "title": "中国海油(600938)：仍被低估的高股息油气白马龙头",
        "url": "https://finance.sina.com.cn/stock/relnews/cn/2023-11-16/doc-imzuuezy7118695.shtml",
        "docid": "mzuuezy7118695"
    },
    {
        "title": "中矿资源(002738.SZ)：年产3.5万吨高纯锂盐项目点火试运行",
        "url": "https://finance.sina.com.cn/stock/hkstock/ggscyd/2023-11-16/doc-imzuvhpn6634397.shtml",
        "docid": "mzuvhpn6634397"
    },
    {
        "title": "【中国财富报道】马云突然出手",
        "url": "https://cj.sina.cn/articles/view/6135428695/m16db3365702001239z?from=finance",
        "docid": "mzuvafp1414484"
    },
    {
        "title": "中国国际光伏产业大会签约超500亿 四大光伏巨头为产业高质量发展鼓劲",
        "url": "https://cj.sina.cn/articles/view/1698921891/65437da300101hoz5?from=finance",
        "docid": "mzuumix8102322"
    },
    {
        "title": "暴亏90亿！小鹏“破​产式”卖车？",
        "url": "https://cj.sina.cn/articles/view/7480332336/1bddcd030001017lqh?from=finance",
        "docid": "mzuvafr7838241"
    }
]