[
    {
        "title": "成交低迷：上海楼市刚需客去哪儿了？",
        "url": "https://cj.sina.cn/articles/view/1651428902/626ece2602001625m?from=estate",
        "docid": "mzxavcn5579514"
    },
    {
        "title": "俄储蓄银行：人民币在外币组合中的份额达到13%",
        "url": "https://finance.sina.com.cn/jjxw/2023-12-06/doc-imzxaqvq5680950.shtml",
        "docid": "mzxaqvq5680950"
    },
    {
        "title": "已婚男用微信摇来婚外情，被70后女友多次勒索“封口费”",
        "url": "https://finance.sina.com.cn/jjxw/2023-12-06/doc-imzxaqvu2448132.shtml",
        "docid": "mzxaqvu2448132"
    },
    {
        "title": "年轻人的第一辆车来了！小米汽车曝光，月底发布！",
        "url": "https://t.cj.sina.cn/articles/view/5061312402/12dad7f9202001rpa9?from=tech",
        "docid": "mzwyfqy0274617"
    },
    {
        "title": "穆迪肆意看空中国？意欲为何？",
        "url": "https://cj.sina.cn/articles/view/1284139322/4c8a693a027017lwq?from=finance",
        "docid": "mzxaqvt0243891"
    },
    {
        "title": "太突然！王健林出手了",
        "url": "https://cj.sina.cn/articles/view/1680430844/642956fc01901dxk4?from=finance",
        "docid": "mzxaqvq5665127"
    },
    {
        "title": "伊朗法院裁定：美应为暗杀苏莱曼尼赔偿497亿美元",
        "url": "https://finance.sina.com.cn/jjxw/2023-12-06/doc-imzxavcs2331427.shtml",
        "docid": "mzxavcs2331427"
    },
    {
        "title": "利好新能源！央企整合再进深水区！",
        "url": "https://finance.sina.com.cn/stock/stockzmt/2023-12-06/doc-imzxakps5793602.shtml",
        "docid": "mzxakps5793602"
    },
    {
        "title": "逃回县城的年轻人：幻想躺赢，实难躺平",
        "url": "https://t.cj.sina.cn/articles/view/6221119472/172cebff001902bwl9?from=tech",
        "docid": "mzxaqvt0234220"
    },
    {
        "title": "招商银行进入投资视野",
        "url": "https://cj.sina.cn/articles/view/2183570524/8226a45c02701algu?from=finance",
        "docid": "mzxaefu5862306"
    },
    {
        "title": "A股为什么常年在保卫3000点？",
        "url": "https://finance.sina.com.cn/stock/zqgd/2023-12-06/doc-imzxavcs2338785.shtml",
        "docid": "mzxavcs2338785"
    },
    {
        "title": "北京1.2万P算力“供给”数字经济",
        "url": "https://finance.sina.com.cn/jjxw/2023-12-05/doc-imzwyser1151079.shtml",
        "docid": "mzwyser1151079"
    },
    {
        "title": "高善文：房地产市场已严重超调，见底要关注两个信号",
        "url": "https://finance.sina.com.cn/jjxw/2023-12-06/doc-imzxaqvv9202217.shtml",
        "docid": "mzxaqvv9202217"
    },
    {
        "title": "王健林大甩卖：万达电影停牌筹划“易主”，腾讯或拿下“院线一哥”",
        "url": "https://finance.sina.com.cn/jjxw/2023-12-06/doc-imzxakpw2526107.shtml",
        "docid": "mzxakpw2526107"
    },
    {
        "title": "“若资金申请失败，美国将为乌克兰的失败负责”",
        "url": "https://cj.sina.cn/articles/view/1887344341/707e96d502001fb8q?from=finance",
        "docid": "mzxaqvv9223826"
    },
    {
        "title": "万达电影：王健林等拟将万达投资51%股权转让予上海儒意",
        "url": "https://finance.sina.com.cn/stock/relnews/hk/2023-12-06/doc-imzwzxxw5973100.shtml",
        "docid": "mzwzxxw5973100"
    },
    {
        "title": "李志林-忠言丨3000点下做空失去方向，防空洞里低吸等待冬播",
        "url": "https://cj.sina.cn/articles/view/3676574002/db241132027015bzm?from=finance",
        "docid": "mzwzxxw5977304"
    },
    {
        "title": "投资大佬警告：美股面临几十年来最大崩盘风险",
        "url": "https://finance.sina.com.cn/stock/usstock/c/2023-12-06/doc-imzwzpka6145876.shtml",
        "docid": "mzwzpka6145876"
    },
    {
        "title": "官宣了，约180亿元！阿里将首次派发年度股息",
        "url": "https://finance.sina.com.cn/stock/usstock/2023-12-06/doc-imzxaefy2595866.shtml",
        "docid": "mzxaefy2595866"
    },
    {
        "title": "上证50创3年新低！印度股市收33年新高 社保比例至40% 引7000亿活水",
        "url": "https://cj.sina.cn/articles/view/5859229621/15d3cbfb5020011pos?from=finance",
        "docid": "mzxaqvv9192842"
    },
    {
        "title": "​留学富二代的人生有多离谱？揭秘精英阶层的真相：越有钱越努力",
        "url": "https://finance.sina.com.cn/jjxw/2023-12-06/doc-imzxazmr9003582.shtml",
        "docid": "mzxazmr9003582"
    },
    {
        "title": "韩国第一夫人急不可耐的野心，都穿在了身上……",
        "url": "https://finance.sina.com.cn/jjxw/2023-12-06/doc-imzxazmr9003612.shtml",
        "docid": "mzxazmr9003612"
    },
    {
        "title": "刚刚官宣，国产宝马5系全部停产",
        "url": "https://finance.sina.com.cn/jjxw/2023-12-06/doc-imzxakpw2502000.shtml",
        "docid": "mzxakpw2502000"
    },
    {
        "title": "穆迪：下调香港及澳门信贷评级展望至“负面”",
        "url": "https://cj.sina.cn/articles/view/5115326071/130e5ae770200214mz?from=finance",
        "docid": "mzxaqvt0241178"
    },
    {
        "title": "奚国华，任10万亿资产央企党委书记",
        "url": "https://finance.sina.com.cn/jjxw/2023-12-06/doc-imzwzxyc9476295.shtml",
        "docid": "mzwzxyc9476295"
    },
    {
        "title": "足够组成10个师！德国议员呼吁：送留德逃避战事的乌克兰男性回国参战",
        "url": "https://finance.sina.com.cn/jjxw/2023-12-06/doc-imzxaqvq5672356.shtml",
        "docid": "mzxaqvq5672356"
    },
    {
        "title": "“宽松”的信号来了",
        "url": "https://cj.sina.cn/articles/view/1838672663/6d97eb1702001ewff?from=finance",
        "docid": "mzwymwt1266034"
    },
    {
        "title": "社保基金对股票投资可达40%，明确可投ETF",
        "url": "https://cj.sina.cn/articles/view/6510167665/18409467100101ibcr?from=finance&subch=fund",
        "docid": "mzxakpx9273545"
    },
    {
        "title": "中国人寿、中国平安、友邦、大都会、安联、安达等19家保险公司2023年第三季度财报汇总",
        "url": "https://finance.sina.com.cn/wm/2023-12-06/doc-imzwzpki9647151.shtml",
        "docid": "mzwzpki9647151"
    },
    {
        "title": "美团离职，入职大学“保安处”。有编制的保安，月薪7000多",
        "url": "https://t.cj.sina.cn/articles/view/3181745997/bda5974d019019469?from=job",
        "docid": "mzwzpki9665250"
    },
    {
        "title": "猪价跌破6元，超出猪场预期，猪价上涨真的没戏了吗？12月7日猪价",
        "url": "https://cj.sina.cn/articles/view/6353678136/17ab56f38001017hyu?from=finance&subch=futures",
        "docid": "mzxavcn5570571"
    },
    {
        "title": "景嘉微(300474.SZ)：目前图形处理芯片可以满足目标识别等部分人工智能领域的需求",
        "url": "https://finance.sina.com.cn/stock/relnews/cn/2023-12-05/doc-imzwyfqp6355868.shtml",
        "docid": "mzwyfqp6355868"
    },
    {
        "title": "据市场消息，俄罗斯总统普京登上飞机离开阿",
        "url": "https://finance.sina.com.cn/stock/hkstock/marketalerts/2023-12-06/doc-imzxazmq2221659.shtml",
        "docid": "mzxazmq2221659"
    },
    {
        "title": "美团出海，王兴新解",
        "url": "https://finance.sina.com.cn/jjxw/2023-12-06/doc-imzxavct9105796.shtml",
        "docid": "mzxavct9105796"
    },
    {
        "title": "长安汽车与华为合作 或将造就深蓝汽车的起飞？",
        "url": "https://finance.sina.com.cn/jjxw/2023-12-06/doc-imzxakpv0311016.shtml",
        "docid": "mzxakpv0311016"
    },
    {
        "title": "重磅资金，买！",
        "url": "https://finance.sina.com.cn/jjxw/2023-12-06/doc-imzxazmp0036552.shtml",
        "docid": "mzxazmp0036552"
    },
    {
        "title": "钙钛矿技术迭代速度超预期",
        "url": "https://finance.sina.com.cn/jjxw/2023-12-06/doc-imzwzpka6136978.shtml",
        "docid": "mzwzpka6136978"
    },
    {
        "title": "宁波银行股价“十连跌”，一个季度跌去21.29%",
        "url": "https://cj.sina.cn/articles/view/1816290240/6c4263c000101gz16?from=finance&subch=bank",
        "docid": "mzxaefz9386666"
    },
    {
        "title": "市场传来大信号，A股或将迎来大转折！",
        "url": "https://finance.sina.com.cn/stock/zqgd/2023-12-06/doc-imzxavcr0145808.shtml",
        "docid": "mzxavcr0145808"
    },
    {
        "title": "林园：这可能是我这辈子最后一次大机会 目前机会大于风险、迎来加仓良机",
        "url": "https://finance.sina.com.cn/roll/2023-12-06/doc-imzxaqvq5698459.shtml",
        "docid": "mzxaqvq5698459"
    },
    {
        "title": "油价五连跌普京罕见亲赴沙特及阿联酋，一图看油价下跌给产油国的影响！",
        "url": "https://finance.sina.com.cn/money/nmetal/hjfx/2023-12-06/doc-imzxavcn5577235.shtml",
        "docid": "mzxavcn5577235"
    },
    {
        "title": "天奇股份：机器视觉技术为人工智能的关键技术之一 人形机器人将充分运用到机器视觉技术",
        "url": "https://finance.sina.com.cn/stock/relnews/cn/2023-12-06/doc-imzxaqvq5683092.shtml",
        "docid": "mzxaqvq5683092"
    },
    {
        "title": "2800点是第一个小目标，谨慎为主",
        "url": "https://finance.sina.com.cn/tech/roll/2023-12-06/doc-imzwzxya2704100.shtml",
        "docid": "mzwzxya2704100"
    },
    {
        "title": "小散又挨“闷棍”？股价一字板跌停：3400万股疯狂排队出逃！",
        "url": "https://finance.sina.com.cn/roll/2023-12-06/doc-imzxaqvq5674064.shtml",
        "docid": "mzxaqvq5674064"
    },
    {
        "title": "鸿博股份与百川智能合作，拿下近14亿元算力大单",
        "url": "https://t.cj.sina.cn/articles/view/3163877770/bc94f18a020014i36?from=tech",
        "docid": "mzwxqtc1632591"
    },
    {
        "title": "纯碱供应端偏紧 期货价格创近9个月新高",
        "url": "https://finance.sina.com.cn/stock/hyyj/2023-12-06/doc-imzwzauh6375331.shtml",
        "docid": "mzwzauh6375331"
    },
    {
        "title": "苹果 iOS 16.7.3 正式版发布",
        "url": "https://t.cj.sina.cn/articles/view/1826017320/6cd6d028020019sa4?from=tech",
        "docid": "mzwzaun3084135"
    },
    {
        "title": "阑尾炎手术不用切阑尾了“中国技术”引国际关注",
        "url": "https://finance.sina.com.cn/jjxw/2023-12-06/doc-imzwziam9748555.shtml",
        "docid": "mzwziam9748555"
    },
    {
        "title": "利好刺激不断 比特币1年半来首次重回4万美元！",
        "url": "https://cj.sina.cn/articles/view/5909013773/16034650d040015iyg?from=finance",
        "docid": "mzwzpka6152121"
    },
    {
        "title": "“我们没有钱支持乌克兰打这场仗了”！白宫警告援乌资金即将耗尽",
        "url": "https://finance.sina.com.cn/jjxw/2023-12-06/doc-imzwzpkf0693962.shtml",
        "docid": "mzwzpkf0693962"
    },
    {
        "title": "从外贸寒冬到一箱难求，中国出口额增长了20亿，交出稳健答卷",
        "url": "https://cj.sina.cn/articles/view/6586475156/18895a29402001o4x5?from=finance",
        "docid": "mzwzpkf0716641"
    },
    {
        "title": "未开票收入报税被罚！税务局明确！申报表中“未开票收入”，都要按这个来！",
        "url": "https://finance.sina.com.cn/stock/zqgd/2023-12-06/doc-imzwzpkh2866822.shtml",
        "docid": "mzwzpkh2866822"
    },
    {
        "title": "深圳，放大招！",
        "url": "https://finance.sina.com.cn/jjxw/2023-12-06/doc-imzwzpkh2877472.shtml",
        "docid": "mzwzpkh2877472"
    },
    {
        "title": "官降2万，起售价12万多！2.5L+四驱，还要什么CR-V？",
        "url": "https://finance.sina.com.cn/wm/2023-12-06/doc-imzwzpkh2887319.shtml",
        "docid": "mzwzpkh2887319"
    },
    {
        "title": "海外突发利空，跌破3千点后有这种结构！",
        "url": "https://cj.sina.cn/articles/view/1791653972/6aca785402701q5t0?from=finance",
        "docid": "mzwztry6044962"
    },
    {
        "title": "江苏舜天连收3个涨停板",
        "url": "https://finance.sina.com.cn/jjxw/2023-12-06/doc-imzwztry6053870.shtml",
        "docid": "mzwztry6053870"
    },
    {
        "title": "神火股份(000933)税收优惠增厚利润",
        "url": "https://finance.sina.com.cn/stock/relnews/cn/2023-12-06/doc-imzwztsc0588808.shtml",
        "docid": "mzwztsc0588808"
    },
    {
        "title": "社保基金大消息！财政部重磅发布",
        "url": "https://finance.sina.com.cn/china/2023-12-06/doc-imzwztsc0621739.shtml",
        "docid": "mzwztsc0621739"
    },
    {
        "title": "跌了27%！果然经不起表扬……",
        "url": "https://cj.sina.cn/articles/view/5296321390/13baf736e027017i4h?from=estate",
        "docid": "mzwztsc0622926"
    },
    {
        "title": "财政部：社保基金投资单一企业证券不得超过总额的10%",
        "url": "https://cj.sina.cn/articles/view/1644983660/620c756c02001i1ur?from=finance",
        "docid": "mzwztse2797458"
    },
    {
        "title": "通威25吉瓦电池及20吉瓦组件项目开工",
        "url": "https://finance.sina.com.cn/jjxw/2023-12-06/doc-imzwzaum0934083.shtml",
        "docid": "mzwzaum0934083"
    },
    {
        "title": "Mysteel早读：铁矿巨头透露产量预期，唐山解除应急响应",
        "url": "https://finance.sina.com.cn/money/future/roll/2023-12-06/doc-imzwzpka6147929.shtml",
        "docid": "mzwzpka6147929"
    },
    {
        "title": "锂矿股持续走强，天齐锂业涨停",
        "url": "https://finance.sina.com.cn/stock/relnews/cn/2023-12-06/doc-imzwztry6063905.shtml",
        "docid": "mzwztry6063905"
    },
    {
        "title": "99岁查理芒格，100条智慧箴言 查理芒格一百条经典语录",
        "url": "https://cj.sina.cn/articles/view/2724013927/a25d276700101888i?from=finance",
        "docid": "mzwztse2798233"
    },
    {
        "title": "美议员：泽连斯基在最后一刻取消参加机密会议",
        "url": "https://finance.sina.com.cn/jjxw/2023-12-06/doc-imzwztse2807920.shtml",
        "docid": "mzwztse2807920"
    },
    {
        "title": "财政部：社保基金会开展直接股权投资要坚持安全至上、优中选优原则",
        "url": "https://finance.sina.com.cn/roll/2023-12-06/doc-imzwztsf9550012.shtml",
        "docid": "mzwztsf9550012"
    },
    {
        "title": "惠发食品连收9个涨停板",
        "url": "https://finance.sina.com.cn/jjxw/2023-12-06/doc-imzwztsf9563156.shtml",
        "docid": "mzwztsf9563156"
    },
    {
        "title": "宁德时代，走下神坛",
        "url": "https://cj.sina.cn/articles/view/1077173264/40345c1000101riuo?from=finance&subch=astocks",
        "docid": "mzwztsf9564791"
    },
    {
        "title": "锂电概念爆发，永兴材料、吉翔股份涨停，天齐锂业等大涨",
        "url": "https://finance.sina.com.cn/jjxw/2023-12-06/doc-imzwztsf9574602.shtml",
        "docid": "mzwztsf9574602"
    },
    {
        "title": "蓝思科技：目前公司已为新能源汽车客户批量交付中控屏、B柱、C柱、充电桩、后座显示屏等产品",
        "url": "https://finance.sina.com.cn/stock/relnews/cn/2023-12-06/doc-imzwztsf9579589.shtml",
        "docid": "mzwztsf9579589"
    },
    {
        "title": "懂行人预测中国未来5年楼市走向，出现这3种结果，或大概率是对的",
        "url": "https://cj.sina.cn/articles/view/1655703524/62b007e402701cpzy?from=estate",
        "docid": "mzxazmk5486777"
    },
    {
        "title": "“人在上海，月薪5万，每天焦虑得要死”",
        "url": "https://cj.sina.cn/articles/view/6173010488/16ff0aa3801901c7yg?from=finance",
        "docid": "mzxazmk5478476"
    },
    {
        "title": "啧啧，抖音排名第一的网红，果然还是翻车了",
        "url": "https://t.cj.sina.cn/articles/view/5970362599/163dc80e701901d1m5?from=tech",
        "docid": "mzxazmq2231039"
    },
    {
        "title": "中欧峰会前，冯德莱恩再就对华关系表态",
        "url": "https://cj.sina.cn/articles/view/1887344341/707e96d502001fbae?from=finance",
        "docid": "mzxazmp0038612"
    },
    {
        "title": "长期睡前玩手机会付出什么代价？这5个危害万万没想到",
        "url": "https://finance.sina.com.cn/jjxw/2023-12-06/doc-imzxazmp0041700.shtml",
        "docid": "mzxazmp0041700"
    },
    {
        "title": "注意了，2025年将是学区房的大限",
        "url": "https://cj.sina.cn/articles/view/6410502975/17e18833f001016o8l",
        "docid": "mzwztsf9577394"
    },
    {
        "title": "机构大佬：2024还要磨底一年？",
        "url": "https://cj.sina.cn/articles/view/3721367755/ddcf90cb02701adrl?from=finance",
        "docid": "mzwzxxw5968116"
    },
    {
        "title": "重磅！证监会、财政部接连出手",
        "url": "https://cj.sina.cn/articles/view/1850649324/6e4eaaec02001amud?from=finance",
        "docid": "mzxakpx9309326"
    },
    {
        "title": "比亚迪大消息！王传福突然出手",
        "url": "https://finance.sina.com.cn/roll/2023-12-06/doc-imzxakpw2523029.shtml",
        "docid": "mzxakpw2523029"
    },
    {
        "title": "何时可以抄底？关注一个信号",
        "url": "https://cj.sina.cn/articles/view/1700648435/655dd5f3020018hse?from=finance",
        "docid": "mzxcftk9930610"
    },
    {
        "title": "3000点下，这些行业逆势“生长”",
        "url": "https://finance.sina.com.cn/stock/marketresearch/2023-12-06/doc-imzxavct9100138.shtml",
        "docid": "mzxavct9100138"
    },
    {
        "title": "利好不断：3000点之下就是空头陷阱",
        "url": "https://cj.sina.cn/articles/view/1922761130/729b01aa001018drh?from=finance&subch=astocks",
        "docid": "mzxazmr9009580"
    },
    {
        "title": "四维图新(002405.SZ)：人机共驾导航产品已在上汽荣威量产",
        "url": "https://finance.sina.com.cn/stock/relnews/cn/2023-12-06/doc-imzxakps5777437.shtml",
        "docid": "mzxakps5777437"
    },
    {
        "title": "中国中铁(0390.HK)：股权激励提升业绩确定性 2023PE2.3倍/当前PB0.29倍",
        "url": "https://finance.sina.com.cn/stock/relnews/hk/2023-12-06/doc-imzwzpkh2876233.shtml",
        "docid": "mzwzpkh2876233"
    },
    {
        "title": "威帝股份：我公司重组工作正在进行中，由于年度还未结束，无法预知相关问题",
        "url": "https://cj.sina.cn/articles/view/1850649324/6e4eaaec02001amk3?from=finance",
        "docid": "mzwztsf9581679"
    },
    {
        "title": "12月的粮价为啥突然集体“崩”了？背后的真相正浮出水面",
        "url": "https://finance.sina.com.cn/money/future/fmnews/2023-12-06/doc-imzwzxxw5944787.shtml",
        "docid": "mzwzxxw5944787"
    },
    {
        "title": "再次一字跌停！算力租赁龙头股“小作文”成真遭爆锤",
        "url": "https://cj.sina.cn/articles/view/5115326071/130e5ae77020021470?from=finance",
        "docid": "mzwzxxw5957312"
    },
    {
        "title": "社保基金可直接投资经批准的股票指数投资、交易型开放式指数基金",
        "url": "https://cj.sina.cn/articles/view/2868676035/aafc85c3020017c1n?from=finance",
        "docid": "mzwzxxw5966944"
    },
    {
        "title": "中长期资金加速入市 国资机构布局A股投资",
        "url": "https://cj.sina.cn/articles/view/1650111241/625ab309020017ycy?from=finance",
        "docid": "mzwzxxz0509110"
    },
    {
        "title": "东方雨虹员工持股计划浮亏超17亿，李卫国说“甘蔗没有两头甜”",
        "url": "https://cj.sina.cn/articles/view/5055342581/12d5267f5020017i5i?from=finance",
        "docid": "mzwzxxz0515762"
    },
    {
        "title": "岸田靠不住，中方出手了，王毅当面提出4字，越南反手回了份大礼",
        "url": "https://finance.sina.com.cn/wm/2023-12-06/doc-imzxakps5792126.shtml",
        "docid": "mzxakps5792126"
    },
    {
        "title": "富士康在美工厂烂尾，印度工厂停产，或再度转投中国制造",
        "url": "https://t.cj.sina.cn/articles/view/3769804445/e0b2a69d001018wt2?from=tech&subch=internet",
        "docid": "mzxazmr9008032"
    },
    {
        "title": "谁能取代地产？",
        "url": "https://finance.sina.com.cn/roll/2023-12-06/doc-imzxazmp0032002.shtml",
        "docid": "mzxazmp0032002"
    },
    {
        "title": "拜登称假如特朗普不参选他可能不寻求连任，遭特朗普嘲讽",
        "url": "https://finance.sina.com.cn/jjxw/2023-12-06/doc-imzxavcn5569085.shtml",
        "docid": "mzxavcn5569085"
    },
    {
        "title": "17万二手车买家大方给了20万现金",
        "url": "https://finance.sina.com.cn/jjxw/2023-12-06/doc-imzwzxxz0521098.shtml",
        "docid": "mzwzxxz0521098"
    },
    {
        "title": "政策加码！广州楼市有变",
        "url": "https://cj.sina.cn/articles/view/3233134660/c0b5b844019015m75?from=finance",
        "docid": "mzwzxxz0525121"
    },
    {
        "title": "小摩：予海螺水泥“增持”评级 目标价下调至24.3港元",
        "url": "https://finance.sina.com.cn/tob/2023-12-06/doc-imzwzxxz0526989.shtml",
        "docid": "mzwzxxz0526989"
    },
    {
        "title": "“龙字辈”个股活跃，圣龙股份2连板",
        "url": "https://cj.sina.cn/articles/view/5182171545/m134e1a99902001o542?from=finance",
        "docid": "mzwzxya2692000"
    },
    {
        "title": "妖股涨嗨了！东安动力、惠发食品继续涨停！选手们抓住多只妖股！比赛报名倒计时！",
        "url": "https://finance.sina.com.cn/stock/relnews/cn/2023-12-06/doc-imzwzxya2711114.shtml",
        "docid": "mzwzxya2711114"
    },
    {
        "title": "山西焦煤2024年中长期合同洽谈顺利完成",
        "url": "https://finance.sina.com.cn/money/future/indu/2023-12-06/doc-imzwzxyc9471121.shtml",
        "docid": "mzwzxyc9471121"
    },
    {
        "title": "中国化学，资产质量最好的中字头央企，没有之一！",
        "url": "https://finance.sina.com.cn/stock/stockzmt/2023-12-06/doc-imzwzpka6147400.shtml",
        "docid": "mzwzpka6147400"
    },
    {
        "title": "减产政策将很快逆转？能源专家：沙特或对美国发动石油“市场份额战”",
        "url": "https://finance.sina.com.cn/jjxw/2023-12-06/doc-imzwztry6049720.shtml",
        "docid": "mzwztry6049720"
    },
    {
        "title": "常熟银行：公司的基本面非常扎实，从业绩增速、资产质量、分红水平看，表现良好，成长性值得期待",
        "url": "https://cj.sina.cn/articles/view/1850649324/6e4eaaec02001amju?from=finance",
        "docid": "mzwztry6067998"
    },
    {
        "title": "大利好！下调社保基金管理费率有何影响",
        "url": "https://cj.sina.cn/articles/view/5993531560/m1653e08a803301bq2a?from=finance",
        "docid": "mzwzxxz0501525"
    },
    {
        "title": "又一银行，获批解散！",
        "url": "https://finance.sina.com.cn/jjxw/2023-12-06/doc-imzwzxya2702593.shtml",
        "docid": "mzwzxya2702593"
    },
    {
        "title": "美国发布IRA细则，中国锂电企业需满足低于25%的FEOC股权要求，宁德时代技术授权合作模式或成突破口",
        "url": "https://finance.sina.com.cn/stock/relnews/cn/2023-12-06/doc-imzwzxyc9482905.shtml",
        "docid": "mzwzxyc9482905"
    },
    {
        "title": "保时捷卖不动了？第三代Panamera临危上市",
        "url": "https://finance.sina.com.cn/jjxw/2023-12-06/doc-imzxaefu5856257.shtml",
        "docid": "mzxaefu5856257"
    },
    {
        "title": "楼市出现一点好信号，一线城市二手房成交放量，任泽平仍在呼吁",
        "url": "https://cj.sina.cn/articles/view/1223891223/48f319170270195n9?from=estate",
        "docid": "mzxaefu5865330"
    },
    {
        "title": "农行回应女子30万存款无法取出：实际情况并非如此，官方会发通报说明",
        "url": "https://finance.sina.com.cn/stock/relnews/cn/2023-12-06/doc-imzxaefu5875581.shtml",
        "docid": "mzxaefu5875581"
    },
    {
        "title": "摩根士丹利：市场正在重蹈17年前的覆辙 降息不会带来井喷式上涨",
        "url": "https://finance.sina.com.cn/money/bond/2023-12-06/doc-imzxaefu5882605.shtml",
        "docid": "mzxaefu5882605"
    },
    {
        "title": "刚刚，海上发射！",
        "url": "https://finance.sina.com.cn/wm/2023-12-07/doc-imzxcftk9932076.shtml",
        "docid": "mzxcftk9932076"
    },
    {
        "title": "碳酸锂期货遭空头踩踏 广期所两度“出手”整治",
        "url": "https://finance.sina.com.cn/roll/2023-12-06/doc-imzxaefx0417005.shtml",
        "docid": "mzxaefx0417005"
    },
    {
        "title": "幸好走的是高级VP，不是真正干活的一线员工……",
        "url": "https://t.cj.sina.cn/articles/view/6890756658/19ab89a3204001arwv?from=job",
        "docid": "mzxaefx0433384"
    },
    {
        "title": "农业板块发力走高，猪肉股亮眼，益生股份涨停",
        "url": "https://finance.sina.com.cn/jjxw/2023-12-06/doc-imzxaefx0436534.shtml",
        "docid": "mzxaefx0436534"
    },
    {
        "title": "锂电产业全面进入超级产能过剩时代",
        "url": "https://finance.sina.com.cn/jjxw/2023-12-06/doc-imzxaefy2597482.shtml",
        "docid": "mzxaefy2597482"
    },
    {
        "title": "传媒板块掀涨停潮，掌趣科技20CM涨停",
        "url": "https://finance.sina.com.cn/jjxw/2023-12-06/doc-imzxaefz9375611.shtml",
        "docid": "mzxaefz9375611"
    },
    {
        "title": "国泰君安证券何海峰：社保基金股票最大投资比例进一步明确 有利于提振资本市场信心",
        "url": "https://cj.sina.cn/articles/view/1076684233/402ce5c902002bwci?from=finance",
        "docid": "mzxakps5757131"
    },
    {
        "title": "朝鲜洲际导弹装上“千里眼”，韩美激烈反制，半岛风险陡增",
        "url": "https://finance.sina.com.cn/jjxw/2023-12-06/doc-imzxakps5768559.shtml",
        "docid": "mzxakps5768559"
    },
    {
        "title": "埃斯顿总经理吴侃：中国机器人产业发展有三个逻辑",
        "url": "https://finance.sina.com.cn/stock/relnews/cn/2023-12-06/doc-imzxakps5770243.shtml",
        "docid": "mzxakps5770243"
    },
    {
        "title": "晶澳科技接连荣获“年度ESG创新企业”“最具投资价值上市公司”",
        "url": "https://finance.sina.com.cn/roll/2023-12-06/doc-imzxakps5789201.shtml",
        "docid": "mzxakps5789201"
    },
    {
        "title": "2.2亿元彩票大奖所涉图片属两名购彩者",
        "url": "https://t.cj.sina.cn/articles/view/1642634100/61e89b7404001dc89?from=sports&subch=osport",
        "docid": "mzwztry6038168"
    },
    {
        "title": "中富通中标浙江农商联合银行2023年度GPU算力服务租赁项目",
        "url": "https://finance.sina.com.cn/stock/relnews/cn/2023-12-06/doc-imzwztry6062349.shtml",
        "docid": "mzwztry6062349"
    },
    {
        "title": "中国铁建：未来将采取多种措施 推动估值合理回归",
        "url": "https://finance.sina.com.cn/jjxw/2023-12-06/doc-imzxakpv0314436.shtml",
        "docid": "mzxakpv0314436"
    },
    {
        "title": "23岁女学生头痛五天后突发癫痫，“罪魁祸首”竟是避孕药？",
        "url": "https://finance.sina.com.cn/jjxw/2023-12-06/doc-imzxakpv0317612.shtml",
        "docid": "mzxakpv0317612"
    },
    {
        "title": "马斯克：“2.5万美元电车”要来了，不骗人",
        "url": "https://t.cj.sina.cn/articles/view/6890756658/19ab89a3204001arxi?from=auto&subch=oauto",
        "docid": "mzxakpv0325018"
    },
    {
        "title": "三张“铂金级”！工业富联再次取得UL2799最高等级认证",
        "url": "https://finance.sina.com.cn/stock/relnews/cn/2023-12-06/doc-imzxakpv0340655.shtml",
        "docid": "mzxakpv0340655"
    },
    {
        "title": "以色列对加沙发动迄今为止最猛烈袭击！",
        "url": "https://cj.sina.cn/articles/view/2622472937/9c4fc2e9020024jy0?from=finance",
        "docid": "mzxakpw2540668"
    },
    {
        "title": "北京现代重现“价格屠夫”！11代索纳塔正式官宣",
        "url": "https://finance.sina.com.cn/jjxw/2023-12-06/doc-imzxakpx9274544.shtml",
        "docid": "mzxakpx9274544"
    },
    {
        "title": "大盘“弱反”后谨防再下！高位股集体“天地板”意味着什么？",
        "url": "https://finance.sina.com.cn/wm/2023-12-06/doc-imzxaqvq5692129.shtml",
        "docid": "mzxaqvq5692129"
    },
    {
        "title": "龙芯中科：目前龙架构芯片与开源鸿蒙的适配多集中于行业控制领域",
        "url": "https://cj.sina.cn/articles/view/1850649324/6e4eaaec02001an4m?from=finance",
        "docid": "mzxaqvq5693998"
    },
    {
        "title": "爆单！这一市场，中国或将超越美国",
        "url": "https://finance.sina.com.cn/jjxw/2023-12-05/doc-imzwymwq6685185.shtml",
        "docid": "mzwymwq6685185"
    },
    {
        "title": "国有四大行董事长密集发声：支持地方缓释偿债风险，助力纾解房地产“灰犀牛”风险",
        "url": "https://finance.sina.com.cn/jjxw/2023-12-06/doc-imzxavcs2347987.shtml",
        "docid": "mzxavcs2347987"
    },
    {
        "title": "突发！董事长被刑拘，算力大牛股崩了！",
        "url": "https://cj.sina.cn/articles/view/1907330883/71af8f4300101dxjs?from=finance&subch=astocks",
        "docid": "mzxakpw2531439"
    },
    {
        "title": "印度股市📈机构T+3，散户T+0，良心股市啊！",
        "url": "https://cj.sina.cn/articles/view/6011005289/16648a969040015r25?from=finance",
        "docid": "mzxazmp0035529"
    },
    {
        "title": "81岁的拜登还在奋战连任之际 58岁的麦卡锡官宣从国会退役了",
        "url": "https://finance.sina.com.cn/jjxw/2023-12-07/doc-imzxcmzm8806171.shtml",
        "docid": "mzxcmzm8806171"
    },
    {
        "title": "CPU市场，正酝酿变局",
        "url": "https://t.cj.sina.cn/articles/view/7713813572/1cbc77444001012vnq?from=tech",
        "docid": "mzxaqvv9201788"
    },
    {
        "title": "工信部：将大力发展人工智能、智能工厂、新型网络等关键技术",
        "url": "https://finance.sina.com.cn/jjxw/2023-12-06/doc-imzxaefz9388076.shtml",
        "docid": "mzxaefz9388076"
    },
    {
        "title": "天汽模1.62亿股转让淮北国资委拟为实控人 一字涨停",
        "url": "https://finance.sina.com.cn/roll/2023-12-06/doc-imzxakps5766819.shtml",
        "docid": "mzxakps5766819"
    },
    {
        "title": "国旅联合终止重大资产重组 此前拟购买控股股东旗下多家公司股权",
        "url": "https://finance.sina.com.cn/stock/estate/integration/2023-12-06/doc-imzxakpv0315460.shtml",
        "docid": "mzxakpv0315460"
    },
    {
        "title": "暗示加入华为造车圈？一汽跟深圳签署战略合作",
        "url": "https://finance.sina.com.cn/jjxw/2023-12-06/doc-imzxakpx9283482.shtml",
        "docid": "mzxakpx9283482"
    },
    {
        "title": "字节开启新一轮回购：估值约2680亿美元，上市计划仍未定",
        "url": "https://finance.sina.com.cn/jjxw/2023-12-06/doc-imzxavcn5577700.shtml",
        "docid": "mzxavcn5577700"
    },
    {
        "title": "“没有中国，你就得不到‘美国制造’的电动汽车”",
        "url": "https://cj.sina.cn/articles/view/1887344341/707e96d502001fb6z?from=finance",
        "docid": "mzxaqvq5664098"
    },
    {
        "title": "中国观众泰国观演与主办方发生纠纷，亲历者：观众被圈在座位区不让进出，一度全场熄灯",
        "url": "https://finance.sina.com.cn/tech/roll/2023-12-06/doc-imzxaqvq5680053.shtml",
        "docid": "mzxaqvq5680053"
    },
    {
        "title": "智算力系统创新 加速生成式AI产业发展",
        "url": "https://t.cj.sina.cn/articles/view/2345597047/8bcef87702001i20w?from=tech",
        "docid": "mzxaqvt0223944"
    },
    {
        "title": "寿命150万公里、枪击不起火！广汽埃安全栈自研自产电池即将发布",
        "url": "https://finance.sina.com.cn/tech/discovery/2023-12-06/doc-imzxaqvt0236309.shtml",
        "docid": "mzxaqvt0236309"
    },
    {
        "title": "为援乌，美财长急了",
        "url": "https://finance.sina.com.cn/jjxw/2023-12-06/doc-imzxaqvt0239003.shtml",
        "docid": "mzxaqvt0239003"
    },
    {
        "title": "IPO终止，发行人、保荐人、会计师均遭警示！",
        "url": "https://finance.sina.com.cn/wm/2023-12-06/doc-imzxaqvt0246672.shtml",
        "docid": "mzxaqvt0246672"
    },
    {
        "title": "省广集团(002400.SZ)：省广影业系公司参股公司，相关短剧业务产生收入",
        "url": "https://finance.sina.com.cn/stock/hkstock/ggscyd/2023-12-06/doc-imzxaqvt0255855.shtml",
        "docid": "mzxaqvt0255855"
    },
    {
        "title": "想要把车卖得快，得先把车造得怪？",
        "url": "https://finance.sina.com.cn/jjxw/2023-12-06/doc-imzxaqvu2429523.shtml",
        "docid": "mzxaqvu2429523"
    },
    {
        "title": "缩量普反，当心中继陷阱",
        "url": "https://cj.sina.cn/articles/view/5244183267/13893e2e30010199ye?from=finance&subch=astocks",
        "docid": "mzxaqvu2434249"
    },
    {
        "title": "痛心！夫妻双双丧命，一个细节引关注",
        "url": "https://finance.sina.com.cn/jjxw/2023-12-06/doc-imzxavcn5599047.shtml",
        "docid": "mzxavcn5599047"
    },
    {
        "title": "储能大跌！",
        "url": "https://finance.sina.com.cn/esg/2023-12-06/doc-imzxazmr9019582.shtml",
        "docid": "mzxazmr9019582"
    },
    {
        "title": "金力永磁(300748)：磁材龙头企业 正打造新的成长极",
        "url": "https://finance.sina.com.cn/stock/relnews/cn/2023-12-05/doc-imzwymwq6701936.shtml",
        "docid": "mzwymwq6701936"
    },
    {
        "title": "华为Freebuds 5 Pro或将于12日发布，创新造型引人注目",
        "url": "https://finance.sina.com.cn/tech/mobile/n/n/2023-12-06/doc-imzwymwt1264477.shtml",
        "docid": "mzwymwt1264477"
    },
    {
        "title": "稀土永磁板块异动拉升，北矿科技涨停",
        "url": "https://cj.sina.cn/articles/view/5182171545/m134e1a99902001o4zt?from=finance",
        "docid": "mzwztsc0612064"
    },
    {
        "title": "意才基金：证监会出手！这些证券交易行为严惩不贷！",
        "url": "https://t.cj.sina.cn/articles/view/7721875497/1cc427829001018rz8",
        "docid": "mzwztsf9576000"
    },
    {
        "title": "比特币冲至近两年高点 炒币最活跃的竟是这个国家",
        "url": "https://finance.sina.com.cn/jjxw/2023-12-06/doc-imzwzxxw5944753.shtml",
        "docid": "mzwzxxw5944753"
    },
    {
        "title": "华帝股份：拟1亿元-2亿元回购股份",
        "url": "https://finance.sina.com.cn/jjxw/2023-12-06/doc-imzxakps5781314.shtml",
        "docid": "mzxakps5781314"
    },
    {
        "title": "晶方科技(603005.SH)股东中新创投累计减持公司1262万股",
        "url": "https://finance.sina.com.cn/stock/relnews/cn/2023-12-06/doc-imzxakps5794592.shtml",
        "docid": "mzxakps5794592"
    },
    {
        "title": "降了再降，现款宝马5系赶在新款上市前“清仓大处理”？",
        "url": "https://finance.sina.com.cn/jjxw/2023-12-06/doc-imzxakpv0311213.shtml",
        "docid": "mzxakpv0311213"
    },
    {
        "title": "新大陆(000997.SZ)：目前公司已经拥有超1500万的支付用户",
        "url": "https://finance.sina.com.cn/stock/relnews/cn/2023-12-06/doc-imzxakpv0326245.shtml",
        "docid": "mzxakpv0326245"
    },
    {
        "title": "36家北交所公司获机构调研",
        "url": "https://finance.sina.com.cn/jjxw/2023-12-06/doc-imzxakpx9288402.shtml",
        "docid": "mzxakpx9288402"
    },
    {
        "title": "银泰黄金：控股股东山东黄金增持公司5%股份",
        "url": "https://finance.sina.com.cn/stock/hkstock/marketalerts/2023-12-06/doc-imzxaqvq5697492.shtml",
        "docid": "mzxaqvq5697492"
    },
    {
        "title": "王健林，正式失去万达电影",
        "url": "https://finance.sina.com.cn/wm/2023-12-06/doc-imzxaqvt0230382.shtml",
        "docid": "mzxaqvt0230382"
    },
    {
        "title": "泽连斯基“爽约”美参议院会议，白宫：我们快没钱了 俄发言人：随时准备谈判",
        "url": "https://finance.sina.com.cn/tech/roll/2023-12-06/doc-imzxaqvt0256523.shtml",
        "docid": "mzxaqvt0256523"
    },
    {
        "title": "上市银行董监高频频增持自家股票 银行股估值修复行情可期",
        "url": "https://finance.sina.com.cn/jjxw/2023-12-06/doc-imzxaqvu2434626.shtml",
        "docid": "mzxaqvu2434626"
    },
    {
        "title": "AI算力新动向！协鑫能科打造上海首个垂直领域AI千卡集群",
        "url": "https://finance.sina.com.cn/stock/relnews/cn/2023-12-06/doc-imzxaqvv9193479.shtml",
        "docid": "mzxaqvv9193479"
    },
    {
        "title": "中科曙光：拟2000万元-3000万元回购公司股份，回购价格不超45元/股",
        "url": "https://cj.sina.cn/articles/view/5182171545/m134e1a99902001o5i8?from=finance",
        "docid": "mzxaqvv9196807"
    },
    {
        "title": "股评聪明钱 | 谈股论金",
        "url": "https://finance.sina.com.cn/cj/2023-12-06/doc-imzxaqvv9200084.shtml",
        "docid": "mzxaqvv9200084"
    },
    {
        "title": "寒武纪：公司将稳步增强研发实力，立足核心优势，大力优化生态建设，以实现公司的稳健发展",
        "url": "https://cj.sina.cn/articles/view/1850649324/6e4eaaec02001an46?from=finance",
        "docid": "mzxaqvv9213815"
    },
    {
        "title": "价格大降！上海有人两三天一顿：终于能想吃就买了！从业者却忧心忡忡",
        "url": "https://finance.sina.com.cn/wm/2023-12-06/doc-imzxazmq2225812.shtml",
        "docid": "mzxazmq2225812"
    },
    {
        "title": "果链不再是香饽饽，苹果压榨严重，国产供应链疑似主动退出",
        "url": "https://t.cj.sina.cn/articles/view/3769804445/e0b2a69d001018wt0?from=tech",
        "docid": "mzxazmr9007419"
    },
    {
        "title": "担心美军援决心减弱，乌克兰高官赴美发出“最直白求救”",
        "url": "https://finance.sina.com.cn/jjxw/2023-12-07/doc-imzxcsia5137587.shtml",
        "docid": "mzxcsia5137587"
    },
    {
        "title": "3年跌幅近90%！有人观望，也有人想用年终奖抄底",
        "url": "https://finance.sina.com.cn/jjxw/2023-12-06/doc-imzxavcn5581794.shtml",
        "docid": "mzxavcn5581794"
    },
    {
        "title": "特斯拉车主驾驶 Model S 行驶 190 万公里，已更换 13 次电机",
        "url": "https://t.cj.sina.cn/articles/view/1826017320/6cd6d028040019sbh?from=auto&subch=oauto",
        "docid": "mzwztsc0616109"
    },
    {
        "title": "整栋楼都是特价房……这个省会的新房市场有点冷！",
        "url": "https://finance.sina.com.cn/jjxw/2023-12-07/doc-imzxazmk5492918.shtml",
        "docid": "mzxazmk5492918"
    },
    {
        "title": "“以军包围哈马斯领导人住所，但……”",
        "url": "https://finance.sina.com.cn/jjxw/2023-12-06/doc-imzxavcn5597184.shtml",
        "docid": "mzxavcn5597184"
    },
    {
        "title": "茅台首次投资生物医药企业",
        "url": "https://cj.sina.cn/articles/view/6011309186/1664d4c8202702t2wl?from=finance",
        "docid": "mzwymwt1255445"
    },
    {
        "title": "普京：妈妈罚我站墙角，有些我就不说了",
        "url": "https://finance.sina.com.cn/jjxw/2023-12-06/doc-imzxaefu5877966.shtml",
        "docid": "mzxaefu5877966"
    },
    {
        "title": "四川长虹(600839.SH)：近日公司在中国(绵阳)科技城发布全球首台星闪电视",
        "url": "https://finance.sina.com.cn/stock/hkstock/ggscyd/2023-12-05/doc-imzwymwq6703544.shtml",
        "docid": "mzwymwq6703544"
    },
    {
        "title": "温氏股份(300498.SZ)：回购完成 累计耗资约9.0亿元回购4801.138万股",
        "url": "https://finance.sina.com.cn/stock/hkstock/ggscyd/2023-12-06/doc-imzxaqvq5673400.shtml",
        "docid": "mzxaqvq5673400"
    },
    {
        "title": "【中粮视点】碳酸锂：关于交割标准的思考",
        "url": "https://finance.sina.com.cn/money/future/fmnews/2023-12-06/doc-imzwzxxz0508543.shtml",
        "docid": "mzwzxxz0508543"
    },
    {
        "title": "通化东宝研究：胰岛素集采对公司业绩的影响",
        "url": "https://finance.sina.com.cn/roll/2023-12-06/doc-imzwzxya2707040.shtml",
        "docid": "mzwzxya2707040"
    },
    {
        "title": "重磅利好！财政部发声，社保基金有望加码A股，连续增持股曝光，11股业绩有望持续高增长",
        "url": "https://finance.sina.com.cn/stock/zqgd/2023-12-06/doc-imzwzxya2716587.shtml",
        "docid": "mzwzxya2716587"
    },
    {
        "title": "黄仁勋：华为是英伟达在AI芯片领域的强大竞争对手",
        "url": "https://finance.sina.com.cn/stock/usstock/c/2023-12-06/doc-imzwzxyc9495034.shtml",
        "docid": "mzwzxyc9495034"
    },
    {
        "title": "华胜天成再次入选“工业互联网解决方案提供商”百强榜单",
        "url": "https://finance.sina.com.cn/stock/relnews/cn/2023-12-06/doc-imzxaefu5878374.shtml",
        "docid": "mzxaefu5878374"
    },
    {
        "title": "租来的别墅成了流浪动物收养所",
        "url": "https://finance.sina.com.cn/jjxw/2023-12-06/doc-imzxaefz9381526.shtml",
        "docid": "mzxaefz9381526"
    },
    {
        "title": "2023年11月中国房地产企业品牌传播力TOP100排行榜",
        "url": "https://finance.sina.com.cn/stock/estate/sd/2023-12-06/doc-imzxakpx9310940.shtml",
        "docid": "mzxakpx9310940"
    },
    {
        "title": "到底有没有发动“全体公务人员”献血？“小姑姑”是谁？五问西藏阿里献血事件真相",
        "url": "https://finance.sina.com.cn/wm/2023-12-06/doc-imzxaqvt0237160.shtml",
        "docid": "mzxaqvt0237160"
    },
    {
        "title": "锂电池全线爆发，板块估值处历史低点，15股市盈率不到10倍",
        "url": "https://finance.sina.com.cn/stock/relnews/cn/2023-12-06/doc-imzxaqvt0241111.shtml",
        "docid": "mzxaqvt0241111"
    },
    {
        "title": "这种“名贵食材”，价格创近10年新低！被人称为“餐桌上的软黄金”！",
        "url": "https://finance.sina.com.cn/wm/2023-12-06/doc-imzwzxxw5951382.shtml",
        "docid": "mzwzxxw5951382"
    },
    {
        "title": "雁默：“中国不是美国朋友”，芯片行业也不是",
        "url": "https://t.cj.sina.cn/articles/view/1887344341/707e96d502001fbcg?from=tech",
        "docid": "mzxcwrf8588736"
    },
    {
        "title": "指望银行救市毫不现实！",
        "url": "https://finance.sina.com.cn/wm/2023-12-07/doc-imzxcwrf8589338.shtml",
        "docid": "mzxcwrf8589338"
    },
    {
        "title": "又有人盯上了中产的钱包",
        "url": "https://finance.sina.com.cn/jjxw/2023-12-05/doc-imzwyser1163014.shtml",
        "docid": "mzwyser1163014"
    },
    {
        "title": "大周期已来，资金疯狂抢跑",
        "url": "https://finance.sina.com.cn/wm/2023-12-06/doc-imzxaqvv9215805.shtml",
        "docid": "mzxaqvv9215805"
    },
    {
        "title": "奇迹！5万倍单注彩票中2亿多，且无需缴税？连编都懒得编了！",
        "url": "https://t.cj.sina.cn/articles/view/1577794853/5e0b3d250190214sy?from=tech",
        "docid": "mzxazmq2221892"
    },
    {
        "title": "楼市，还在筑底",
        "url": "https://finance.sina.com.cn/stock/estate/sd/2023-12-07/doc-imzxcwrf8588100.shtml",
        "docid": "mzxcwrf8588100"
    },
    {
        "title": "神秘肺炎出现？官方发声",
        "url": "https://finance.sina.com.cn/jjxw/2023-12-06/doc-imzwzpka6141471.shtml",
        "docid": "mzwzpka6141471"
    },
    {
        "title": "楚江新材筹码持续集中 最新股东户数下降1.42%",
        "url": "https://finance.sina.com.cn/jjxw/2023-12-05/doc-imzwxkma7180336.shtml",
        "docid": "mzwxkma7180336"
    },
    {
        "title": "海外订单爆满，为什么风电龙头股价还腰斩了？",
        "url": "https://finance.sina.com.cn/wm/2023-12-06/doc-imzxavct9105834.shtml",
        "docid": "mzxavct9105834"
    },
    {
        "title": "公积金中心实招应对业务高峰",
        "url": "https://finance.sina.com.cn/jjxw/2023-12-07/doc-imzxcwqy5038569.shtml",
        "docid": "mzxcwqy5038569"
    },
    {
        "title": "以军：炸错了，感到遗憾",
        "url": "https://finance.sina.com.cn/jjxw/2023-12-06/doc-imzxakps5783334.shtml",
        "docid": "mzxakps5783334"
    },
    {
        "title": "华为重磅发布！",
        "url": "https://finance.sina.com.cn/jjxw/2023-12-07/doc-imzxcsie9703461.shtml",
        "docid": "mzxcsie9703461"
    },
    {
        "title": "龙字辈个股再度活跃 ，圣龙股份涨停创历史新高",
        "url": "https://cj.sina.cn/articles/view/1642088277/61e0475504001fugu?from=finance",
        "docid": "mzwzxxz0512160"
    },
    {
        "title": "王剑：对“盘活存量信贷”的理解和估测",
        "url": "http://finance.sina.com.cn/zl/bank/2023-12-06/zl-imzxaefu5875203.shtml",
        "docid": "mzxaefu5875203"
    },
    {
        "title": "期货真不是人玩的，因为你赚再多，早晚要爆仓……",
        "url": "https://cj.sina.cn/articles/view/1163390501/4557ee25040017i3a?from=finance",
        "docid": "mzwzpkf0707573"
    },
    {
        "title": "维护资本市场稳定运行需各方协同发力",
        "url": "https://cj.sina.cn/articles/view/2311077472/89c03e60020025gr6?from=finance",
        "docid": "mzwywnk6492562"
    },
    {
        "title": "中信建投：明年A股有望迎来“小牛市” 关注科技医药等三条主线",
        "url": "https://finance.sina.com.cn/jjxw/2023-12-06/doc-imzwztsc0627385.shtml",
        "docid": "mzwztsc0627385"
    },
    {
        "title": "汽配股走强 长春一东等多股涨停",
        "url": "https://cj.sina.cn/articles/view/5115326071/130e5ae7702002144f?from=finance",
        "docid": "mzwztse2790569"
    },
    {
        "title": "中式健康餐，一种很新的“人类泔水”",
        "url": "https://finance.sina.com.cn/wm/2023-12-06/doc-imzwzxxz0533458.shtml",
        "docid": "mzwzxxz0533458"
    },
    {
        "title": "宁德时代造船了",
        "url": "https://t.cj.sina.cn/articles/view/2723054902/a24e8536001013ktb?from=tech",
        "docid": "mzxaqvv9208389"
    },
    {
        "title": "山西一女性公职人员实名举报两任局长，纪委回应",
        "url": "https://finance.sina.com.cn/roll/2023-12-07/doc-imzxazmp0040520.shtml",
        "docid": "mzxazmp0040520"
    },
    {
        "title": "通化东宝：国产胰岛素龙头GLP-1商业化之路正式开启",
        "url": "https://cj.sina.cn/articles/view/7651844612/1c815e20402001htnm?from=finance",
        "docid": "mzwxqsv6647421"
    },
    {
        "title": "华为点火，厂商加速，激光雷达谁更强？",
        "url": "https://cj.sina.cn/articles/view/5224789915/1376bf79b001017g0f",
        "docid": "mzwztsf9575804"
    },
    {
        "title": "碳酸锂期货交割渐近 广期所调整持仓限额",
        "url": "https://finance.sina.com.cn/tech/roll/2023-12-07/doc-imzxcftk9928752.shtml",
        "docid": "mzxcftk9928752"
    },
    {
        "title": "女员工工作群内实名举报领导，千亿银行紧急通报！",
        "url": "https://finance.sina.com.cn/stock/relnews/cn/2023-12-05/doc-imzwysen6608752.shtml",
        "docid": "mzwysen6608752"
    },
    {
        "title": "宅男财经｜律师解读：2.2亿彩票大奖背后疑点",
        "url": "https://cj.sina.cn/articles/view/5993531560/v1653e08a802001bq3p?from=sports&subch=osport",
        "docid": "mzxaefx0416900"
    },
    {
        "title": "日本政坛“地震”的前兆？",
        "url": "https://finance.sina.com.cn/jjxw/2023-12-06/doc-imzxakpv0317643.shtml",
        "docid": "mzxakpv0317643"
    },
    {
        "title": "躲过“暴雷”的老牌民企 要站起来了？",
        "url": "https://cj.sina.cn/articles/view/2366926222/8d146d8e019014i8b?from=finance",
        "docid": "mzxakpv0338328"
    },
    {
        "title": "中兴通讯RAN Composer获GLOTEL全球电信大奖",
        "url": "https://finance.sina.com.cn/stock/relnews/cn/2023-12-06/doc-imzxakpw2525516.shtml",
        "docid": "mzxakpw2525516"
    },
    {
        "title": "阿联酋捐款300亿美元！",
        "url": "https://finance.sina.com.cn/wm/2023-12-05/doc-imzwxzhu6883780.shtml",
        "docid": "mzwxzhu6883780"
    },
    {
        "title": "高善文：这个市场肯定已经严重超调，房地产投资的长期中枢也许会在8%左右",
        "url": "https://cj.sina.cn/articles/view/2709618637/a1817fcd019017yi4?from=finance",
        "docid": "mzxcwqy5035548"
    },
    {
        "title": "荣科科技(300290.SZ)：公司今年正在推出的后勤产品AI边缘计算算力盒",
        "url": "https://cj.sina.cn/articles/view/5115326071/130e5ae7702002146k?from=finance",
        "docid": "mzwzxxz0508043"
    },
    {
        "title": "宁波一女子银行账户突然多了1000万元，银行回应：系统升级导致，已恢复正常",
        "url": "https://finance.sina.com.cn/jjxw/2023-12-06/doc-imzwzxxz0533029.shtml",
        "docid": "mzwzxxz0533029"
    },
    {
        "title": "雷军带火了陈东升｜巨潮",
        "url": "https://cj.sina.cn/articles/view/7519182683/1c02d9f5b01901alfv?from=finance",
        "docid": "mzwzxya2700658"
    },
    {
        "title": "保罗·麦卡特尼的处世哲学：无论你多么绝望，总有事情会发生",
        "url": "https://finance.sina.com.cn/jjxw/2023-12-06/doc-imzwzxyc9471013.shtml",
        "docid": "mzwzxyc9471013"
    },
    {
        "title": "“优惠品”美的冰箱半年就坏无法修复，商家：退货要自担运费",
        "url": "https://finance.sina.com.cn/jjxw/2023-12-06/doc-imzxaefu5875504.shtml",
        "docid": "mzxaefu5875504"
    },
    {
        "title": "比亚迪掀新一轮官降，仅仅为了年底冲量？",
        "url": "https://finance.sina.com.cn/jjxw/2023-12-06/doc-imzxakpv0319267.shtml",
        "docid": "mzxakpv0319267"
    },
    {
        "title": "风华高科(000636.SZ)：向华为供应MLCC、片式电阻器等电子元器件产品",
        "url": "https://cj.sina.cn/articles/view/5115326071/130e5ae770200214gf?from=finance",
        "docid": "mzxakpv0334109"
    },
    {
        "title": "全球十大晶圆代工厂排名：中芯国际第五，英特尔IFS进入前十！",
        "url": "https://t.cj.sina.cn/articles/view/5772303575/1580e5cd7027013vlh?from=tech",
        "docid": "mzxakpv0351099"
    },
    {
        "title": "美国、乌克兰签了！",
        "url": "https://cj.sina.cn/articles/view/1872005590/6f9489d6019013www?from=finance",
        "docid": "mzxcwra9602391"
    },
    {
        "title": "周庭弃保潜逃加拿大！李家超称“除非她自首，否则被终身追捕”，外交部最新回应",
        "url": "https://finance.sina.com.cn/jjxw/2023-12-06/doc-imzxaqvu2425915.shtml",
        "docid": "mzxaqvu2425915"
    },
    {
        "title": "12月7日起：跌了！跌了！大暴跌！中央媒体发声！警惕相关风险！",
        "url": "https://finance.sina.com.cn/money/future/wemedia/2023-12-07/doc-imzxcwra9596943.shtml",
        "docid": "mzxcwra9596943"
    },
    {
        "title": "香港人买爆深圳山姆",
        "url": "https://cj.sina.cn/articles/view/6173010488/16ff0aa3801901c7yj?from=finance",
        "docid": "mzxazmp0035873"
    },
    {
        "title": "单体规模最大光伏治沙项目并网",
        "url": "https://finance.sina.com.cn/jjxw/2023-12-06/doc-imzwziak2987269.shtml",
        "docid": "mzwziak2987269"
    },
    {
        "title": "经济学家吴晓求：不要再刺激内需了 || 关注",
        "url": "https://finance.sina.com.cn/cj/2023-12-07/doc-imzxcwqy5037189.shtml",
        "docid": "mzxcwqy5037189"
    },
    {
        "title": "疯狂的碳酸锂，暴涨14倍后的大缩水",
        "url": "https://cj.sina.cn/articles/view/1593468244/5efa655401901clfg?from=finance",
        "docid": "mzxcwra9593557"
    },
    {
        "title": "昨夜重挫！什么情况？",
        "url": "https://finance.sina.com.cn/jjxw/2023-12-07/doc-imzxcwqy5023265.shtml",
        "docid": "mzxcwqy5023265"
    },
    {
        "title": "中奖人出现了！江西福彩回应“单注彩票中2.2亿大奖”：兑了十几张",
        "url": "https://finance.sina.com.cn/jjxw/2023-12-05/doc-imzwyfqv1360517.shtml",
        "docid": "mzwyfqv1360517"
    },
    {
        "title": "俄乌开玩 猫鼠游戏",
        "url": "https://finance.sina.com.cn/jjxw/2023-12-06/doc-imzwywnr9961421.shtml",
        "docid": "mzwywnr9961421"
    },
    {
        "title": "普京访问中东两国！四架战机全程护航，每架携带四枚空空导弹",
        "url": "https://finance.sina.com.cn/jjxw/2023-12-07/doc-imzxcwrf8600248.shtml",
        "docid": "mzxcwrf8600248"
    },
    {
        "title": "“买奶茶”只为了这种沐足“特殊服务”，冲上热搜！",
        "url": "https://finance.sina.com.cn/wm/2023-12-07/doc-imzxazmr9026471.shtml",
        "docid": "mzxazmr9026471"
    },
    {
        "title": "药明生物全员恶人",
        "url": "https://finance.sina.com.cn/stock/stockzmt/2023-12-07/doc-imzxcwra9597497.shtml",
        "docid": "mzxcwra9597497"
    },
    {
        "title": "“股票都按照你的意思全吃进去了！”前妻住隔壁微信传信 董事长内幕交易细节曝光",
        "url": "https://finance.sina.com.cn/stock/relnews/2023-12-07/doc-imzxcwra9589004.shtml",
        "docid": "mzxcwra9589004"
    },
    {
        "title": "上海贝岭(600171.SH)：公司多个集成电路、功率器件产品技术在国内处于领先地位",
        "url": "https://finance.sina.com.cn/stock/relnews/cn/2023-12-05/doc-imzwyser1162409.shtml",
        "docid": "mzwyser1162409"
    },
    {
        "title": "证券时报：风物长宜放眼量 A股正聚力成“多”",
        "url": "https://finance.sina.com.cn/stock/marketresearch/2023-12-07/doc-imzxcmzm8806290.shtml",
        "docid": "mzxcmzm8806290"
    },
    {
        "title": "V观财报｜贵州茅台：240亿元特别分红方案获通过",
        "url": "https://cj.sina.cn/articles/view/5993531560/1653e08a802001bq7g?from=finance",
        "docid": "mzxavcr0137481"
    },
    {
        "title": "药明生物：拟回购最多10%的公司股份",
        "url": "https://finance.sina.com.cn/roll/2023-12-06/doc-imzwzxya2710067.shtml",
        "docid": "mzwzxya2710067"
    },
    {
        "title": "充电7分钟续航400公里！长安汽车固态电池2025年逐步量产",
        "url": "https://finance.sina.com.cn/stock/relnews/cn/2023-12-06/doc-imzwzxxw5977298.shtml",
        "docid": "mzwzxxw5977298"
    },
    {
        "title": "方正证券：关注“AI工厂”相关产业链机会",
        "url": "https://finance.sina.com.cn/jjxw/2023-12-06/doc-imzxaefu5875537.shtml",
        "docid": "mzxaefu5875537"
    },
    {
        "title": "餐饮店倒闭潮真的来了……",
        "url": "https://finance.sina.com.cn/wm/2023-12-07/doc-imzxcwre1845071.shtml",
        "docid": "mzxcwre1845071"
    },
    {
        "title": "中国香港紧急宣布，暂停进口！啥情况？",
        "url": "https://finance.sina.com.cn/jjxw/2023-12-07/doc-imzxeawy9485145.shtml",
        "docid": "mzxeawy9485145"
    },
    {
        "title": "嘲笑印度，羡慕印度，参考印度",
        "url": "https://finance.sina.com.cn/money/fund/jjzl/2023-12-07/doc-imzxcwqy5037192.shtml",
        "docid": "mzxcwqy5037192"
    },
    {
        "title": "面馆老板吐槽1个月营业额3万仍亏损：仅房租就高达1万",
        "url": "https://finance.sina.com.cn/jjxw/2023-12-06/doc-imzxaqvt0237317.shtml",
        "docid": "mzxaqvt0237317"
    },
    {
        "title": "马斯克抨击丁克一族：年老后让别人家孩子照顾你",
        "url": "https://finance.sina.com.cn/stock/usstock/c/2023-12-06/doc-imzxavct9111305.shtml",
        "docid": "mzxavct9111305"
    },
    {
        "title": "暂停进口！香港紧急宣布，什么情况？美国芯片巨头最新表态…",
        "url": "https://finance.sina.com.cn/stock/roll/2023-12-07/doc-imzxcwra9588292.shtml",
        "docid": "mzxcwra9588292"
    },
    {
        "title": "将被终身追捕的周庭，未必没有出路……",
        "url": "https://finance.sina.com.cn/wm/2023-12-07/doc-imzxeawy9492445.shtml",
        "docid": "mzxeawy9492445"
    },
    {
        "title": "普京突访中东",
        "url": "https://finance.sina.com.cn/jjxw/2023-12-07/doc-imzxeaxc8496721.shtml",
        "docid": "mzxeaxc8496721"
    },
    {
        "title": "8年多才承保200余单“以房养老”破局路在何方？",
        "url": "https://finance.sina.com.cn/money/insurance/bxdt/2023-12-07/doc-imzxcwra9584555.shtml",
        "docid": "mzxcwra9584555"
    },
    {
        "title": "鱼死网破！拜登发布重要表态，矛头直指这个人—",
        "url": "https://cj.sina.cn/articles/view/5682858148/152b988a40190185vr?from=finance",
        "docid": "mzxcftn2140387"
    },
    {
        "title": "对决时刻临近，有那味儿了",
        "url": "https://finance.sina.com.cn/wm/2023-12-07/doc-imzxcwqy5039807.shtml",
        "docid": "mzxcwqy5039807"
    },
    {
        "title": "1300亿券商巨头，新董事长人选定了！",
        "url": "https://finance.sina.com.cn/jjxw/2023-12-06/doc-imzxavcs2326175.shtml",
        "docid": "mzxavcs2326175"
    },
    {
        "title": "传全线裁员30% 喜马拉雅回应：消息不实",
        "url": "https://finance.sina.com.cn/tech/shenji/2023-12-07/doc-imzxcwra9591499.shtml",
        "docid": "mzxcwra9591499"
    },
    {
        "title": "以军罕见就轰炸道歉",
        "url": "https://finance.sina.com.cn/jjxw/2023-12-07/doc-imzxcwqy5044038.shtml",
        "docid": "mzxcwqy5044038"
    },
    {
        "title": "俄外长手机由苹果换华为？俄外交部回应",
        "url": "https://finance.sina.com.cn/jjxw/2023-12-06/doc-imzxaqvq5681617.shtml",
        "docid": "mzxaqvq5681617"
    },
    {
        "title": "跨月后资金面明显转松 业内人士：降准空间较大",
        "url": "https://finance.sina.com.cn/money/bank/bank_hydt/2023-12-07/doc-imzxcwre1812290.shtml",
        "docid": "mzxcwre1812290"
    },
    {
        "title": "重要数据即将发布！专家预测来了",
        "url": "https://finance.sina.com.cn/jjxw/2023-12-06/doc-imzxazmp0036550.shtml",
        "docid": "mzxazmp0036550"
    },
    {
        "title": "华为鸿蒙，大消息！",
        "url": "https://finance.sina.com.cn/jjxw/2023-12-07/doc-imzxcwre1810280.shtml",
        "docid": "mzxcwre1810280"
    },
    {
        "title": "农行通报30万存款被转成理财：处于封闭期，暂不能赎回",
        "url": "https://cj.sina.cn/articles/view/1961718870/74ed745604001as2s?from=finance",
        "docid": "mzxeaww4948073"
    },
    {
        "title": "1月1日起：农村全面禁止建房？一律叫停“村庄撤并”？上边铁令新规！",
        "url": "https://finance.sina.com.cn/money/future/wemedia/2023-12-07/doc-imzxcwra9596954.shtml",
        "docid": "mzxcwra9596954"
    },
    {
        "title": "突发！又一家知名商场宣布闭店",
        "url": "https://finance.sina.com.cn/wm/2023-12-06/doc-imzwztry6047415.shtml",
        "docid": "mzwztry6047415"
    },
    {
        "title": "日媒：中国的出口主导地位正在增强而不是减弱",
        "url": "https://cj.sina.cn/articles/view/1686546714/6486a91a02001z6mu?from=finance",
        "docid": "mzxcsia5141520"
    },
    {
        "title": "车企年末大降价，最高降19万！网友：永远感觉自己买早了",
        "url": "https://finance.sina.com.cn/jjxw/2023-12-05/doc-imzwyfqv1336637.shtml",
        "docid": "mzwyfqv1336637"
    },
    {
        "title": "爆火的国产冲锋衣，也被「卡脖子」",
        "url": "https://finance.sina.com.cn/wm/2023-12-05/doc-imzwyfqs6794063.shtml",
        "docid": "mzwyfqs6794063"
    },
    {
        "title": "为什么中国的崛起势不可当？",
        "url": "https://finance.sina.com.cn/cj/2023-12-07/doc-imzxcwra9591124.shtml",
        "docid": "mzxcwra9591124"
    },
    {
        "title": "美军：全部停飞",
        "url": "https://finance.sina.com.cn/jjxw/2023-12-07/doc-imzxeaxa1728777.shtml",
        "docid": "mzxeaxa1728777"
    },
    {
        "title": "广州违建烂尾楼出租13年住满人：墙体乌黑，但楼内带装修电梯",
        "url": "https://finance.sina.com.cn/jjxw/2023-12-06/doc-imzxavcs2328548.shtml",
        "docid": "mzxavcs2328548"
    },
    {
        "title": "短短20天，女子“断崖式衰老”！医生：无法逆转！",
        "url": "https://finance.sina.com.cn/wm/2023-12-07/doc-imzxeaxc8542078.shtml",
        "docid": "mzxeaxc8542078"
    },
    {
        "title": "涉嫌严重违纪违法，两人被查",
        "url": "https://finance.sina.com.cn/wm/2023-12-07/doc-imzxcwra9609537.shtml",
        "docid": "mzxcwra9609537"
    },
    {
        "title": "中央重磅文件，给国央企派了新任务",
        "url": "https://cj.sina.cn/articles/view/1909698584/71d3b018019013810?from=finance",
        "docid": "mzxcwrf8592062"
    },
    {
        "title": "乌克兰前议员在莫斯科州被杀，“乌安全机构策划”",
        "url": "https://cj.sina.cn/articles/view/1887344341/707e96d502001fbdk?from=finance",
        "docid": "mzxeaxa1726479"
    },
    {
        "title": "绝地反击还是再创新低？",
        "url": "https://cj.sina.cn/articles/view/1053985634/3ed28b6200101dda2?from=finance&subch=astocks",
        "docid": "mzxeaxa1766554"
    },
    {
        "title": "半年内，妻子两次发现丈夫与异性暧昧！当时签下的“忠诚协议”，离婚时法院为什么不认？",
        "url": "https://finance.sina.com.cn/jjxw/2023-12-07/doc-imzxcwrf8612866.shtml",
        "docid": "mzxcwrf8612866"
    },
    {
        "title": "拜登求共和党人“不能让普京赢”, 结果......",
        "url": "https://cj.sina.cn/articles/view/1887344341/707e96d502001fbe8?from=finance",
        "docid": "mzxeaww4949165"
    },
    {
        "title": "谷歌深夜放复仇杀器Gemini，最强原生多模态史诗级碾压GPT-4！语言理解首超人类",
        "url": "https://finance.sina.com.cn/tech/2023-12-07/doc-imzxcwre1824844.shtml",
        "docid": "mzxcwre1824844"
    },
    {
        "title": "农行通报女子30万存款被转成理财：暂不能赎回",
        "url": "https://finance.sina.com.cn/jjxw/2023-12-07/doc-imzxcsie9705023.shtml",
        "docid": "mzxcsie9705023"
    },
    {
        "title": "一鸣食品连收3个涨停板",
        "url": "https://finance.sina.com.cn/jjxw/2023-12-07/doc-imzxeawy9499144.shtml",
        "docid": "mzxeawy9499144"
    },
    {
        "title": "杨德龙：在历史大底区域 布局真正的好公司才能抓住下一轮牛市",
        "url": "https://finance.sina.com.cn/money/fund/jjpl/2023-12-07/doc-imzxeaxc8499691.shtml",
        "docid": "mzxeaxc8499691"
    },
    {
        "title": "退休9年，何忠海被开除党籍",
        "url": "https://finance.sina.com.cn/jjxw/2023-12-06/doc-imzxakps5787260.shtml",
        "docid": "mzxakps5787260"
    },
    {
        "title": "钢板一叠，强度翻倍？理想MEGA把专业人士都给整懵了",
        "url": "https://finance.sina.com.cn/jjxw/2023-12-06/doc-imzxakpv0311139.shtml",
        "docid": "mzxakpv0311139"
    },
    {
        "title": "刚刚，日本突然\"动手\"，发生了什么？",
        "url": "https://cj.sina.cn/articles/view/1664176597/633151d502001en9o?from=finance",
        "docid": "mzxeiey1650989"
    },
    {
        "title": "热搜！周杰伦演唱会被嘲“吃相难看”，咋回事？",
        "url": "https://finance.sina.com.cn/wm/2023-12-06/doc-imzxazmr9016987.shtml",
        "docid": "mzxazmr9016987"
    },
    {
        "title": "iPhone 14 Pro卖爆了！富士康：苹果iPhone销量远超预期",
        "url": "https://finance.sina.com.cn/stock/relnews/cn/2023-12-07/doc-imzxeaxc8496808.shtml",
        "docid": "mzxeaxc8496808"
    },
    {
        "title": "继唐双宁后，又一“金融圈书法家”被查！",
        "url": "https://cj.sina.cn/articles/view/2031864307/791bc9f3027018rvd?from=cul",
        "docid": "mzxeieu4848139"
    },
    {
        "title": "但斌，冠军！",
        "url": "https://finance.sina.com.cn/jjxw/2023-12-06/doc-imzxavcn5592184.shtml",
        "docid": "mzxavcn5592184"
    },
    {
        "title": "碧桂园，一招解千愁",
        "url": "https://cj.sina.cn/articles/view/2116828502/7e2c3d560010133mk?from=finance",
        "docid": "mzxaefz9371057"
    },
    {
        "title": "猪肉股集体大涨，猪周期要反转了？｜产业最前线",
        "url": "https://cj.sina.cn/articles/view/2853016445/aa0d937d02000yh8l?from=finance",
        "docid": "mzxazmp0042905"
    },
    {
        "title": "微信官方教你识破美女诱惑：感受下挑逗聊天",
        "url": "https://finance.sina.com.cn/tech/roll/2023-12-06/doc-imzxazmr9009231.shtml",
        "docid": "mzxazmr9009231"
    },
    {
        "title": "“2.2余亿元彩票大奖”属两名购彩者？江西省福彩工作人员：需等奖金兑付完毕后才能掌握",
        "url": "https://finance.sina.com.cn/jjxw/2023-12-06/doc-imzwztsf9546468.shtml",
        "docid": "mzwztsf9546468"
    },
    {
        "title": "惠发食品上演“天地板”行情",
        "url": "https://finance.sina.com.cn/stock/relnews/cn/2023-12-06/doc-imzxaefu5876827.shtml",
        "docid": "mzxaefu5876827"
    },
    {
        "title": "海关总署：前11月汽车出口6529.2亿元 同比增长79.6%",
        "url": "https://finance.sina.com.cn/jjxw/2023-12-07/doc-imzxeawy9515985.shtml",
        "docid": "mzxeawy9515985"
    },
    {
        "title": "千亿房企宝龙地产为何再次违约？",
        "url": "https://finance.sina.com.cn/jjxw/2023-12-07/doc-imzxeiey1652435.shtml",
        "docid": "mzxeiey1652435"
    },
    {
        "title": "私募大佬林园：A股处于估值底部，未来二三十年只看大健康赛道",
        "url": "https://finance.sina.com.cn/jjxw/2023-12-07/doc-imzxeaxa1739107.shtml",
        "docid": "mzxeaxa1739107"
    },
    {
        "title": "王健林：万达电影将易主，珠海万达商管或出售部分万达广场",
        "url": "https://finance.sina.com.cn/stock/stockzmt/2023-12-07/doc-imzxeiew9413667.shtml",
        "docid": "mzxeiew9413667"
    },
    {
        "title": "江苏银行：写好绿色金融大文章，助力实体经济向阳生长",
        "url": "https://finance.sina.com.cn/jjxw/2023-12-06/doc-imzxakpv0345078.shtml",
        "docid": "mzxakpv0345078"
    },
    {
        "title": "红岭创投非法集资案一审宣判，董事长周世平被判处无期徒刑",
        "url": "https://finance.sina.com.cn/jjxw/2023-12-07/doc-imzxeiey1638829.shtml",
        "docid": "mzxeiey1638829"
    },
    {
        "title": "累计成交逾2亿！国都证券前员工使用他人账户，炒股亏掉72万还被罚10万",
        "url": "https://finance.sina.com.cn/stock/quanshang/2023-12-07/doc-imzxeaxa1741540.shtml",
        "docid": "mzxeaxa1741540"
    },
    {
        "title": "珠海万达商管向投资人透露拟出售一、二线城市万达广场，正与险资接触",
        "url": "https://finance.sina.com.cn/jjxw/2023-12-07/doc-imzxcwra9608409.shtml",
        "docid": "mzxcwra9608409"
    },
    {
        "title": "北交所爆火！将迎系统性重估第二步？两大知名分析师最新研判",
        "url": "https://finance.sina.com.cn/stock/marketresearch/2023-12-07/doc-imzxcsie9689403.shtml",
        "docid": "mzxcsie9689403"
    },
    {
        "title": "应用加速带动算力需求，CPO概念强势拉升，太辰光一度涨停",
        "url": "https://finance.sina.com.cn/jjxw/2023-12-07/doc-imzxeawy9512051.shtml",
        "docid": "mzxeawy9512051"
    },
    {
        "title": "长大了，你就去做不良",
        "url": "https://finance.sina.com.cn/cj/2023-12-07/doc-imzxeiez8429918.shtml",
        "docid": "mzxeiez8429918"
    },
    {
        "title": "蒙古国新铁路计划加快实施",
        "url": "https://finance.sina.com.cn/jjxw/2023-12-07/doc-imzxcsia5137838.shtml",
        "docid": "mzxcsia5137838"
    },
    {
        "title": "女性公职人员实名举报两任局长，最新通报",
        "url": "https://finance.sina.com.cn/jjxw/2023-12-07/doc-imzxeieu4855395.shtml",
        "docid": "mzxeieu4855395"
    },
    {
        "title": "蔡英文又吃香港豆腐......",
        "url": "https://cj.sina.cn/articles/view/7431834032/1baf8c9b00190112ma?from=finance",
        "docid": "mzwyser1143535"
    },
    {
        "title": "港媒：欧盟为何不能拒绝中国的魅力攻势",
        "url": "https://finance.sina.com.cn/jjxw/2023-12-07/doc-imzxcsie9699228.shtml",
        "docid": "mzxcsie9699228"
    },
    {
        "title": "订单超200万辆，能行驶在任何星球的皮卡，也未必干得过中国车厂",
        "url": "https://cj.sina.cn/articles/view/6155926769/16eebfcf1027015c56?from=auto&subch=oauto",
        "docid": "mzxeieu4864017"
    },
    {
        "title": "当时的两人踌躇满志，然而事情根本没有他们想得那么简单……",
        "url": "https://t.cj.sina.cn/articles/view/1779837945/m6a162bf903301ccae?from=tech",
        "docid": "mzxeawy9522942"
    },
    {
        "title": "杭州天才少女，闪电杀入硅谷",
        "url": "https://finance.sina.com.cn/wm/2023-12-07/doc-imzxeiey1653967.shtml",
        "docid": "mzxeiey1653967"
    },
    {
        "title": "最后一个月！救市大招“杀到”家门口了！",
        "url": "https://cj.sina.cn/articles/view/1599685282/5f5942a2019018ruv?from=estate",
        "docid": "mzxeawy9501247"
    },
    {
        "title": "以梦为马，赛力斯成为新“比亚迪”之路",
        "url": "https://cj.sina.cn/articles/view/2183570524/8226a45c02701alnt?from=finance",
        "docid": "mzxeaww4954692"
    },
    {
        "title": "“华尔街一哥”再喷加密货币：如果我是政府，我会关了它",
        "url": "https://finance.sina.com.cn/jjxw/2023-12-07/doc-imzxcwra9602486.shtml",
        "docid": "mzxcwra9602486"
    },
    {
        "title": "4架战机护航，普京出发了",
        "url": "https://finance.sina.com.cn/jjxw/2023-12-07/doc-imzxeaxc8496788.shtml",
        "docid": "mzxeaxc8496788"
    },
    {
        "title": "中银国际证券徐高：房地产供过于求，但房价上涨压力还会非常大",
        "url": "https://cj.sina.cn/articles/view/5937487609/161e6def9001011prb",
        "docid": "mzxeaxc8514386"
    },
    {
        "title": "明年想少交个税，别忘了这个重要操作",
        "url": "https://finance.sina.com.cn/roll/2023-12-06/doc-imzwzxxw5976419.shtml",
        "docid": "mzwzxxw5976419"
    },
    {
        "title": "专访香港“女巴菲特”刘央：在无底可抄的时代，重构资本逻辑",
        "url": "https://cj.sina.cn/articles/view/1641561812/61d83ed4020016kcl?from=finance",
        "docid": "mzwyser1163390"
    },
    {
        "title": "拜登用“美俄开战”威胁国会对乌拨款，但结果……",
        "url": "https://finance.sina.com.cn/jjxw/2023-12-07/doc-imzxeiey1653463.shtml",
        "docid": "mzxeiey1653463"
    },
    {
        "title": "41岁深田恭子与富豪未婚夫分手，上月才带男方见过家长",
        "url": "https://finance.sina.com.cn/jjxw/2023-12-07/doc-imzxeieu4851195.shtml",
        "docid": "mzxeieu4851195"
    },
    {
        "title": "广汽埃安因湃电池将于12月12日发布 寿命达150万公里",
        "url": "https://finance.sina.com.cn/stock/relnews/hk/2023-12-07/doc-imzxeieu4854929.shtml",
        "docid": "mzxeieu4854929"
    },
    {
        "title": "锂价重挫行业洗牌，锂电产业链价值重塑-36氪",
        "url": "https://finance.sina.com.cn/stock/relnews/us/2023-12-07/doc-imzxcwqy5026142.shtml",
        "docid": "mzxcwqy5026142"
    },
    {
        "title": "广期所“出手”整治！碳酸锂期货大反弹，机构：明年行业或将迎重整",
        "url": "https://cj.sina.cn/articles/view/5115326071/130e5ae7702002151v?from=finance",
        "docid": "mzxeaww4964019"
    },
    {
        "title": "48个国家响应禁止这种每年导致50万人死亡的物质，为什么没有中国？",
        "url": "https://cj.sina.cn/articles/view/6042743516/1682cf2dc001018bhe?from=news",
        "docid": "mzxeiey1650025"
    },
    {
        "title": "刚刚发布通知！明年1月1日起执行……",
        "url": "https://finance.sina.com.cn/wm/2023-12-06/doc-imzwzxyc9466851.shtml",
        "docid": "mzwzxyc9466851"
    },
    {
        "title": "去长安最近的蜀道 诸葛亮北伐为何不走？",
        "url": "https://finance.sina.com.cn/jjxw/2023-12-06/doc-imzwzaup9860428.shtml",
        "docid": "mzwzaup9860428"
    },
    {
        "title": "华为和江淮合作的百万级轿车曝光，对标迈巴赫S级，由江淮生产！",
        "url": "https://finance.sina.com.cn/jjxw/2023-12-06/doc-imzxakpv0315288.shtml",
        "docid": "mzxakpv0315288"
    },
    {
        "title": "中国白酒首富玩转房地产",
        "url": "https://finance.sina.com.cn/china/2023-12-06/doc-imzwzpki9637405.shtml",
        "docid": "mzwzpki9637405"
    },
    {
        "title": "乌前议员在俄被枪杀身亡，乌情报部门承认了！",
        "url": "https://finance.sina.com.cn/jjxw/2023-12-07/doc-imzxeiey1667270.shtml",
        "docid": "mzxeiey1667270"
    },
    {
        "title": "猛涨1000亿，牵手华为后，长安汽车能否破局？",
        "url": "https://cj.sina.cn/articles/view/6241116541/m173ffe17d0330151tu?from=finance",
        "docid": "mzxeaww4956972"
    },
    {
        "title": "彩票中2.2亿广受质疑 知名教育博主用数学论证这有多\"奇葩和冒险\"",
        "url": "https://finance.sina.com.cn/jjxw/2023-12-07/doc-imzxcwra9585015.shtml",
        "docid": "mzxcwra9585015"
    },
    {
        "title": "严为民：是大转折，敢于下手！",
        "url": "https://cj.sina.cn/articles/view/1866390403/6f3edb83027013aap?from=finance",
        "docid": "mzxeieu4864135"
    },
    {
        "title": "“生于深宫之中，长于妇人之手，未尝知劳也,未尝知惧也”",
        "url": "https://finance.sina.com.cn/stock/stockzmt/2023-12-07/doc-imzxeiey1638223.shtml",
        "docid": "mzxeiey1638223"
    },
    {
        "title": "马斯克再度赢麻！投资比特币铭文 Ordi 赚10倍！BRC-20引领新暴富狂潮",
        "url": "https://cj.sina.cn/articles/view/7199591979/1ad210e2b0010183vt?from=finance",
        "docid": "mzwztsf9571992"
    },
    {
        "title": "碧桂园“瘦身”：年内再次启动区域大合并",
        "url": "https://finance.sina.com.cn/jjxw/2023-12-07/doc-imzxepns4766466.shtml",
        "docid": "mzxepns4766466"
    },
    {
        "title": "京东“躺枪”300亿离奇诈骗案 105位投资人喊话诺亚财富兑付本息",
        "url": "https://finance.sina.com.cn/tech/roll/2023-12-06/doc-imzxavcs2346091.shtml",
        "docid": "mzxavcs2346091"
    },
    {
        "title": "极氪 007 将首发搭载首款自研电池，此前官宣 12 月 14 日举行能源日",
        "url": "https://t.cj.sina.cn/articles/view/1826017320/6cd6d028040019sne?from=auto&subch=oauto",
        "docid": "mzxeiew9410921"
    },
    {
        "title": "中公高科连收4个涨停板",
        "url": "https://finance.sina.com.cn/jjxw/2023-12-06/doc-imzwztsc0615511.shtml",
        "docid": "mzwztsc0615511"
    },
    {
        "title": "注意！A股大反攻，但调整未必结束",
        "url": "https://cj.sina.cn/articles/view/7669966052/1c92a64e4001014hac?from=finance&subch=astocks",
        "docid": "mzxakpw2508321"
    },
    {
        "title": "全球首座第四代核电站投入商业运行",
        "url": "https://finance.sina.com.cn/jjxw/2023-12-06/doc-imzxakps5788899.shtml",
        "docid": "mzxakps5788899"
    },
    {
        "title": "特斯拉Cybertruck可能永远不会在欧洲推出 原因揭秘",
        "url": "https://finance.sina.com.cn/tech/mobile/n/n/2023-12-07/doc-imzxakpw2502150.shtml",
        "docid": "mzxakpw2502150"
    },
    {
        "title": "“A字杀”来了！高位股抱团掀炸板潮，多股惊演“天地板”，东安动力止步10连板！",
        "url": "https://cj.sina.cn/articles/view/5115326071/130e5ae770200214hk?from=finance",
        "docid": "mzxakpx9310885"
    },
    {
        "title": "官宣了，蔚来汽车31.58亿接手江淮汽车两工厂",
        "url": "https://cj.sina.cn/articles/view/2054568117/7a7638b5001010n0e?from=finance",
        "docid": "mzxakpx9316465"
    },
    {
        "title": "刚刚，蒙牛宣布大消息！",
        "url": "https://finance.sina.com.cn/wm/2023-12-06/doc-imzxakps5757047.shtml",
        "docid": "mzxakps5757047"
    },
    {
        "title": "终于知道手机为什么涨价，换机潮真的要来了！",
        "url": "https://t.cj.sina.cn/articles/view/1863275165/6f0f529d01900z9oz?from=tech",
        "docid": "mzxepnw1569085"
    },
    {
        "title": "“流感神药”又火了！一片9毛9，有药店却卖上百？背后企业半年赚10亿",
        "url": "https://cj.sina.cn/articles/view/6380817686/17c538d16001016xgs?from=finance",
        "docid": "mzxakpx9296602"
    },
    {
        "title": "原副行长被查后，李晓虹主动投案……",
        "url": "https://finance.sina.com.cn/jjxw/2023-12-07/doc-imzxepnu9312385.shtml",
        "docid": "mzxepnu9312385"
    },
    {
        "title": "女贪官退休当月就落马！退休后就被查的贪官还有他们",
        "url": "https://finance.sina.com.cn/jjxw/2023-12-07/doc-imzxeieu4845797.shtml",
        "docid": "mzxeieu4845797"
    },
    {
        "title": "建行突发！李晓虹被查",
        "url": "https://finance.sina.com.cn/trust/roll/2023-12-07/doc-imzxepns4750167.shtml",
        "docid": "mzxepns4750167"
    },
    {
        "title": "乌克兰说了个数，拜登直接吓得再不敢说话！",
        "url": "https://finance.sina.com.cn/wm/2023-12-06/doc-imzwzauh6370607.shtml",
        "docid": "mzwzauh6370607"
    },
    {
        "title": "李彦宏，急了",
        "url": "https://finance.sina.com.cn/cj/2023-12-07/doc-imzxcwre1821209.shtml",
        "docid": "mzxcwre1821209"
    },
    {
        "title": "经济学家高善文谈房地产被刷屏了，楼市是否见底，要看两大信号",
        "url": "https://finance.sina.com.cn/wm/2023-12-07/doc-imzxepnx8350092.shtml",
        "docid": "mzxepnx8350092"
    },
    {
        "title": "民生银行首席经济学家温彬：明年大概率上半年和下半年各有一次降准，降息1-2次",
        "url": "https://finance.sina.com.cn/jjxw/2023-12-06/doc-imzxaqvq5698441.shtml",
        "docid": "mzxaqvq5698441"
    },
    {
        "title": "融资42亿市值仅剩9亿，创新的代价",
        "url": "https://cj.sina.cn/articles/view/6899792906/19b427c0a019015c1t?from=finance",
        "docid": "mzwymwu3399350"
    },
    {
        "title": "市场随时有望强力拉回三千点",
        "url": "https://cj.sina.cn/articles/view/1053985634/3ed28b6202701dday?from=finance",
        "docid": "mzxepns4770910"
    },
    {
        "title": "曝苹果已选定京东方作为供应商，iPhone 14沦为百元机改写爱疯史",
        "url": "https://t.cj.sina.cn/articles/view/7851055766/1d3f59a96001015zv5?from=digit",
        "docid": "mzxazmr9023108"
    },
    {
        "title": "卖出一些北证50",
        "url": "https://finance.sina.com.cn/money/fund/jjzl/2023-12-07/doc-imzxepns4760850.shtml",
        "docid": "mzxepns4760850"
    },
    {
        "title": "西藏矿业：公司目前的产品是碳酸锂精矿不是电池级碳酸锂，也未参加碳酸锂的套期保值业务",
        "url": "https://cj.sina.cn/articles/view/1850649324/6e4eaaec02001anhi?from=finance",
        "docid": "mzxeiez8441871"
    },
    {
        "title": "每天杀个医药龙头祭天？微创医疗暴跌25%",
        "url": "https://finance.sina.com.cn/stock/roll/2023-12-06/doc-imzxavcn5594280.shtml",
        "docid": "mzxavcn5594280"
    },
    {
        "title": "摩恩电气连收3个涨停板",
        "url": "https://finance.sina.com.cn/jjxw/2023-12-07/doc-imzxeawy9480834.shtml",
        "docid": "mzxeawy9480834"
    },
    {
        "title": "阿里大手笔分红179亿元，但资本市场并不买账",
        "url": "https://finance.sina.com.cn/jjxw/2023-12-07/doc-imzxeiey1663642.shtml",
        "docid": "mzxeiey1663642"
    },
    {
        "title": "比亚迪回购2亿元股份，大V：账上5-6百亿现金，拿这点钱来搞笑？",
        "url": "https://cj.sina.cn/articles/view/5953189932/162d6782c02001z6rk?from=finance",
        "docid": "mzxeiey1649223"
    },
    {
        "title": "人形机器人 能走还能跳 首款基于开源鸿蒙系统的专业人型机器人在深发布",
        "url": "https://finance.sina.com.cn/jjxw/2023-12-07/doc-imzxcwqy5033523.shtml",
        "docid": "mzxcwqy5033523"
    },
    {
        "title": "中央批准，两副部级老虎同日被处理",
        "url": "https://cj.sina.cn/articles/view/5823040284/15b148b1c01900z006?from=finance",
        "docid": "mzxetuv8231721"
    },
    {
        "title": "我国首艘核动力集装箱船发布",
        "url": "https://cj.sina.cn/articles/view/7517400647/1c0126e4705904mnde?from=finance",
        "docid": "mzwziam9762508"
    },
    {
        "title": "曲敏被双开",
        "url": "https://cj.sina.cn/articles/view/2137950223/7f6e880f019019h7j?from=finance",
        "docid": "mzxepns4768586"
    },
    {
        "title": "王万洪任上被查！系2400亿资产国企党委副书记……",
        "url": "https://finance.sina.com.cn/jjxw/2023-12-07/doc-imzxepnw1571101.shtml",
        "docid": "mzxepnw1571101"
    },
    {
        "title": "黄金价格突破2000美元关口！报告：仅有29%高净值人群投资黄金【附黄金行业消费需求分析】",
        "url": "https://finance.sina.com.cn/roll/2023-12-07/doc-imzxepnx8328877.shtml",
        "docid": "mzxepnx8328877"
    },
    {
        "title": "华为问界M9尾灯可自定义文字图案问界M9尾灯可显示囍字秒变婚车",
        "url": "https://t.cj.sina.cn/articles/view/1642634100/61e89b7404001dch4?from=auto&subch=oauto",
        "docid": "mzxeiew9428576"
    },
    {
        "title": "G7发声明敦促中国施压俄罗斯之际，美国国会否决援乌法案",
        "url": "https://finance.sina.com.cn/jjxw/2023-12-07/doc-imzxetus9209723.shtml",
        "docid": "mzxetus9209723"
    },
    {
        "title": "燃油车和电车直线比拼加速已经不能看了……",
        "url": "https://t.cj.sina.cn/articles/view/2347429293/m8beaedad03301bni1?from=tech",
        "docid": "mzxcwqy5038791"
    },
    {
        "title": "店主称2.2亿彩票中奖者常买几百元 当日扫码支付98500元",
        "url": "https://cj.sina.cn/articles/view/1642088277/61e0475504001fur7?from=sports&subch=osport",
        "docid": "mzxeawy9484119"
    },
    {
        "title": "车主称差点被Model Y座椅“单杀” 特斯拉回应：脚垫压坏了线束",
        "url": "https://finance.sina.com.cn/tech/discovery/2023-12-07/doc-imzxepns4755743.shtml",
        "docid": "mzxepns4755743"
    },
    {
        "title": "外媒：美军舰在红海击落无人机，沙特伊朗呼吁美方保持克制",
        "url": "https://finance.sina.com.cn/jjxw/2023-12-07/doc-imzxepns4770106.shtml",
        "docid": "mzxepns4770106"
    },
    {
        "title": "好消息！非京籍无房家庭有福了",
        "url": "https://finance.sina.com.cn/china/2023-12-07/doc-imzxepns4762638.shtml",
        "docid": "mzxepns4762638"
    },
    {
        "title": "3000点收复战或再迎来“政策底”！",
        "url": "https://cj.sina.cn/articles/view/2619203540/9c1ddfd4027014fmg?from=finance",
        "docid": "mzxeaww4968035"
    },
    {
        "title": "如果你想炒股养家，长期稳定，牢记八大纪律……",
        "url": "https://cj.sina.cn/articles/view/3909383956/me9047714033011wx0?from=finance",
        "docid": "mzxeieu4860154"
    },
    {
        "title": "此刻，林园求人加仓，李蓓总又在买雪球？",
        "url": "https://cj.sina.cn/articles/view/7863798366/1d4b80a5e0010185si?from=finance&subch=astocks",
        "docid": "mzxeiey1672564"
    },
    {
        "title": "51股获北向资金加仓超5000万元",
        "url": "https://finance.sina.com.cn/jjxw/2023-12-07/doc-imzxcwqy5046588.shtml",
        "docid": "mzxcwqy5046588"
    },
    {
        "title": "俄罗斯总统选举，时间定了！普京曾称：总统选举日期确定时，再宣布是否参选……",
        "url": "https://finance.sina.com.cn/jjxw/2023-12-07/doc-imzxepnu9330041.shtml",
        "docid": "mzxepnu9330041"
    },
    {
        "title": "余军：我和林园当年为什么要砸锅卖铁买股票",
        "url": "https://cj.sina.cn/articles/view/2183570524/8226a45c02701alpu?from=finance",
        "docid": "mzxepns4761573"
    },
    {
        "title": "龙版传媒连收5个涨停板",
        "url": "https://finance.sina.com.cn/jjxw/2023-12-07/doc-imzxeaww4928023.shtml",
        "docid": "mzxeaww4928023"
    },
    {
        "title": "罕见信号！最强主力大动作！",
        "url": "https://finance.sina.com.cn/wm/2023-12-07/doc-imzxepns4762295.shtml",
        "docid": "mzxepns4762295"
    },
    {
        "title": "突发利好！人民币爆拉超200点，A股深V，中国11月出口同比转正",
        "url": "https://cj.sina.cn/articles/view/5930172409/161773ff900101a2h5?from=finance&subch=astocks",
        "docid": "mzxetuv8242927"
    },
    {
        "title": "惊呆！一老人手机里竟然安装了10多种诈骗软件！",
        "url": "https://finance.sina.com.cn/wm/2023-12-07/doc-imzxepnx8321671.shtml",
        "docid": "mzxepnx8321671"
    },
    {
        "title": "李金柱被开除党籍",
        "url": "https://finance.sina.com.cn/wm/2023-12-07/doc-imzxepns4768585.shtml",
        "docid": "mzxepns4768585"
    },
    {
        "title": "巨无霸，出发！全面回归中国市场！",
        "url": "https://finance.sina.com.cn/jjxw/2023-12-06/doc-imzwztsc0587600.shtml",
        "docid": "mzwztsc0587600"
    },
    {
        "title": "27岁华裔女性在美国旧金山家中死亡，警方以“家庭暴力凶杀案”展开调查",
        "url": "https://finance.sina.com.cn/tech/roll/2023-12-07/doc-imzxetuq4660732.shtml",
        "docid": "mzxetuq4660732"
    },
    {
        "title": "知名财经作家叶檀在微博宣布癌症病情好转",
        "url": "https://finance.sina.com.cn/jjxw/2023-12-07/doc-imzxepns4755990.shtml",
        "docid": "mzxepns4755990"
    },
    {
        "title": "AITO 问界新 M7 上市 84 天交付 30635 辆新车",
        "url": "https://t.cj.sina.cn/articles/view/1826017320/6cd6d028020019shn?from=tech",
        "docid": "mzxavcn5573295"
    },
    {
        "title": "A股再创新低,生死攸关之际,我们还能做点什么？",
        "url": "https://cj.sina.cn/articles/view/7669966052/1c92a64e4001014hn8?from=finance&subch=astocks",
        "docid": "mzxetuv8248726"
    },
    {
        "title": "白酒行业，杀出一匹黑马！",
        "url": "https://finance.sina.com.cn/stock/stockzmt/2023-12-07/doc-imzxetuv8237927.shtml",
        "docid": "mzxetuv8237927"
    },
    {
        "title": "华为汽车概念股午后活跃，赛力斯冲击涨停",
        "url": "https://cj.sina.cn/articles/view/5182171545/m134e1a99902001o65u?from=finance",
        "docid": "mzxeiez8444158"
    },
    {
        "title": "11月楼市观察 | 新房市场整体“退热” ，11月多城二手房成交最创新高",
        "url": "https://finance.sina.com.cn/jjxw/2023-12-07/doc-imzxetux1793051.shtml",
        "docid": "mzxetux1793051"
    },
    {
        "title": "李晓虹，主动投案！金融领域密集反腐，多家大行干部被查",
        "url": "https://finance.sina.com.cn/china/2023-12-07/doc-imzxetuv8266585.shtml",
        "docid": "mzxetuv8266585"
    },
    {
        "title": "昂立教育连收4个涨停板",
        "url": "https://finance.sina.com.cn/jjxw/2023-12-06/doc-imzxaefz9381763.shtml",
        "docid": "mzxaefz9381763"
    },
    {
        "title": "朱海斌：中国股票市场以融资性功能为主，投资性功能比较差",
        "url": "https://finance.sina.com.cn/hy/hyjz/2023-12-07/doc-imzxepnx8339096.shtml",
        "docid": "mzxepnx8339096"
    },
    {
        "title": "陈欣：“快乐8”福利彩票2亿元巨奖的背后",
        "url": "http://finance.sina.com.cn/zl/china/2023-12-07/zl-imzxeaww4948928.shtml",
        "docid": "mzxeaww4948928"
    },
    {
        "title": "中国科学院院士欧阳明高：以绿电制氢为源头推动，氢燃料电池汽车有望进一步降本",
        "url": "https://finance.sina.com.cn/tech/roll/2023-12-07/doc-imzxcwqy5040641.shtml",
        "docid": "mzxcwqy5040641"
    },
    {
        "title": "数据要素板块走高 新华网涨停",
        "url": "https://cj.sina.cn/articles/view/5115326071/130e5ae7702002154d?from=finance",
        "docid": "mzxeieu4871387"
    },
    {
        "title": "阿牛智投：变盘特征开始出现了，周五看涨！",
        "url": "https://cj.sina.cn/articles/view/7343580196/1b5b62424001016sue?from=finance&subch=astocks",
        "docid": "mzxepnx8349522"
    },
    {
        "title": "车主曝蔚来ES6激光雷达漏风：iPhone 15镜头也搭进去了",
        "url": "https://finance.sina.com.cn/tech/mobile/n/n/2023-12-07/doc-imzxakps5758034.shtml",
        "docid": "mzxakps5758034"
    },
    {
        "title": "阳光电源(300274.SZ)：拟将“全球营销服务体系建设项目”结项 并将节余募资永久补充流动资金",
        "url": "https://finance.sina.com.cn/stock/hkstock/ggscyd/2023-12-06/doc-imzxavcn5581465.shtml",
        "docid": "mzxavcn5581465"
    },
    {
        "title": "标价7800元的国产羽绒服只卖出3件？网友：不穿一次冲锋衣，永远不知道自己可以多帅",
        "url": "https://finance.sina.com.cn/jjxw/2023-12-07/doc-imzxetus9221270.shtml",
        "docid": "mzxetus9221270"
    },
    {
        "title": "台媒发现：横店变“竖店”了？",
        "url": "https://finance.sina.com.cn/jjxw/2023-12-07/doc-imzxcwra9596581.shtml",
        "docid": "mzxcwra9596581"
    },
    {
        "title": "中国，为什么终究可以超越美国",
        "url": "https://finance.sina.com.cn/cj/2023-12-07/doc-imzxetuu1480745.shtml",
        "docid": "mzxetuu1480745"
    },
    {
        "title": "白酒“二哥”五粮液，缘何稳居销售费用“王座”？",
        "url": "https://cj.sina.cn/articles/view/1211831755/483b15cb01901a7n3?from=finance",
        "docid": "mzxetuq4658413"
    },
    {
        "title": "离谱！父亲骨灰被弄丢，殡仪馆说给盒新的...",
        "url": "https://finance.sina.com.cn/jjxw/2023-12-07/doc-imzxetus9229509.shtml",
        "docid": "mzxetus9229509"
    },
    {
        "title": "“中国芯”，南京造！",
        "url": "https://finance.sina.com.cn/jjxw/2023-12-06/doc-imzwzpka6153929.shtml",
        "docid": "mzwzpka6153929"
    },
    {
        "title": "【评论】“10万买彩票中2.2亿”引质疑，难产的彩票立法该提速了",
        "url": "https://finance.sina.com.cn/jjxw/2023-12-07/doc-imzxetus9242712.shtml",
        "docid": "mzxetus9242712"
    },
    {
        "title": "被董明珠视为“不合规”！孟羽童清华演讲称准备重生，格力直播成绩仅395.4万【附中国电商直播发展趋势预测】",
        "url": "https://finance.sina.com.cn/stock/relnews/cn/2023-12-06/doc-imzwztry6065617.shtml",
        "docid": "mzwztry6065617"
    },
    {
        "title": "智界S7预订突破20000台，纯电轿车市场再现硬核“颠覆者”",
        "url": "https://finance.sina.com.cn/jjxw/2023-12-07/doc-imzxepnw1581104.shtml",
        "docid": "mzxepnw1581104"
    },
    {
        "title": "股价又“惨遭”腰斩：昔日28倍大牛股怎么了？",
        "url": "https://finance.sina.com.cn/roll/2023-12-07/doc-imzxetus9225817.shtml",
        "docid": "mzxetus9225817"
    },
    {
        "title": "12月7日精伦电子涨停分析：电子身份证，工业互联网，物联网概念热股",
        "url": "https://cj.sina.cn/articles/view/1850649324/6e4eaaec02001anj3?from=finance",
        "docid": "mzxepnx8351744"
    },
    {
        "title": "汽车版|华为“垄断”新能源汽车市场冷思考",
        "url": "https://t.cj.sina.cn/articles/view/2054568117/7a7638b5001010n5u?from=auto",
        "docid": "mzxetuv8247125"
    },
    {
        "title": "古特雷斯罕见援引联合国宪章第99条，以方再次要求他辞职",
        "url": "https://finance.sina.com.cn/jjxw/2023-12-07/doc-imzxetuv8268073.shtml",
        "docid": "mzxetuv8268073"
    },
    {
        "title": "云评论 | 1天400倍的碳酸锂期权你有没有见过？",
        "url": "https://finance.sina.com.cn/money/future/wemedia/2023-12-07/doc-imzxetuu1487008.shtml",
        "docid": "mzxetuu1487008"
    },
    {
        "title": "关键时刻！“国家队”再次出手！大基金最新现身这2只标的……",
        "url": "https://finance.sina.com.cn/stock/marketresearch/2023-12-07/doc-imzxeyas1365237.shtml",
        "docid": "mzxeyas1365237"
    },
    {
        "title": "万达电影不再“姓王”？ 接盘人是他",
        "url": "https://finance.sina.com.cn/wm/2023-12-07/doc-imzxeiew9425988.shtml",
        "docid": "mzxeiew9425988"
    },
    {
        "title": "北向资金今日净买入3.73亿元，联影医疗净卖出额居首",
        "url": "https://cj.sina.cn/articles/view/5182171545/m134e1a99902001o6fw?from=finance",
        "docid": "mzxetus9229832"
    },
    {
        "title": "宁王领衔冲锋，还有20CM涨停！锂电为何忽然爆发？",
        "url": "https://cj.sina.cn/articles/view/2129742420/7ef14a54001011ybk?from=finance",
        "docid": "mzxaqvu2418757"
    },
    {
        "title": "国光电器：华为是公司的客户之一，双方在声学产品上有较多合作",
        "url": "https://t.cj.sina.cn/articles/view/5182171545/m134e1a99902001o65e?from=digit",
        "docid": "mzxeieu4862008"
    },
    {
        "title": "市场抗跌显现 十字星是何信号？",
        "url": "https://finance.sina.com.cn/wm/2023-12-07/doc-imzxetus9243315.shtml",
        "docid": "mzxetus9243315"
    },
    {
        "title": "曾经机子都要靠抢，如今纷纷关闭！正在消失的证券营业部，一个时代的落幕……",
        "url": "https://finance.sina.com.cn/jjxw/2023-12-07/doc-imzxeyaq9129671.shtml",
        "docid": "mzxeyaq9129671"
    },
    {
        "title": "10片卫生巾卖3块9，这家德国连锁成了多少沪漂的“穷鬼乐园”？",
        "url": "https://finance.sina.com.cn/cj/2023-12-07/doc-imzxepns4749874.shtml",
        "docid": "mzxepns4749874"
    },
    {
        "title": "阿联酋宣布，捐款300亿美元",
        "url": "https://finance.sina.com.cn/jjxw/2023-12-07/doc-imzxcsih1933875.shtml",
        "docid": "mzxcsih1933875"
    },
    {
        "title": "攻破四面佛，果敢同盟军弱点开始暴露！",
        "url": "https://cj.sina.cn/articles/view/6591738207/188e5f15f00101a9n8?from=mil",
        "docid": "mzxetuu1472868"
    },
    {
        "title": "欧佩克+减产 ，美国偷偷吃饱？",
        "url": "https://finance.sina.com.cn/roll/2023-12-07/doc-imzxetux1783562.shtml",
        "docid": "mzxetux1783562"
    },
    {
        "title": "深圳“0.5成首付”刷屏！三成首付，开发商白送两成半？最新回应来了……",
        "url": "https://finance.sina.com.cn/wm/2023-12-07/doc-imzxfekr8045870.shtml",
        "docid": "mzxfekr8045870"
    },
    {
        "title": "历次底部，A股是怎么走出来的？",
        "url": "https://finance.sina.com.cn/wm/2023-12-07/doc-imzxeyaq9123240.shtml",
        "docid": "mzxeyaq9123240"
    },
    {
        "title": "金价回落百美元！华尔街预言家：黄金牛市才刚开始，任何低于2000美元都是买入机会【附黄金市场需求情况】",
        "url": "https://finance.sina.com.cn/roll/2023-12-07/doc-imzxetux1791312.shtml",
        "docid": "mzxetux1791312"
    },
    {
        "title": "经纬张颖：现在已经不是曾经遍地黄金的时候了",
        "url": "https://finance.sina.com.cn/wm/2023-12-07/doc-imzxcwrf8604312.shtml",
        "docid": "mzxcwrf8604312"
    },
    {
        "title": "周世平被判无期！非法吸收公众存款1090亿！他曾被称为“网贷教父”，高中毕业，靠股市发家",
        "url": "https://finance.sina.com.cn/stock/marketresearch/2023-12-07/doc-imzxeiez8438312.shtml",
        "docid": "mzxeiez8438312"
    },
    {
        "title": "炒股稳赚不赔的方法~~~洗脑了！",
        "url": "https://cj.sina.cn/articles/view/1163390501/m4557ee25033017ibe?from=finance",
        "docid": "mzxavcr0149631"
    },
    {
        "title": "长电科技(600584.SH)：公司推出的XDFOI高性能封装技术平台可以支持HBM的封装要求",
        "url": "https://finance.sina.com.cn/stock/hkstock/ggscyd/2023-12-07/doc-imzxeaxc8539860.shtml",
        "docid": "mzxeaxc8539860"
    },
    {
        "title": "市场底部或探明 后期确认存反复！",
        "url": "https://cj.sina.cn/articles/view/2619203540/9c1ddfd4027014foc?from=finance",
        "docid": "mzxepnu9334005"
    },
    {
        "title": "恒指再创今年新低",
        "url": "https://cj.sina.cn/articles/view/5115326071/130e5ae770200214zp?from=finance",
        "docid": "mzxeawy9491769"
    },
    {
        "title": "普京“闪电式”访问阿联酋与沙特后又会见伊朗总统，释放何种信号？",
        "url": "https://finance.sina.com.cn/jjxw/2023-12-07/doc-imzxeyaq9124632.shtml",
        "docid": "mzxeyaq9124632"
    },
    {
        "title": "龙虎榜 | 银宝山新今日跌停，“拉萨天团”占7席",
        "url": "https://finance.sina.com.cn/jjxw/2023-12-07/doc-imzxetus9218199.shtml",
        "docid": "mzxetus9218199"
    },
    {
        "title": "12月7日日海智能涨停分析：光通信，边缘计算，云计算数据中心概念热股",
        "url": "https://cj.sina.cn/articles/view/1850649324/6e4eaaec02001anj1?from=finance",
        "docid": "mzxepnw1574526"
    },
    {
        "title": "百亿企业董事长被刑拘！股民被坑惨了",
        "url": "https://cj.sina.cn/articles/view/6501348196/18382b364001013rky?from=finance&subch=astocks",
        "docid": "mzxeaxa1720974"
    },
    {
        "title": "龙虎榜丨盈方微涨停 上榜席位净买入9606.17万元",
        "url": "https://cj.sina.cn/articles/view/5115326071/130e5ae770200215cx?from=finance",
        "docid": "mzxetux1780929"
    },
    {
        "title": "利好丨12月7日晚间上市公司利好公告一览",
        "url": "https://finance.sina.com.cn/wm/2023-12-07/doc-imzxeyat8152056.shtml",
        "docid": "mzxeyat8152056"
    },
    {
        "title": "义乌发文倡议居民存粮10天以上，引发关注！为啥存10天以上？",
        "url": "https://finance.sina.com.cn/money/future/wemedia/2023-12-07/doc-imzxeyav1676142.shtml",
        "docid": "mzxeyav1676142"
    },
    {
        "title": "国家发改委重磅发声，回应经济热点！",
        "url": "https://finance.sina.com.cn/wm/2023-12-07/doc-imzxetuu1458965.shtml",
        "docid": "mzxetuu1458965"
    },
    {
        "title": "这家日资机构点赞中国监管：周末加班加点协助审批，卷的日本总部也得加班，打破百年纪录",
        "url": "https://finance.sina.com.cn/hy/hyjz/2023-12-07/doc-imzxetus9220396.shtml",
        "docid": "mzxetus9220396"
    },
    {
        "title": "又一家保险公司倒下！全国第三大保险公司也没了，你买的保险还保得住吗？",
        "url": "https://cj.sina.cn/articles/view/5673400005/1522936c5019018rwq?from=finance",
        "docid": "mzxetus9241917"
    },
    {
        "title": "税局提醒：2023年12月31日前，这项费用必须完成补缴，否则罚款！",
        "url": "https://cj.sina.cn/articles/view/5617175604/14ecf4c3401902kgjw?from=news&subch=onews",
        "docid": "mzxetus9228349"
    },
    {
        "title": "“车震丑闻”背后的江苏银行：营收净利双增，个贷不良承压",
        "url": "https://cj.sina.cn/articles/view/6941699774/19dc1eebe019013ia1?from=finance",
        "docid": "mzxeawy9500285"
    },
    {
        "title": "大洗牌！超越上海，深圳第一了！",
        "url": "https://cj.sina.cn/articles/view/6162941440/16f5706000190180zc?from=finance",
        "docid": "mzxeyaq9115168"
    },
    {
        "title": "私募大佬葛卫东：港股太难了 颠覆投资经验",
        "url": "https://finance.sina.com.cn/jjxw/2023-12-07/doc-imzxeyaq9144282.shtml",
        "docid": "mzxeyaq9144282"
    },
    {
        "title": "中国如何突破算力“卡脖子”",
        "url": "https://finance.sina.com.cn/china/2023-12-07/doc-imzxeyav1673162.shtml",
        "docid": "mzxeyav1673162"
    },
    {
        "title": "一个救市开胃菜，会收复3000",
        "url": "https://cj.sina.cn/articles/view/1284139322/4c8a693a027017m1i?from=finance",
        "docid": "mzxeyaq9137432"
    },
    {
        "title": "股东、高管频频增持！上市银行估值修复可期",
        "url": "https://finance.sina.com.cn/wm/2023-12-07/doc-imzxeiew9405435.shtml",
        "docid": "mzxeiew9405435"
    },
    {
        "title": "黄仁勋谈华为竞争：英伟达面对激烈挑战，新加坡或迎大投资",
        "url": "https://t.cj.sina.cn/articles/view/7724709139/1cc6db5130010133nf?from=tech&subch=otech",
        "docid": "mzxakpw2504726"
    },
    {
        "title": "格灵深瞳12月7日现1笔大宗交易 成交金额300.3万元",
        "url": "https://finance.sina.com.cn/stock/ggzz/2023-12-07/doc-imzxetux1791215.shtml",
        "docid": "mzxetux1791215"
    },
    {
        "title": "国家发改委能源研究所钟财富：光伏现阶段出现产能过剩，但从远期来看还是有比较大增长空间【中国光伏行业产量规模分析】",
        "url": "https://finance.sina.com.cn/roll/2023-12-07/doc-imzxeyaq9126891.shtml",
        "docid": "mzxeyaq9126891"
    },
    {
        "title": "道达投资手记：何时可以抄底？ 重点关注前低2923点",
        "url": "https://finance.sina.com.cn/stock/jsy/2023-12-07/doc-imzxcsih1931086.shtml",
        "docid": "mzxcsih1931086"
    },
    {
        "title": "燃爆A股！马斯克点赞",
        "url": "https://finance.sina.com.cn/jjxw/2023-12-07/doc-imzxetuv8239484.shtml",
        "docid": "mzxetuv8239484"
    },
    {
        "title": "【明日主题前瞻】华为鸿蒙生态迎重大突破，又一巨头宣布启动鸿蒙原生应用开发",
        "url": "https://finance.sina.com.cn/jjxw/2023-12-07/doc-imzxeyav1695709.shtml",
        "docid": "mzxeyav1695709"
    },
    {
        "title": "对标英伟达！芯片巨头加快布局AI算力",
        "url": "https://finance.sina.com.cn/jjxw/2023-12-07/doc-imzxcwqy5023280.shtml",
        "docid": "mzxcwqy5023280"
    },
    {
        "title": "2024年AI领域五大趋势",
        "url": "https://finance.sina.com.cn/money/smjj/smdt/2023-12-07/doc-imzxeyaq9120907.shtml",
        "docid": "mzxeyaq9120907"
    },
    {
        "title": "仁和药业：拟8000万元-1.5亿元回购公司股份，回购价格不超8元/股",
        "url": "https://finance.sina.com.cn/jjxw/2023-12-07/doc-imzxetuv8236547.shtml",
        "docid": "mzxetuv8236547"
    },
    {
        "title": "刚刚，国务院印发！这个一线城市，迎重大利好",
        "url": "https://cj.sina.cn/articles/view/1651428902/626ece260190162er?from=finance",
        "docid": "mzxeyaq9123421"
    },
    {
        "title": "发布仅2个月变相降价，16GB+1TB+骁龙8Gen2，折叠屏机皇价格良心",
        "url": "https://t.cj.sina.cn/articles/view/5048846089/12cef470900101amrw?from=digit",
        "docid": "mzwzxya2720312"
    },
    {
        "title": "一大早，就有热心人订购了2000块钱的烤红薯",
        "url": "https://finance.sina.com.cn/jjxw/2023-12-07/doc-imzxepnw1556319.shtml",
        "docid": "mzxepnw1556319"
    },
    {
        "title": "空姐，开始涌入汽车行业……",
        "url": "https://cj.sina.cn/articles/view/2949462582/afcd3a3600101jfw4",
        "docid": "mzxazmr9009529"
    },
    {
        "title": "北京公布10起电动车火灾案例！这些着火品牌您家有吗？",
        "url": "https://finance.sina.com.cn/jjxw/2023-12-07/doc-imzxepnu9314500.shtml",
        "docid": "mzxepnu9314500"
    },
    {
        "title": "新华社：外资持续看好中国债市意味着什么？",
        "url": "https://finance.sina.com.cn/jjxw/2023-12-07/doc-imzxetuu1489230.shtml",
        "docid": "mzxetuu1489230"
    },
    {
        "title": "羊肉里出现牛毛？一女子在火锅店吃出不明毛发，呷哺呷哺回应",
        "url": "https://finance.sina.com.cn/wm/2023-12-06/doc-imzwzpkf0716245.shtml",
        "docid": "mzwzpkf0716245"
    },
    {
        "title": "东莞十多名员工站楼顶要跳楼？疑因公司搬迁赔偿不到位",
        "url": "https://finance.sina.com.cn/jjxw/2023-12-06/doc-imzxaefu5874099.shtml",
        "docid": "mzxaefu5874099"
    },
    {
        "title": "若有人在纽约中央公园盯着跑鞋看 他可能是摩根士丹利分析师",
        "url": "https://finance.sina.com.cn/stock/usstock/c/2023-12-07/doc-imzxcwrf8619950.shtml",
        "docid": "mzxcwrf8619950"
    },
    {
        "title": "模板：给员工发的2024年度个税专项附加扣除信息确认的重要通知（较全）",
        "url": "https://finance.sina.com.cn/stock/zqgd/2023-12-06/doc-imzwzpkf0698867.shtml",
        "docid": "mzwzpkf0698867"
    }
]