[
    {
        "title": "唯有A股，不相信利好",
        "url": "https://finance.sina.com.cn/wm/2023-11-30/doc-imzwmafs9702568.shtml",
        "docid": "mzwmafs9702568"
    },
    {
        "title": "关于调整碳酸锂期货部分合约交易手续费标准的通知",
        "url": "https://finance.sina.com.cn/money/future/wemedia/2023-11-30/doc-imzwmafu1589549.shtml",
        "docid": "mzwmafu1589549"
    },
    {
        "title": "董事长失联，创始人被“中植系”踢出局，美吉姆还有救吗？",
        "url": "https://finance.sina.com.cn/stock/s/2023-11-30/doc-imzwmafv8333392.shtml",
        "docid": "mzwmafv8333392"
    },
    {
        "title": "海底捞又一“变态”服务曝光：对不起，这次我真的笑不出来！",
        "url": "https://finance.sina.com.cn/wm/2023-11-30/doc-imzwmhpq9594944.shtml",
        "docid": "mzwmhpq9594944"
    },
    {
        "title": "恒大物业状告恒大追偿20亿 物企为何频现“儿子告老子”？",
        "url": "https://finance.sina.com.cn/jjxw/2023-11-30/doc-imzwkvxu9771872.shtml",
        "docid": "mzwkvxu9771872"
    },
    {
        "title": "OPEC+针对石油减产的磋商迟迟未达成协议",
        "url": "https://finance.sina.com.cn/stock/usstock/c/2023-11-30/doc-imzwiyua5577408.shtml",
        "docid": "mzwiyua5577408"
    },
    {
        "title": "华为给AITO问界M9准车主每人送了一本华为文化的书……",
        "url": "https://t.cj.sina.cn/articles/view/2863918220/aab3ec8c04001e6ge?from=digit",
        "docid": "mzwmafs9685545"
    },
    {
        "title": "缅北激战正酣，解放军实战演训避免战火波及，美西方却又说外行话",
        "url": "https://finance.sina.com.cn/wm/2023-11-29/doc-imzwhaav5712626.shtml",
        "docid": "mzwhaav5712626"
    },
    {
        "title": "财政部：前10月国有企业利润总额38326.4亿元，同比增长7.1%",
        "url": "https://finance.sina.com.cn/roll/2023-11-30/doc-imzwkrru5322513.shtml",
        "docid": "mzwkrru5322513"
    },
    {
        "title": "复星医药被剔出上证50！控股股东7次质押股权还债、市值蒸发200亿",
        "url": "https://cj.sina.cn/articles/view/6380817686/17c538d16001016wdt?from=finance&subch=astocks",
        "docid": "mzwkvxx8447924"
    },
    {
        "title": "华为向Wi-Fi 7时代开出“第一枪” 将给路由器市场带来怎样的连锁效应？",
        "url": "https://finance.sina.com.cn/jjxw/2023-11-30/doc-imzwmafq5145533.shtml",
        "docid": "mzwmafq5145533"
    },
    {
        "title": "查理·芒格生前一席话遭曝光 巴菲特入股美的集团并非捕风捉影",
        "url": "https://cj.sina.cn/articles/view/1393119915/530952ab001010xzx?from=finance&subch=astocks",
        "docid": "mzwmhps1473530"
    },
    {
        "title": "欧盟强调对华不脱钩但要去风险，外交部回应",
        "url": "https://finance.sina.com.cn/jjxw/2023-11-30/doc-imzwkrrw9876390.shtml",
        "docid": "mzwkrrw9876390"
    },
    {
        "title": "楚江新材：公司正与国内汽车主机厂合作进行碳陶刹车盘的研发试制，产品处于台架试验阶段",
        "url": "https://cj.sina.cn/articles/view/1850649324/6e4eaaec02001ajhu?from=finance",
        "docid": "mzwmafu1564524"
    },
    {
        "title": "天齐锂业股价一年缩水超65%，手握80亿现金却不回购",
        "url": "https://cj.sina.cn/articles/view/2382970177/8e093d4102001arq6?from=finance",
        "docid": "mzwkvxu9783145"
    },
    {
        "title": "两家银行决定合并！",
        "url": "https://cj.sina.cn/articles/view/3127391327/ba68345f00101bn4f?from=finance&subch=bank",
        "docid": "mzwkezv4798011"
    },
    {
        "title": "取消地价上限后城投再托底 南京土拍市场酿变",
        "url": "https://finance.sina.com.cn/jjxw/2023-11-29/doc-imzwfvuz2572567.shtml",
        "docid": "mzwfvuz2572567"
    },
    {
        "title": "“160多国用上中国这个系统，摆脱对西方依赖”",
        "url": "https://finance.sina.com.cn/wm/2023-11-29/doc-imzweyrn6986220.shtml",
        "docid": "mzweyrn6986220"
    },
    {
        "title": "暴雪和网易、腾讯等谈判国服回归事宜？腾讯回应",
        "url": "https://finance.sina.com.cn/jjxw/2023-11-30/doc-imzwkvxs5234431.shtml",
        "docid": "mzwkvxs5234431"
    },
    {
        "title": "碳酸锂：2023Q3海外锂资源供给更新",
        "url": "https://finance.sina.com.cn/money/future/wemedia/2023-11-29/doc-imzwfvuz2530506.shtml",
        "docid": "mzwfvuz2530506"
    },
    {
        "title": "小心美元死猫跳，市场注意力转向鲍威尔讲话",
        "url": "https://finance.sina.com.cn/money/forex/hbfx/2023-11-29/doc-imzwhxht0675269.shtml",
        "docid": "mzwhxht0675269"
    },
    {
        "title": "全国母猪价格暴跌54%，屠宰暴涨36%！最危险的行情，已经来了...",
        "url": "https://cj.sina.cn/articles/view/6652117697/18c7f42c1001011wu5?from=finance&subch=futures",
        "docid": "mzwkvxx8433147"
    },
    {
        "title": "A股，为何外资突然抢筹？",
        "url": "https://cj.sina.cn/articles/view/1584374440/5e6fa2a8020015b92?from=finance",
        "docid": "mzwmafu1571260"
    },
    {
        "title": "巴拿马大型铜矿关闭将颠覆全球铜供应格局",
        "url": "https://finance.sina.com.cn/stock/usstock/c/2023-11-30/doc-imzwkezy5498237.shtml",
        "docid": "mzwkezy5498237"
    },
    {
        "title": "装逼的代价",
        "url": "https://finance.sina.com.cn/cj/2023-11-30/doc-imzwmhpn5048438.shtml",
        "docid": "mzwmhpn5048438"
    },
    {
        "title": "楼市头部玩家，再生变",
        "url": "https://finance.sina.com.cn/jjxw/2023-11-30/doc-imzwkvxx8445014.shtml",
        "docid": "mzwkvxx8445014"
    },
    {
        "title": "招生办女主任出轨校长？官方调查，举报人称“有监控为证”",
        "url": "https://finance.sina.com.cn/jjxw/2023-11-30/doc-imzwkfac0033973.shtml",
        "docid": "mzwkfac0033973"
    },
    {
        "title": "放弃百万年薪当旅行博主后，我年入2000",
        "url": "https://finance.sina.com.cn/tech/roll/2023-11-30/doc-imzwmhpn5037328.shtml",
        "docid": "mzwmhpn5037328"
    },
    {
        "title": "“我婚前买的房子，应该属于我个人吧？”一场关于婚姻家事的法治宣讲开讲",
        "url": "https://finance.sina.com.cn/jjxw/2023-11-30/doc-imzwkfac0038219.shtml",
        "docid": "mzwkfac0038219"
    },
    {
        "title": "百强房企销售降幅继续扩大，年底冲刺业绩或带动新房成交",
        "url": "https://finance.sina.com.cn/jjxw/2023-11-30/doc-imzwmhps1484758.shtml",
        "docid": "mzwmhps1484758"
    },
    {
        "title": "唯有A股，不相信利好",
        "url": "https://cj.sina.cn/articles/view/5115326071/130e5ae770190210sb?from=finance",
        "docid": "mzwmafq5145175"
    },
    {
        "title": "涉及房地产融资 多家银行回应！预计适度增加房企贷款投放",
        "url": "https://finance.sina.com.cn/money/bank/bank_hydt/2023-11-29/doc-imzwfvuz2541908.shtml",
        "docid": "mzwfvuz2541908"
    },
    {
        "title": "国防部：捍卫国家主权和领土完整，解放军决不手软",
        "url": "https://finance.sina.com.cn/jjxw/2023-11-30/doc-imzwkvxs5222336.shtml",
        "docid": "mzwkvxs5222336"
    },
    {
        "title": "社保重仓股曝光：42股连续持仓超5年",
        "url": "https://finance.sina.com.cn/jjxw/2023-11-29/doc-imzwfexf6070305.shtml",
        "docid": "mzwfexf6070305"
    },
    {
        "title": "机构策略：A股有望迎来估值修复 成长风格或相对占优",
        "url": "https://finance.sina.com.cn/jjxw/2023-11-30/doc-imzwkrrr4615980.shtml",
        "docid": "mzwkrrr4615980"
    },
    {
        "title": "能否证实中国和立陶宛已恢复正常贸易关系？外交部回应",
        "url": "https://finance.sina.com.cn/jjxw/2023-11-30/doc-imzwkrrt1420079.shtml",
        "docid": "mzwkrrt1420079"
    },
    {
        "title": "普京：多子女家庭应成为俄未来的主流，呼吁保护“每家都有七八个小孩”的传统",
        "url": "https://finance.sina.com.cn/jjxw/2023-11-30/doc-imzwmafs9695767.shtml",
        "docid": "mzwmafs9695767"
    },
    {
        "title": "这些指数，悄悄开始走牛了",
        "url": "https://finance.sina.com.cn/money/fund/jjzl/2023-11-30/doc-imzwmafu1571181.shtml",
        "docid": "mzwmafu1571181"
    },
    {
        "title": "中金：勿低估美联储降息的时点和幅度 建议提前布局宽松交易",
        "url": "https://finance.sina.com.cn/tob/2023-11-30/doc-imzwkezx1577601.shtml",
        "docid": "mzwkezx1577601"
    },
    {
        "title": "暗藏刀锋？这次的联合国气候大会杀机重重！",
        "url": "https://finance.sina.com.cn/wm/2023-11-30/doc-imzwiqef1856029.shtml",
        "docid": "mzwiqef1856029"
    },
    {
        "title": "东方财富(300059.SZ)：累计耗资4.96亿元回购3242.78万股",
        "url": "https://finance.sina.com.cn/stock/relnews/cn/2023-11-30/doc-imzwmhpn5034211.shtml",
        "docid": "mzwmhpn5034211"
    },
    {
        "title": "曝国会山衣帽间闹剧，披露特朗普败选窘态，切尼抖出共和党一连串猛料",
        "url": "https://finance.sina.com.cn/jjxw/2023-11-30/doc-imzwiumz4980658.shtml",
        "docid": "mzwiumz4980658"
    },
    {
        "title": "二次电池革命",
        "url": "https://finance.sina.com.cn/jjxw/2023-11-30/doc-imzwiune5674019.shtml",
        "docid": "mzwiune5674019"
    },
    {
        "title": "两位省部级领导履新",
        "url": "https://finance.sina.com.cn/jjxw/2023-11-30/doc-imzwiune5688746.shtml",
        "docid": "mzwiune5688746"
    },
    {
        "title": "韩媒：今年新接订单远超韩国，中国造船业全年承接量有望三连冠",
        "url": "https://finance.sina.com.cn/jjxw/2023-11-30/doc-imzwiuni0243106.shtml",
        "docid": "mzwiuni0243106"
    },
    {
        "title": "多地出台新政 促进楼市平稳健康发展",
        "url": "https://finance.sina.com.cn/jjxw/2023-11-30/doc-imzwiytx4868404.shtml",
        "docid": "mzwiytx4868404"
    },
    {
        "title": "寂寞青山：这个指数先创新低！",
        "url": "https://cj.sina.cn/articles/view/1092849864/412390c800101n4g0?from=finance&subch=astocks",
        "docid": "mzwiytx4877972"
    },
    {
        "title": "诈骗300亿，女老板演技绝了",
        "url": "https://finance.sina.com.cn/stock/relnews/hk/2023-11-30/doc-imzwiytx4883183.shtml",
        "docid": "mzwiytx4883183"
    },
    {
        "title": "抛弃苏州，无锡机场改名？",
        "url": "https://cj.sina.cn/articles/view/6825755809/196d8c4a1001025fcf?from=news",
        "docid": "mzwiytz1642927"
    },
    {
        "title": "闻泰科技被剔出上证50指数，兴业基金、兴全基金、广发基金等持仓",
        "url": "https://finance.sina.com.cn/stock/relnews/cn/2023-11-30/doc-imzwiytz1645600.shtml",
        "docid": "mzwiytz1645600"
    },
    {
        "title": "上交所举办房地产行业座谈会",
        "url": "https://finance.sina.com.cn/stock/2023-11-30/doc-imzwmhpn5036959.shtml",
        "docid": "mzwmhpn5036959"
    },
    {
        "title": "世茂股份累计102亿元债务未能按期支付",
        "url": "https://finance.sina.com.cn/jjxw/2023-11-30/doc-imzwmhpn5049353.shtml",
        "docid": "mzwmhpn5049353"
    },
    {
        "title": "基辛格的政治遗产，对当下有何启示？",
        "url": "https://finance.sina.com.cn/jjxw/2023-11-30/doc-imzwmafs9687207.shtml",
        "docid": "mzwmafs9687207"
    },
    {
        "title": "美国10月核心PCE放缓至3.5% 符合预期",
        "url": "https://finance.sina.com.cn/stock/usstock/c/2023-11-30/doc-imzwmhpt8266227.shtml",
        "docid": "mzwmhpt8266227"
    },
    {
        "title": "第四批国家组织高值医用耗材集采产生拟中选结果 平均降价70%左右",
        "url": "https://finance.sina.com.cn/china/2023-11-30/doc-imzwmafu1567093.shtml",
        "docid": "mzwmafu1567093"
    },
    {
        "title": "哈马斯称以色列拒绝其提出的临时停火协议延长条件",
        "url": "https://finance.sina.com.cn/jjxw/2023-11-30/doc-imzwkmiw5398708.shtml",
        "docid": "mzwkmiw5398708"
    },
    {
        "title": "腾讯大股东持续减持：4至9月减持1%，4月以来套现50亿美元",
        "url": "https://finance.sina.com.cn/jjxw/2023-11-30/doc-imzwkrrt1395238.shtml",
        "docid": "mzwkrrt1395238"
    },
    {
        "title": "证监会浙江证监局对思美传媒、董秘李子木采取出具警示函措施",
        "url": "https://finance.sina.com.cn/stock/roll/2023-11-30/doc-imzwkvxu9779126.shtml",
        "docid": "mzwkvxu9779126"
    },
    {
        "title": "国家标准委、中国证监会积极推进证券期货业标准化工作",
        "url": "https://finance.sina.com.cn/stock/y/2023-11-30/doc-imzwkrrw9846765.shtml",
        "docid": "mzwkrrw9846765"
    },
    {
        "title": "生猪需求渐起 能否激发豆粕消费增量？",
        "url": "https://finance.sina.com.cn/money/future/fmnews/2023-11-30/doc-imzwiyua5560791.shtml",
        "docid": "mzwiyua5560791"
    },
    {
        "title": "皖通科技连收5个涨停板",
        "url": "https://finance.sina.com.cn/jjxw/2023-11-29/doc-imzwfvuw4000450.shtml",
        "docid": "mzwfvuw4000450"
    },
    {
        "title": "日韩房地产的泡沫经济教训！",
        "url": "https://cj.sina.cn/articles/view/5394282360/m14186377803300wx9m?from=finance",
        "docid": "mzwiyua5566397"
    },
    {
        "title": "Galaxy创始人：随着ETF获批 比特币将达历史高点",
        "url": "https://finance.sina.com.cn/stock/hkstock/ggscyd/2023-11-30/doc-imzwiyua5584314.shtml",
        "docid": "mzwiyua5584314"
    },
    {
        "title": "中集车辆拟10.27亿港元回购从H股退市 前三季净利增超两倍销量全球居首",
        "url": "https://finance.sina.com.cn/roll/2023-11-30/doc-imzwiyuf0137498.shtml",
        "docid": "mzwiyuf0137498"
    },
    {
        "title": "荣盛石化上调回购金额累计耗资60亿 李水荣13年不减持引入优质资本保供应",
        "url": "https://finance.sina.com.cn/roll/2023-11-30/doc-imzwiyuf0137510.shtml",
        "docid": "mzwiyuf0137510"
    },
    {
        "title": "下一个“中国”，还是中国——世界大环境下的中国经济",
        "url": "https://finance.sina.com.cn/jjxw/2023-11-30/doc-imzwiyuf0139870.shtml",
        "docid": "mzwiyuf0139870"
    },
    {
        "title": "“妖股”皇庭国际：豪赌半导体难转颓势，4年已亏超30亿",
        "url": "https://finance.sina.com.cn/stock/2023-11-30/doc-imzwiyuf0144186.shtml",
        "docid": "mzwiyuf0144186"
    },
    {
        "title": "4个公租房小区排查出766户公职人员，当地：11月底前腾退",
        "url": "https://finance.sina.com.cn/china/gncj/2023-11-30/doc-imzwiyuf0148502.shtml",
        "docid": "mzwiyuf0148502"
    },
    {
        "title": "晋拓股份连收3个涨停板",
        "url": "https://finance.sina.com.cn/jjxw/2023-11-30/doc-imzwkezv4776119.shtml",
        "docid": "mzwkezv4776119"
    },
    {
        "title": "真搞不定！苹果有意放弃自主研发5G基带：华为高通“爱莫能助”",
        "url": "https://t.cj.sina.cn/articles/view/1659643027/62ec249302001apz5?from=tech",
        "docid": "mzwkezv4785973"
    },
    {
        "title": "守好钱袋子！2024年开始，存款30万以上的家庭要注意了",
        "url": "https://cj.sina.cn/articles/view/1655703524/62b007e402701coyw?from=finance",
        "docid": "mzwmnvn9490238"
    },
    {
        "title": "突然官宣！大降价",
        "url": "https://finance.sina.com.cn/stock/relnews/cn/2023-12-01/doc-imzwmnvq1387364.shtml",
        "docid": "mzwmnvq1387364"
    },
    {
        "title": "34岁已婚男网恋“离异美少妇”半年转账9万，欲与原配离婚时对方“摊牌”：其实我是个男的",
        "url": "https://finance.sina.com.cn/jjxw/2023-11-30/doc-imzwmhpq9608368.shtml",
        "docid": "mzwmhpq9608368"
    },
    {
        "title": "生4胎不结婚的吴佩慈，真的赢麻了？",
        "url": "https://finance.sina.com.cn/wm/2023-11-30/doc-imzwmnvk4932400.shtml",
        "docid": "mzwmnvk4932400"
    },
    {
        "title": "百强房企前11月销售降幅继续扩大，千亿房企仅16家",
        "url": "https://finance.sina.com.cn/stock/relnews/hk/2023-11-30/doc-imzwmhpn5020116.shtml",
        "docid": "mzwmhpn5020116"
    },
    {
        "title": "李时珍钦点的“每餐必食”，你家餐桌上有吗？",
        "url": "https://finance.sina.com.cn/jjxw/2023-11-30/doc-imzwkvxs5228372.shtml",
        "docid": "mzwkvxs5228372"
    },
    {
        "title": "四川猪王猛踩刹车",
        "url": "https://finance.sina.com.cn/stock/relnews/cn/2023-11-30/doc-imzwkmiv1475746.shtml",
        "docid": "mzwkmiv1475746"
    },
    {
        "title": "“面板一哥”，630亿大动作！",
        "url": "https://finance.sina.com.cn/jjxw/2023-11-29/doc-imzwhhkw6358838.shtml",
        "docid": "mzwhhkw6358838"
    },
    {
        "title": "“三个月内全家出车祸自己患绝症”，真相是……",
        "url": "https://finance.sina.com.cn/jjxw/2023-11-29/doc-imzwhnsu6291837.shtml",
        "docid": "mzwhnsu6291837"
    },
    {
        "title": "李想首款纯电车，斩获1万张订单",
        "url": "https://cj.sina.cn/articles/view/1651428902/626ece260200160re?from=auto&subch=oauto",
        "docid": "mzwmnvk4933075"
    },
    {
        "title": "重要数据公布 A股或再次探底！",
        "url": "https://cj.sina.cn/articles/view/2619203540/9c1ddfd4001014eir?from=finance&subch=astocks",
        "docid": "mzwkrrr4631259"
    },
    {
        "title": "恒大地产集团：截至10月末，未能清偿到期债务约3013亿元",
        "url": "https://finance.sina.com.cn/jjxw/2023-11-30/doc-imzwmnvr8146861.shtml",
        "docid": "mzwmnvr8146861"
    },
    {
        "title": "深圳降首付、调普宅标准，稳楼市再出招",
        "url": "https://finance.sina.com.cn/jjxw/2023-11-30/doc-imzwkezv4801388.shtml",
        "docid": "mzwkezv4801388"
    },
    {
        "title": "刀刃向内！中纪委又公布4名“内鬼”被查、被处分消息",
        "url": "https://finance.sina.com.cn/jjxw/2023-11-30/doc-imzwkezv4801952.shtml",
        "docid": "mzwkezv4801952"
    },
    {
        "title": "突发！这家银行原董事长，被查！",
        "url": "https://finance.sina.com.cn/wm/2023-11-30/doc-imzwkezv4813862.shtml",
        "docid": "mzwkezv4813862"
    },
    {
        "title": "3季度销量下滑14%，计划撤离中国的戴尔！突然开始“服软”了",
        "url": "https://t.cj.sina.cn/articles/view/7878847372/1d59dab8c00101329f?from=tech",
        "docid": "mzwkezx1543735"
    },
    {
        "title": "疫苗生物ETF(561710)强势上涨2.10%，机构：疫苗行业有望进入新景气周期",
        "url": "https://finance.sina.com.cn/jjxw/2023-11-30/doc-imzwkezx1578736.shtml",
        "docid": "mzwkezx1578736"
    },
    {
        "title": "止跌上涨！猪价大面积反弹，12月能否节节攀升？",
        "url": "https://cj.sina.cn/articles/view/6652117697/m18c7f42c1033011wre?from=finance",
        "docid": "mzwkezy5472285"
    },
    {
        "title": "融资闸口打开，房企凉热不同",
        "url": "https://finance.sina.com.cn/jjxw/2023-11-30/doc-imzwkezy5480587.shtml",
        "docid": "mzwkezy5480587"
    },
    {
        "title": "券商板块异动拉升 信达证券涨近6%",
        "url": "https://finance.sina.com.cn/roll/2023-11-30/doc-imzwkezy5484228.shtml",
        "docid": "mzwkezy5484228"
    },
    {
        "title": "某央企取消年终奖，降薪20%",
        "url": "https://cj.sina.cn/articles/view/7314394037/1b3f8cbb501901hp7g?from=job",
        "docid": "mzwfvva6554305"
    },
    {
        "title": "俄罗斯央行表示，人民币在俄罗斯出口支付中",
        "url": "https://finance.sina.com.cn/stock/hkstock/marketalerts/2023-11-30/doc-imzwmafv8362628.shtml",
        "docid": "mzwmafv8362628"
    },
    {
        "title": "谭显光、蒋瑾辉被查！",
        "url": "https://finance.sina.com.cn/jjxw/2023-11-30/doc-imzwmafq5131945.shtml",
        "docid": "mzwmafq5131945"
    },
    {
        "title": "再次面对生死存亡 蔚来寻觅一线生机",
        "url": "https://cj.sina.cn/articles/view/1731930915/673b2b23019012aou?from=finance",
        "docid": "mzwkfac0018484"
    },
    {
        "title": "机器人概念走强 巨轮智能等涨停",
        "url": "https://finance.sina.com.cn/jjxw/2023-11-30/doc-imzwkfac0027234.shtml",
        "docid": "mzwkfac0027234"
    },
    {
        "title": "日盈电子连收6个涨停板",
        "url": "https://finance.sina.com.cn/jjxw/2023-11-30/doc-imzwkfac0028594.shtml",
        "docid": "mzwkfac0028594"
    },
    {
        "title": "四环生物：公司控股子公司北京四环生物制药有限公司主要从事生物医药的研发、生产和销售",
        "url": "https://cj.sina.cn/articles/view/1850649324/6e4eaaec02001aizg?from=finance",
        "docid": "mzwkfac0032364"
    },
    {
        "title": "广电运通：公司的自有算力集群里面有使用到HBM，另公司旗下广电五舟的AI服务器整机未来也会用到",
        "url": "https://finance.sina.com.cn/stock/relnews/cn/2023-11-30/doc-imzwkfac0033599.shtml",
        "docid": "mzwkfac0033599"
    },
    {
        "title": "预制菜概念拉升 海欣食品等涨停",
        "url": "https://finance.sina.com.cn/jjxw/2023-11-30/doc-imzwkfac0051560.shtml",
        "docid": "mzwkfac0051560"
    },
    {
        "title": "重庆预制板房明年大拆迁？官方回应",
        "url": "https://finance.sina.com.cn/wm/2023-11-30/doc-imzwkmit4703798.shtml",
        "docid": "mzwkmit4703798"
    },
    {
        "title": "1个正式工背后1.8个临时工：一个欠发达县的临聘人员之困",
        "url": "https://finance.sina.com.cn/jjxw/2023-11-30/doc-imzwkmit4707573.shtml",
        "docid": "mzwkmit4707573"
    },
    {
        "title": "华为推出业界首个大模型混合云",
        "url": "https://t.cj.sina.cn/articles/view/1826017320/6cd6d028020019qyl?from=tech",
        "docid": "mzwkmiv1497756"
    },
    {
        "title": "连王思聪也下场做招商了",
        "url": "https://cj.sina.cn/articles/view/1726276573/66e4e3dd020013bit?from=finance",
        "docid": "mzwkmiw5381907"
    },
    {
        "title": "“捡钱”的机会又来了，操作很简便！",
        "url": "https://finance.sina.com.cn/jjxw/2023-11-30/doc-imzwkmiw5408858.shtml",
        "docid": "mzwkmiw5408858"
    },
    {
        "title": "犯罪团伙通过木马控制老年手机1440余万部，获利超亿元",
        "url": "https://finance.sina.com.cn/jjxw/2023-11-30/doc-imzwkmiy9941028.shtml",
        "docid": "mzwkmiy9941028"
    },
    {
        "title": "申博失败，韩网友：就这宣传片还能拿到29票？",
        "url": "https://cj.sina.cn/articles/view/1887344341/707e96d502001f9db?from=finance",
        "docid": "mzwkmiy9952504"
    },
    {
        "title": "短剧概念股集体持续跳水",
        "url": "https://finance.sina.com.cn/jjxw/2023-11-30/doc-imzwkmiy9966401.shtml",
        "docid": "mzwkmiy9966401"
    },
    {
        "title": "全球首款“可变皮卡”官宣，丰田打造，可秒变房车",
        "url": "https://finance.sina.com.cn/jjxw/2023-11-30/doc-imzwkmiy9967854.shtml",
        "docid": "mzwkmiy9967854"
    },
    {
        "title": "王思聪“上班”，王健林“闯关”",
        "url": "https://cj.sina.cn/articles/view/1193725273/4726cd5900102h8h5?from=finance",
        "docid": "mzwkrrr4615642"
    },
    {
        "title": "经济实象和经济学幻象",
        "url": "https://finance.sina.com.cn/money/fund/fundzmt/2023-11-30/doc-imzwkrrt1411664.shtml",
        "docid": "mzwkrrt1411664"
    },
    {
        "title": "金融圈突发！谭显光，被查！",
        "url": "https://finance.sina.com.cn/stock/relnews/cn/2023-11-30/doc-imzwmhpq9585475.shtml",
        "docid": "mzwmhpq9585475"
    },
    {
        "title": "普京翻脸，俄罗斯不参与！这一亚洲国家面临重大危机！",
        "url": "https://finance.sina.com.cn/wm/2023-12-01/doc-imzwmtcn1294839.shtml",
        "docid": "mzwmtcn1294839"
    },
    {
        "title": "丰田考斯特绝佳替代！红旗国悦实车内部首曝：自带一张大桌子",
        "url": "https://finance.sina.com.cn/tech/discovery/2023-11-30/doc-imzwkvxx8452592.shtml",
        "docid": "mzwkvxx8452592"
    },
    {
        "title": "钱大妈的打折菜，哪个打工人没抢过？",
        "url": "https://finance.sina.com.cn/wm/2023-11-30/doc-imzwkrru5302449.shtml",
        "docid": "mzwkrru5302449"
    },
    {
        "title": "跨年行情多看业绩少看概念",
        "url": "https://cj.sina.cn/articles/view/1988645095/768850e704001732t?from=finance",
        "docid": "mzwkrru5310397"
    },
    {
        "title": "价格战未平，年底冲量又起，经销商：越卖越亏，不卖更亏",
        "url": "https://finance.sina.com.cn/jjxw/2023-11-30/doc-imzwkrru5321736.shtml",
        "docid": "mzwkrru5321736"
    },
    {
        "title": "中国人寿回应联合新华保险成立500亿私募基金：将投资A股……",
        "url": "https://cj.sina.cn/articles/view/6363707782/m17b4e798603301412j?from=finance",
        "docid": "mzwkrru5321738"
    },
    {
        "title": "12月1日大盘监测图",
        "url": "https://cj.sina.cn/articles/view/1448623274/56583caa019022e91?from=finance",
        "docid": "mzwkvxp4534047"
    },
    {
        "title": "中兴通讯5G-A数智新生长亮相2023年中国信息通信大会",
        "url": "https://finance.sina.com.cn/stock/relnews/cn/2023-11-30/doc-imzwkvxp4539146.shtml",
        "docid": "mzwkvxp4539146"
    },
    {
        "title": "碳化硅：SiC产业升级，引多家机构布局，第一龙头扎根数年不惧挑战！",
        "url": "https://t.cj.sina.cn/articles/view/5543938115/14a71c843001019r10?from=digit",
        "docid": "mzwkvxr1297428"
    },
    {
        "title": "下一次股东大会，芒格没法和巴菲特坐在一起了",
        "url": "https://finance.sina.com.cn/jjxw/2023-11-30/doc-imzwkvxx8444599.shtml",
        "docid": "mzwkvxx8444599"
    },
    {
        "title": "美联储权威官员暗示“加息已经结束” 他在货币政策上的份量仅次于鲍威尔",
        "url": "https://finance.sina.com.cn/world/2023-12-01/doc-imzwmtcp8062170.shtml",
        "docid": "mzwmtcp8062170"
    },
    {
        "title": "拼多多美股市值再次超阿里",
        "url": "https://finance.sina.com.cn/7x24/2023-11-30/doc-imzwmnvr8153331.shtml",
        "docid": "mzwmnvr8153331"
    },
    {
        "title": "巴菲特赞扬芒格的这些品质—没有了芒格伯克希尔股票还能保持强劲吗？",
        "url": "https://finance.sina.com.cn/stock/usstock/c/2023-12-01/doc-imzwmtch4830212.shtml",
        "docid": "mzwmtch4830212"
    },
    {
        "title": "超低利率是否会回归？英国央行研究称全球利率还会再次降至低点",
        "url": "https://finance.sina.com.cn/7x24/2023-11-30/doc-imzwmhpq9592424.shtml",
        "docid": "mzwmhpq9592424"
    },
    {
        "title": "美联储“三把手”和鸽派高官打压市场降息预期，美债收益率日内拉升",
        "url": "https://finance.sina.com.cn/world/2023-12-01/doc-imzwmnvr8173742.shtml",
        "docid": "mzwmnvr8173742"
    },
    {
        "title": "“鹰声”还在回荡！美联储尚未准备谈论降息",
        "url": "https://finance.sina.com.cn/stock/usstock/c/2023-11-30/doc-imzwmnvq1377352.shtml",
        "docid": "mzwmnvq1377352"
    },
    {
        "title": "Snowflake涨7.5% Q3产品收入同比增长34%",
        "url": "https://finance.sina.com.cn/stock/usstock/c/2023-11-30/doc-imzwmhpq9609288.shtml",
        "docid": "mzwmhpq9609288"
    },
    {
        "title": "多地呼吸道疾病来势汹汹！生物疫苗概念再度起势？潜力股一览",
        "url": "https://cj.sina.cn/articles/view/2129742420/7ef14a54001011xcq?from=health",
        "docid": "mzwkvxr1312387"
    },
    {
        "title": "顾客嫌海底捞科目三太吵和邻桌起冲突",
        "url": "https://finance.sina.com.cn/jjxw/2023-11-30/doc-imzwkvxr1313389.shtml",
        "docid": "mzwkvxr1313389"
    },
    {
        "title": "知情人讲述6名华人在菲遭绑架4人遇害：两兄弟先后赴菲经商 绑匪掳全家未要赎金",
        "url": "https://finance.sina.com.cn/jjxw/2023-11-30/doc-imzwmafv8359671.shtml",
        "docid": "mzwmafv8359671"
    },
    {
        "title": "马精武去世，是教授也是演员，还是明星眼中的“马老爹”",
        "url": "https://finance.sina.com.cn/jjxw/2023-11-30/doc-imzwkrrr4601132.shtml",
        "docid": "mzwkrrr4601132"
    },
    {
        "title": "为什么要从东亚视角看中国？",
        "url": "https://finance.sina.com.cn/jjxw/2023-11-30/doc-imzwkvxx8449988.shtml",
        "docid": "mzwkvxx8449988"
    },
    {
        "title": "今年唯一的顶流：好丑，好迷人",
        "url": "https://finance.sina.com.cn/wm/2023-11-30/doc-imzwmhpn5046245.shtml",
        "docid": "mzwmhpn5046245"
    },
    {
        "title": "胡锡进谈炒股心得:感觉自己是新巴菲特……",
        "url": "https://cj.sina.cn/articles/view/6579154143/m18825ecdf033015aeu?from=finance",
        "docid": "mzwmhpn5053925"
    },
    {
        "title": "“160多国用上中国这个系统，摆脱对西方依赖”",
        "url": "https://finance.sina.com.cn/jjxw/2023-11-29/doc-imzwfrpe6645156.shtml",
        "docid": "mzwfrpe6645156"
    },
    {
        "title": "兴业投资原油日评:原油连续两日反弹 终迎OPEC+会议",
        "url": "https://finance.sina.com.cn/money/forex/forexfxyc/2023-11-30/doc-imzwkvxs5200728.shtml",
        "docid": "mzwkvxs5200728"
    },
    {
        "title": "TEMU的成功，现实意义大到没法想象",
        "url": "https://t.cj.sina.cn/articles/view/1609895567/5ff50e8f01901z4wh?from=tech",
        "docid": "mzwkvxs5216320"
    },
    {
        "title": "为什么被加薪的员工，反而离职了？",
        "url": "https://cj.sina.cn/articles/view/5617175604/14ecf4c3401902keqp?from=job",
        "docid": "mzwkvxs5218647"
    },
    {
        "title": "太牛了！信雅达董事长的二女儿郭文景在美国搞了一个AI视频生成工……",
        "url": "https://cj.sina.cn/articles/view/1961718870/74ed745604001aqn4?from=edu",
        "docid": "mzwkvxs5224387"
    },
    {
        "title": "中国第一大造船企业,产品涵盖海军所有主战舰艇,Q3社保基金入股",
        "url": "https://cj.sina.cn/articles/view/7669966052/1c92a64e4001014g39?from=finance&subch=fund",
        "docid": "mzwkrrr4628684"
    },
    {
        "title": "横店东磁股价跌逾50%与业绩背离 热衷理财账面逾95亿净利高增四年",
        "url": "https://finance.sina.com.cn/stock/relnews/cn/2023-11-30/doc-imzwiytx4890054.shtml",
        "docid": "mzwiytx4890054"
    },
    {
        "title": "晨鸣纸业业绩承压近两年扣非亏16亿 投资金信期货亏1521万拟1.97亿清仓",
        "url": "https://finance.sina.com.cn/roll/2023-11-30/doc-imzwiytz1659095.shtml",
        "docid": "mzwiytz1659095"
    },
    {
        "title": "宏昌电子：与英伟达供应相关的PCB印制电路板厂商，保持良好交流与合作",
        "url": "https://t.cj.sina.cn/articles/view/1829577443/6d0d22e302001akux?from=tech",
        "docid": "mzwkvxs5225044"
    },
    {
        "title": "华为：从鸿蒙，到鸿蒙智行 魅族：从无界……",
        "url": "https://t.cj.sina.cn/articles/view/2292724833/88a83461040013a0v?from=digit",
        "docid": "mzwkvxu9762507"
    },
    {
        "title": "东华软件：公司已形成成熟的自主知识产权体系和研发机制，目前已拥百余项专利，2,400余项软件著作权",
        "url": "https://cj.sina.cn/articles/view/1850649324/6e4eaaec02001aj97?from=finance",
        "docid": "mzwkvxu9775188"
    },
    {
        "title": "杨德龙：机构投资者逆向布局 释放出积极信号",
        "url": "https://finance.sina.com.cn/money/fund/jjpl/2023-11-30/doc-imzwkvxu9775270.shtml",
        "docid": "mzwkvxu9775270"
    },
    {
        "title": "网宿科技：如有重大事项，公司会严格依据信披规则的要求及时对外披露",
        "url": "https://cj.sina.cn/articles/view/1850649324/6e4eaaec02001ajc5?from=finance",
        "docid": "mzwkvxu9783258"
    },
    {
        "title": "500亿资金在路上，高股息策略或将受益",
        "url": "https://finance.sina.com.cn/money/fund/jjzl/2023-11-30/doc-imzwkvxu9796373.shtml",
        "docid": "mzwkvxu9796373"
    },
    {
        "title": "长钱来了：新华+人寿出500亿抄底A股！腾讯股东减持350亿元 他增持",
        "url": "https://cj.sina.cn/articles/view/5859229621/15d3cbfb5020011op7?from=finance",
        "docid": "mzwkvxw1668392"
    },
    {
        "title": "韩国，占小便宜吃大亏？",
        "url": "https://finance.sina.com.cn/wm/2023-11-30/doc-imzwmafq5123839.shtml",
        "docid": "mzwmafq5123839"
    },
    {
        "title": "反华议员又搞事：除非中国交出TikTok算法，否则……",
        "url": "https://finance.sina.com.cn/wm/2023-11-30/doc-imzwmhpn5053092.shtml",
        "docid": "mzwmhpn5053092"
    },
    {
        "title": "11月百强房企销售业绩出炉！",
        "url": "https://finance.sina.com.cn/wm/2023-11-30/doc-imzwmnvq1371443.shtml",
        "docid": "mzwmnvq1371443"
    },
    {
        "title": "净投放千亿元！降准要来了？",
        "url": "https://finance.sina.com.cn/jjxw/2023-11-30/doc-imzwmafv8344706.shtml",
        "docid": "mzwmafv8344706"
    },
    {
        "title": "安卓、鸿蒙危险了？IOS17.2新功能曝光，估计很多人会换iPhone15",
        "url": "https://t.cj.sina.cn/articles/view/5048846089/12cef470900101akch?from=digit",
        "docid": "mzwhaax2490892"
    },
    {
        "title": "一万亿下去，PMI就这？外资还疯狂抢筹，这都唱得哪出戏？",
        "url": "https://cj.sina.cn/articles/view/3277221682/c3566f32019018jxt?from=finance",
        "docid": "mzwmnvn9494045"
    },
    {
        "title": "​“英国给出的理由太具侮辱性”",
        "url": "https://finance.sina.com.cn/jjxw/2023-11-29/doc-imzwfrny4102825.shtml",
        "docid": "mzwfrny4102825"
    },
    {
        "title": "为什么北上资金暴力加仓也带不动A股",
        "url": "https://cj.sina.cn/articles/view/7517400647/1c0126e4705904lxaj?from=finance",
        "docid": "mzwmtcp8052735"
    },
    {
        "title": "提醒：多头不死，震荡不止！",
        "url": "https://cj.sina.cn/articles/view/2785578122/a6088c8a001015teq?from=finance&subch=astocks",
        "docid": "mzwmhpt8247027"
    },
    {
        "title": "光伏上市企业营收利润创新高",
        "url": "https://finance.sina.com.cn/jjxw/2023-11-30/doc-imzwkvxp4535717.shtml",
        "docid": "mzwkvxp4535717"
    },
    {
        "title": "涉嫌严重违纪违法，3名干部被查",
        "url": "https://finance.sina.com.cn/jjxw/2023-12-01/doc-imzwmnvk4939451.shtml",
        "docid": "mzwmnvk4939451"
    },
    {
        "title": "先导智能(300450.SZ)：耗资2.99亿元累计回购918.98万股",
        "url": "https://finance.sina.com.cn/stock/hkstock/ggscyd/2023-11-30/doc-imzwmhpt8267081.shtml",
        "docid": "mzwmhpt8267081"
    },
    {
        "title": "街头骑“电动行李箱”被拦，女子竟反问交警“你来接我上班吗”？",
        "url": "https://finance.sina.com.cn/jjxw/2023-11-30/doc-imzwkmiv1487909.shtml",
        "docid": "mzwkmiv1487909"
    },
    {
        "title": "成飞集成：公司是长安汽车供应商",
        "url": "https://cj.sina.cn/articles/view/1850649324/6e4eaaec02001aipy?from=finance",
        "docid": "mzwhsyp5448837"
    },
    {
        "title": "中光学(002189.SZ)：部分光学元器件已应用于车载激光雷达产品",
        "url": "https://cj.sina.cn/articles/view/5115326071/130e5ae77020020zvh?from=finance",
        "docid": "mzwhsys6183031"
    },
    {
        "title": "儿子的婚房",
        "url": "https://finance.sina.com.cn/jjxw/2023-11-30/doc-imzwkezy5476281.shtml",
        "docid": "mzwkezy5476281"
    },
    {
        "title": "“问题学生”转入，多名学生不上学抵制？官方通报",
        "url": "https://finance.sina.com.cn/wm/2023-11-30/doc-imzwkmit4710834.shtml",
        "docid": "mzwkmit4710834"
    },
    {
        "title": "“6名中国公民在菲律宾遭绑架”新进展：4人已确认死亡，一对母子仍失联",
        "url": "https://finance.sina.com.cn/jjxw/2023-11-30/doc-imzwkmiv1478798.shtml",
        "docid": "mzwkmiv1478798"
    },
    {
        "title": "摩根大通：降美团(03690.HK)评级至中性 削目标价至100港元",
        "url": "https://finance.sina.com.cn/stock/relnews/hk/2023-11-30/doc-imzwkmiy9943069.shtml",
        "docid": "mzwkmiy9943069"
    },
    {
        "title": "三湘印象，老板上岸了",
        "url": "https://cj.sina.cn/articles/view/6698723798/18f4669d6001011z1g?from=finance&subch=astocks",
        "docid": "mzwkvxp4515604"
    },
    {
        "title": "房地产要变天了？广州悄悄取消限价令，释放了什么信号",
        "url": "https://cj.sina.cn/articles/view/6510163028/m18409345403301i0l4?from=estate",
        "docid": "mzwkrru5291800"
    },
    {
        "title": "王石：乐观看，中国地产市场也需要3-5年调整期",
        "url": "https://finance.sina.com.cn/hy/hyjz/2023-11-30/doc-imzwkezy5462772.shtml",
        "docid": "mzwkezy5462772"
    },
    {
        "title": "突发！这家公司与英伟达中国区精英级合作伙伴签署合作协议",
        "url": "https://finance.sina.com.cn/jjxw/2023-11-30/doc-imzwmafs9704864.shtml",
        "docid": "mzwmafs9704864"
    },
    {
        "title": "美芯片政策最大受害者出现，认清形势！最后还是得靠中国解决",
        "url": "https://finance.sina.com.cn/wm/2023-12-01/doc-imzwmtch4834978.shtml",
        "docid": "mzwmtch4834978"
    },
    {
        "title": "事关房企，上交所重磅发声！",
        "url": "https://finance.sina.com.cn/jjxw/2023-11-30/doc-imzwmnvn9487831.shtml",
        "docid": "mzwmnvn9487831"
    },
    {
        "title": "富士康、和硕、台积电、联发科、华硕、台达等中国台湾17家电子企业2023年第三季度财报汇总",
        "url": "https://cj.sina.cn/articles/view/7207652843/1ad9c0deb0200184e4?from=finance",
        "docid": "mzwhaay6448142"
    },
    {
        "title": "印度最强财团，围猎富士康",
        "url": "https://finance.sina.com.cn/jjxw/2023-11-30/doc-imzwmhps1480158.shtml",
        "docid": "mzwmhps1480158"
    },
    {
        "title": "这次，睿远基金赵枫说了几句“真心话”",
        "url": "https://finance.sina.com.cn/roll/2023-11-30/doc-imzwmhps1496543.shtml",
        "docid": "mzwmhps1496543"
    },
    {
        "title": "男子含着蟑螂下馆子，敲诈商家10倍赔偿竟还索要“华子”",
        "url": "https://finance.sina.com.cn/jjxw/2023-11-30/doc-imzwmafs9680827.shtml",
        "docid": "mzwmafs9680827"
    },
    {
        "title": "存储芯片概念走强 深科技领涨",
        "url": "https://finance.sina.com.cn/jjxw/2023-11-29/doc-imzwfvux5787363.shtml",
        "docid": "mzwfvux5787363"
    },
    {
        "title": "最新！以色列和哈马斯都宣布了",
        "url": "https://finance.sina.com.cn/wm/2023-11-30/doc-imzwkrrr4616797.shtml",
        "docid": "mzwkrrr4616797"
    },
    {
        "title": "短剧互动概念快速回升 中广天择涨停",
        "url": "https://finance.sina.com.cn/roll/2023-11-30/doc-imzwkfac0041619.shtml",
        "docid": "mzwkfac0041619"
    },
    {
        "title": "西安有学校班级停课，停课标准是什么？疾控中心解释",
        "url": "https://finance.sina.com.cn/jjxw/2023-11-30/doc-imzwkrrt1399582.shtml",
        "docid": "mzwkrrt1399582"
    },
    {
        "title": "终于明白埃尔多安为什么突然强势插手巴以: 一张利益新版图的暗示",
        "url": "https://cj.sina.cn/articles/view/1548048170/5c45572a0270138wd?from=news&subch=onews",
        "docid": "mzwkrrw9869985"
    },
    {
        "title": "生猪去产能多年为何价格仍暴跌？",
        "url": "https://finance.sina.com.cn/jjxw/2023-11-30/doc-imzwkvxu9778728.shtml",
        "docid": "mzwkvxu9778728"
    },
    {
        "title": "最高65511元/㎡！金地青雲境第三批新品备案，二次摇号预定？",
        "url": "https://finance.sina.com.cn/jjxw/2023-11-30/doc-imzwkvxx8445070.shtml",
        "docid": "mzwkvxx8445070"
    },
    {
        "title": "23亿！中移动新建数据中心交换机产品集采结果出炉",
        "url": "https://t.cj.sina.cn/articles/view/1708813312/65da6c00019017dl2?from=tech",
        "docid": "mzwkvxx8448411"
    },
    {
        "title": "宁德时代大宗交易成交30.00万股 成交额5010.00万元",
        "url": "https://finance.sina.com.cn/stock/relnews/cn/2023-11-30/doc-imzwmafq5117601.shtml",
        "docid": "mzwmafq5117601"
    },
    {
        "title": "北汽蓝谷(600733.SH)：与北京汽车集团越野车公司在电池回收、车身试制方面存在一定的业务合作",
        "url": "https://finance.sina.com.cn/stock/hkstock/ggscyd/2023-11-30/doc-imzwmafq5132398.shtml",
        "docid": "mzwmafq5132398"
    },
    {
        "title": "中国联通：每股派现0.0796元（含税） 股权登记日为12月7日",
        "url": "https://cj.sina.cn/articles/view/2311077472/89c03e60020025flo?from=finance",
        "docid": "mzwmafq5141655"
    },
    {
        "title": "地产下行将是常态，央企也在卖资产",
        "url": "https://cj.sina.cn/articles/view/1887344341/707e96d502001f9hb?from=finance",
        "docid": "mzwkvxu9796828"
    },
    {
        "title": "“价值投资”已死？",
        "url": "https://cj.sina.cn/articles/view/3277221682/c3566f32019018jpr?from=finance",
        "docid": "mzwicqi5291399"
    },
    {
        "title": "机构：11月一线城市成交面积环比下降30%",
        "url": "https://cj.sina.cn/articles/view/1449365753/566390f9001011z1j?from=estate",
        "docid": "mzwkvxp4519543"
    },
    {
        "title": "“30票都没有，太伤自尊了！”韩国总统、外长接连道歉……",
        "url": "https://finance.sina.com.cn/jjxw/2023-12-01/doc-imzwmnvq1396938.shtml",
        "docid": "mzwmnvq1396938"
    },
    {
        "title": "人民币继续上涨创5个多月新高，年底前仍有升值空间？",
        "url": "https://finance.sina.com.cn/money/forex/rmb/2023-11-30/doc-imzwiytz1648279.shtml",
        "docid": "mzwiytz1648279"
    },
    {
        "title": "格力电器(000651.SZ)：累计耗资8.86亿元回购2688.565万股",
        "url": "https://cj.sina.cn/articles/view/5115326071/130e5ae770200210tp?from=finance",
        "docid": "mzwmhpt8253348"
    },
    {
        "title": "外盘头条：耶伦称美经济很可能软着陆失业率望企稳 OPEC+减产100万桶/日 没有芒格伯克希尔还能保持强劲吗？",
        "url": "https://finance.sina.com.cn/world/2023-12-01/doc-imzwmxmh9269963.shtml",
        "docid": "mzwmxmh9269963"
    },
    {
        "title": "中核钛白(002145.SZ)累计回购2.62%股份 耗资4.9亿元",
        "url": "https://finance.sina.com.cn/stock/hkstock/ggscyd/2023-11-30/doc-imzwmhpn5038062.shtml",
        "docid": "mzwmhpn5038062"
    },
    {
        "title": "上海发文，力推BIPV产业！每年新增市场空间近千亿，高增长潜力概念股仅16只",
        "url": "https://finance.sina.com.cn/stock/relnews/2023-11-30/doc-imzwkmit4713651.shtml",
        "docid": "mzwkmit4713651"
    },
    {
        "title": "比亚迪，造车之外另有“野心”",
        "url": "https://finance.sina.com.cn/wm/2023-11-29/doc-imzwhsyr2223738.shtml",
        "docid": "mzwhsyr2223738"
    },
    {
        "title": "欧佩克+宣布大幅减产、还将加入重磅成员，为何油价还是跌了……",
        "url": "https://finance.sina.com.cn/world/2023-12-01/doc-imzwmxme4713541.shtml",
        "docid": "mzwmxme4713541"
    },
    {
        "title": "黄仁勋：美国芯片供应链独立还要10到20年，AI将在5年内超越人类",
        "url": "https://t.cj.sina.cn/articles/view/5772303575/1580e5cd7027013ugu?from=tech",
        "docid": "mzwmhpn5042778"
    },
    {
        "title": "交警支队原政委落马后，半个月内55名党员干部主动向组织说明问题",
        "url": "https://finance.sina.com.cn/jjxw/2023-11-30/doc-imzwmhps1486992.shtml",
        "docid": "mzwmhps1486992"
    },
    {
        "title": "剑桥科技：公司最近400G生产是满负荷运转",
        "url": "https://finance.sina.com.cn/jjxw/2023-11-29/doc-imzwhhkv2391828.shtml",
        "docid": "mzwhhkv2391828"
    },
    {
        "title": "闻泰科技被剔出上证50指数，兴业基金、兴全基金、广发基金等持仓",
        "url": "https://cj.sina.cn/articles/view/3182600947/bdb2a2f3001010ac5?from=finance&subch=fund",
        "docid": "mzwkezv4787149"
    },
    {
        "title": "商务部最新回应！事关石墨出口管制，镓、锗出口......",
        "url": "https://finance.sina.com.cn/jjxw/2023-11-30/doc-imzwkvxs5206443.shtml",
        "docid": "mzwkvxs5206443"
    },
    {
        "title": "新华制药：公司生产销售格列美脲片（商品名：佳和洛）等降糖药，感谢您对公司关注！",
        "url": "https://cj.sina.cn/articles/view/1850649324/6e4eaaec02001ajbp?from=finance",
        "docid": "mzwkvxs5225912"
    },
    {
        "title": "孙远良案情披露：通过儿子受贿",
        "url": "https://finance.sina.com.cn/wm/2023-11-30/doc-imzwkvxs5233024.shtml",
        "docid": "mzwkvxs5233024"
    },
    {
        "title": "12月1日执行！部分猪禁止调入山东育肥！",
        "url": "https://finance.sina.com.cn/money/future/wemedia/2023-11-30/doc-imzwkvxs5233466.shtml",
        "docid": "mzwkvxs5233466"
    },
    {
        "title": "有点迟到，牛和春天一起回来，标的仅供参考",
        "url": "https://cj.sina.cn/articles/view/1284139322/4c8a693a027017l8b?from=finance",
        "docid": "mzwkvxu9788272"
    },
    {
        "title": "被纪委通报骚扰女服务员，本人回应称两次无意识碰到手臂被路人拍下举报，已深刻认识到错误",
        "url": "https://finance.sina.com.cn/jjxw/2023-11-30/doc-imzwkezx1574649.shtml",
        "docid": "mzwkezx1574649"
    },
    {
        "title": "西藏阿里“全体公务员”为车祸女子献血？多方回应",
        "url": "https://finance.sina.com.cn/jjxw/2023-11-29/doc-imzwicqr0567354.shtml",
        "docid": "mzwicqr0567354"
    },
    {
        "title": "恭喜，他们领证了！",
        "url": "https://finance.sina.com.cn/wm/2023-11-30/doc-imzwkrrw9861495.shtml",
        "docid": "mzwkrrw9861495"
    },
    {
        "title": "在轨卫星最多的5个国家！中国第2，美国第1，相当于俄罗斯19倍",
        "url": "https://cj.sina.cn/articles/view/1780635941/6a2259250010184j6?from=mil",
        "docid": "mzwkezv4771821"
    },
    {
        "title": "荣盛石化(002493.SZ)：第三期回购耗资20.38亿累计回购1.7239%股份",
        "url": "https://finance.sina.com.cn/stock/hkstock/ggscyd/2023-11-30/doc-imzwmhpq9601772.shtml",
        "docid": "mzwmhpq9601772"
    },
    {
        "title": "“老头马甲”，最新中产收割机？",
        "url": "https://finance.sina.com.cn/jjxw/2023-11-30/doc-imzwmafq5132154.shtml",
        "docid": "mzwmafq5132154"
    },
    {
        "title": "新亚制程(002388.SZ)：荣耀为公司的核心客户之一",
        "url": "https://finance.sina.com.cn/stock/hkstock/ggscyd/2023-11-29/doc-imzwhsys6217169.shtml",
        "docid": "mzwhsys6217169"
    },
    {
        "title": "光刻机概念震荡走低 亚威股份逼近跌停",
        "url": "https://finance.sina.com.cn/jjxw/2023-11-30/doc-imzwkrrw9843962.shtml",
        "docid": "mzwkrrw9843962"
    },
    {
        "title": "谁是亚洲第一大航空集团？",
        "url": "https://cj.sina.cn/articles/view/6825755809/196d8c4a1001025fj9?from=finance",
        "docid": "mzwkvxw1672797"
    },
    {
        "title": "宗校立:美元突现异样想法 小心应对",
        "url": "https://finance.sina.com.cn/money/forex/forexanaly/2023-11-30/doc-imzwmafq5126340.shtml",
        "docid": "mzwmafq5126340"
    },
    {
        "title": "拆分！余承东去掉“枷锁”，华为汽车开始狂奔",
        "url": "https://cj.sina.cn/articles/view/6241116541/173ffe17d0010150y4",
        "docid": "mzwkezx1588114"
    },
    {
        "title": "王健林，如释重负？",
        "url": "https://finance.sina.com.cn/stock/estate/sd/2023-11-30/doc-imzwkmiy9950380.shtml",
        "docid": "mzwkmiy9950380"
    },
    {
        "title": "从美的“太子”拿到近103亿，顾家家居变“何家”，顾江生梦飞了",
        "url": "https://cj.sina.cn/articles/view/6034141786/167a9b25a001010kpn?from=finance&subch=astocks",
        "docid": "mzwkrrt1389702"
    },
    {
        "title": "阿里、腾讯、百度都被犹太资本掌控了？",
        "url": "https://t.cj.sina.cn/articles/view/1749277070/m6843d98e033012o5d?from=tech",
        "docid": "mzwkvxu9772233"
    },
    {
        "title": "1-10月全国可再生能源发电装机新增1.91亿千瓦 同比增长90.8%",
        "url": "https://finance.sina.com.cn/jjxw/2023-11-30/doc-imzwkvxx8438331.shtml",
        "docid": "mzwkvxx8438331"
    },
    {
        "title": "12月券商金股组合出炉：电子、医药、汽车行业热度居前，北交所个股遇冷",
        "url": "https://finance.sina.com.cn/jjxw/2023-11-30/doc-imzwmafq5143680.shtml",
        "docid": "mzwmafq5143680"
    },
    {
        "title": "记者观察：过剩时代的选择",
        "url": "https://finance.sina.com.cn/jjxw/2023-11-30/doc-imzwmafs9675312.shtml",
        "docid": "mzwmafs9675312"
    },
    {
        "title": "金融监管总局黑龙江局原局长王柱被调查",
        "url": "https://cj.sina.cn/articles/view/1641561812/61d83ed4020016ja6?from=finance",
        "docid": "mzwmafs9684104"
    },
    {
        "title": "康强电子：没有直接的业务往来，公司半导体封装材料产品直接客户主要为封装测试企业",
        "url": "https://cj.sina.cn/articles/view/1850649324/6e4eaaec02001aji6?from=finance",
        "docid": "mzwmafs9689838"
    },
    {
        "title": "“抗癌神药”CAR-T反而陷入致癌疑云 临床专家、多家药企回应：暂未发现类似风险",
        "url": "https://finance.sina.com.cn/jjxw/2023-11-30/doc-imzwmafs9694628.shtml",
        "docid": "mzwmafs9694628"
    },
    {
        "title": "涉嫌非吸！某信托多名理财经理被带走调查！",
        "url": "https://cj.sina.cn/articles/view/5351575491/13efa8fc30190184nb?from=movie",
        "docid": "mzwkvxx8452134"
    },
    {
        "title": "41.42亿元一把脱手！内蒙古“煤老板”拿下3栋大悦城上海顶级豪宅",
        "url": "https://finance.sina.com.cn/roll/2023-11-30/doc-imzwmafu1588970.shtml",
        "docid": "mzwmafu1588970"
    },
    {
        "title": "一美容美发店顾客傻眼：明明充了5000元卡，还要再次续费才能用？",
        "url": "https://finance.sina.com.cn/jjxw/2023-11-30/doc-imzwmafv8350907.shtml",
        "docid": "mzwmafv8350907"
    },
    {
        "title": "卖不掉的券商股权：第五次挂牌价格打对折，是何原因让小券商股权转让如此尴尬？",
        "url": "https://finance.sina.com.cn/jjxw/2023-11-30/doc-imzwmhpq9578501.shtml",
        "docid": "mzwmhpq9578501"
    },
    {
        "title": "基辛格走了，他身前留下的那句名言仍在：我想只要喝了足够的茅台，我们就能解决一切问题",
        "url": "https://finance.sina.com.cn/jjxw/2023-11-30/doc-imzwmhps1493156.shtml",
        "docid": "mzwmhps1493156"
    },
    {
        "title": "大手笔！家电龙头美的拟注销逾35亿元股份",
        "url": "https://finance.sina.com.cn/jjxw/2023-12-01/doc-imzwncti7862216.shtml",
        "docid": "mzwncti7862216"
    },
    {
        "title": "“我等了15年，才住进当年购买的房子”",
        "url": "https://finance.sina.com.cn/tech/roll/2023-12-01/doc-imzwmnvr8163575.shtml",
        "docid": "mzwmnvr8163575"
    },
    {
        "title": "基辛格去世，但这段历史不容美化！",
        "url": "https://finance.sina.com.cn/wm/2023-12-01/doc-imzwncth1082745.shtml",
        "docid": "mzwncth1082745"
    },
    {
        "title": "饿了就吃几个！宁波女子看到胃镜报告惊呆了！足足10厘米……正大量上市，医生紧急提醒：千万别这么吃",
        "url": "https://finance.sina.com.cn/wm/2023-12-01/doc-imzwncte9170018.shtml",
        "docid": "mzwncte9170018"
    },
    {
        "title": "让人瞠目结舌的一幕",
        "url": "https://finance.sina.com.cn/jjxw/2023-12-01/doc-imzwniyy4485264.shtml",
        "docid": "mzwniyy4485264"
    },
    {
        "title": "各大车企年末冲量再掀价格战：有车型直降10万元，各地狂撒“消费券”，销售喊话“能定就来”",
        "url": "https://finance.sina.com.cn/jjxw/2023-12-01/doc-imzwmnvk4941262.shtml",
        "docid": "mzwmnvk4941262"
    },
    {
        "title": "代销保险成银行“香饽饽” 部分产品预期收益突破4%",
        "url": "https://finance.sina.com.cn/jjxw/2023-12-01/doc-imzwncti7848351.shtml",
        "docid": "mzwncti7848351"
    },
    {
        "title": "中国互联网行业分水岭？拼多多收盘市值超过阿里，成中概股市值第一",
        "url": "https://finance.sina.com.cn/jjxw/2023-12-01/doc-imzwncti7868152.shtml",
        "docid": "mzwncti7868152"
    },
    {
        "title": "跑不脱！恶犬被送走当天咬人 现主人、原主人、介绍人均赔钱",
        "url": "https://finance.sina.com.cn/jjxw/2023-11-29/doc-imzwhxhq6089304.shtml",
        "docid": "mzwhxhq6089304"
    },
    {
        "title": "与市委书记会谈后，王思聪签约37亿文旅项目！万达最新回应：与万达没有关系",
        "url": "https://finance.sina.com.cn/jjxw/2023-12-01/doc-imzwmnvn9498635.shtml",
        "docid": "mzwmnvn9498635"
    },
    {
        "title": "浦发一分行监管银行资格被终止！涉擅自划扣商品房预售资金，昔日“对公之王”何时归？",
        "url": "https://finance.sina.com.cn/jinrong/yh/2023-11-30/doc-imzwmafv8358124.shtml",
        "docid": "mzwmafv8358124"
    },
    {
        "title": "肺炎支原体自测盒大卖，医生：准确率不高",
        "url": "https://finance.sina.com.cn/jjxw/2023-11-30/doc-imzwmafq5132118.shtml",
        "docid": "mzwmafq5132118"
    },
    {
        "title": "为什么恒生科技没有拼多多？",
        "url": "https://finance.sina.com.cn/money/fund/etf/2023-12-01/doc-imzwniyy4522644.shtml",
        "docid": "mzwniyy4522644"
    },
    {
        "title": "特斯拉电动皮卡Cybertruck北美正式开启交付，60990美元起售",
        "url": "https://finance.sina.com.cn/jjxw/2023-12-01/doc-imzwncth1084342.shtml",
        "docid": "mzwncth1084342"
    },
    {
        "title": "拜登和特朗普都被华尔街嫌弃，一个太老一个太疯",
        "url": "https://t.cj.sina.cn/articles/view/6652024365/18c7dd62d019015bvh?from=news&subch=onews",
        "docid": "mzwkmiw5384098"
    },
    {
        "title": "一个时代结束了……",
        "url": "https://cj.sina.cn/articles/view/1907056614/71ab5fe60270184qk?from=finance",
        "docid": "mzwmnvn9481955"
    },
    {
        "title": "两年半（白干）：214 万（没了）",
        "url": "https://t.cj.sina.cn/articles/view/3172142827/bd130eeb019013atd?from=tech",
        "docid": "mzwmnvq1371523"
    },
    {
        "title": "宝龙地产正式宣布违约",
        "url": "https://finance.sina.com.cn/wm/2023-12-01/doc-imzwnizf7758786.shtml",
        "docid": "mzwnizf7758786"
    },
    {
        "title": "七成房企暂停拿地，房地产增量在“三大工程”",
        "url": "https://cj.sina.cn/articles/view/1403815095/m53ac84b7033013fkz?from=estate",
        "docid": "mzwmafq5123052"
    },
    {
        "title": "碳酸锂期货再跌4%续创新低 机构称调整手续费能抑制市场投机度",
        "url": "https://finance.sina.com.cn/roll/2023-12-01/doc-imzwniyy4519395.shtml",
        "docid": "mzwniyy4519395"
    },
    {
        "title": "“杭州女童坠亡案”保姆女儿在合肥起诉雇主：索赔1元！未当庭宣判！",
        "url": "https://finance.sina.com.cn/jjxw/2023-11-29/doc-imzwhxhq6109876.shtml",
        "docid": "mzwhxhq6109876"
    },
    {
        "title": "今年只剩一个月，A股能翻红？",
        "url": "https://cj.sina.cn/articles/view/1791653972/6aca785402701q3yu?from=finance",
        "docid": "mzwniza9069939"
    },
    {
        "title": "华为联盟，救急难救穷？",
        "url": "https://cj.sina.cn/articles/view/5885710293/15ed0cfd500101lt3q",
        "docid": "mzwhsyr2238330"
    },
    {
        "title": "确认：以色列平民被以军打死",
        "url": "https://finance.sina.com.cn/wm/2023-12-01/doc-imzwnize1002666.shtml",
        "docid": "mzwnize1002666"
    },
    {
        "title": "华为凭什么敢用智界S7挑战特斯拉",
        "url": "https://t.cj.sina.cn/articles/view/2286037382/8842298601901a6mo?from=tech",
        "docid": "mzwmnvn9488969"
    },
    {
        "title": "干部任前公示公告",
        "url": "https://finance.sina.com.cn/jjxw/2023-12-01/doc-imzwnize0973392.shtml",
        "docid": "mzwnize0973392"
    },
    {
        "title": "月评：一顿操作猛如虎，结果只涨0.5",
        "url": "https://finance.sina.com.cn/tech/roll/2023-12-01/doc-imzwmxme4709207.shtml",
        "docid": "mzwmxme4709207"
    },
    {
        "title": "全球首块钙钛矿叠层组件出世 效率超过26%",
        "url": "https://finance.sina.com.cn/stock/relnews/cn/2023-11-30/doc-imzwmafs9689657.shtml",
        "docid": "mzwmafs9689657"
    },
    {
        "title": "全球新能源车销量榜出炉：特斯拉第一，比亚迪插混没有对手",
        "url": "https://t.cj.sina.cn/articles/view/5061312402/12dad7f9202001rl82?from=tech",
        "docid": "mzwkvxr1310073"
    },
    {
        "title": "如果锂价跌至10万元，约有六成左右的锂盐上市公司将面临亏损",
        "url": "https://finance.sina.com.cn/stock/hkstock/marketalerts/2023-11-29/doc-imzwhxhm5368403.shtml",
        "docid": "mzwhxhm5368403"
    },
    {
        "title": "“安全才是最大的豪华”华为智界S7有多安全！？",
        "url": "https://t.cj.sina.cn/articles/view/5659857576/1515a92a8001011rsh?from=auto",
        "docid": "mzwhhkt5605536"
    },
    {
        "title": "智己LS6周周榜首，上汽超级品牌实力不俗",
        "url": "https://cj.sina.cn/articles/view/7474165994/1bd7eb8ea02001b36c?from=auto&subch=oauto",
        "docid": "mzwkrrw9857630"
    },
    {
        "title": "新能源汽车再突破",
        "url": "https://finance.sina.com.cn/jjxw/2023-11-30/doc-imzwkvxs5221362.shtml",
        "docid": "mzwkvxs5221362"
    },
    {
        "title": "福达股份(603166.SH)已耗资4078.06万元回购654.82万股 占总股本1.01%",
        "url": "https://finance.sina.com.cn/stock/hkstock/ggscyd/2023-11-30/doc-imzwkvxs5222971.shtml",
        "docid": "mzwkvxs5222971"
    },
    {
        "title": "超募26亿，阿特斯拟拿出5亿扩产硅片，股价快跌回发行价",
        "url": "https://cj.sina.cn/articles/view/6372873842/17bda5672020018cxt",
        "docid": "mzwkvxs5229324"
    },
    {
        "title": "地方债余额首次突破40万亿，中央要求优化央地债务结构",
        "url": "https://finance.sina.com.cn/roll/2023-11-30/doc-imzwmafq5132055.shtml",
        "docid": "mzwmafq5132055"
    },
    {
        "title": "市场在赌美国经济硬着陆",
        "url": "https://finance.sina.com.cn/wm/2023-11-30/doc-imzwmhpn5039531.shtml",
        "docid": "mzwmhpn5039531"
    },
    {
        "title": "老人去世后留下180万存单,外地次子起诉要与哥哥均分,法院判了！",
        "url": "https://finance.sina.com.cn/jjxw/2023-11-30/doc-imzwmafq5145158.shtml",
        "docid": "mzwmafq5145158"
    },
    {
        "title": "深夜！北交所突发！两大牛股要复牌了",
        "url": "https://finance.sina.com.cn/stock/marketresearch/2023-12-01/doc-imzwncta4608705.shtml",
        "docid": "mzwncta4608705"
    },
    {
        "title": "“科目三”刷屏爆火，多人已崴脚！这3种人千万注意→",
        "url": "https://finance.sina.com.cn/wm/2023-11-30/doc-imzwmhpn5036297.shtml",
        "docid": "mzwmhpn5036297"
    },
    {
        "title": "沙特获2030年世博会主办权，前期热门韩国被大票数击败，韩网友评本国宣传片：只有江南style和K-pop拿得出手",
        "url": "https://finance.sina.com.cn/jjxw/2023-11-30/doc-imzwmnvq1372756.shtml",
        "docid": "mzwmnvq1372756"
    },
    {
        "title": "宁波银行：持股5%以上股东雅戈尔集团股份增持股份，累计持股比例提至9.97%",
        "url": "https://finance.sina.com.cn/jryx/bank/2023-12-01/doc-imzwnize0966370.shtml",
        "docid": "mzwnize0966370"
    },
    {
        "title": "买国产新能源车，一定要“谨慎”！",
        "url": "https://t.cj.sina.cn/articles/view/1219921942/48b6881601901fu91?from=tech",
        "docid": "mzwmhps1475777"
    },
    {
        "title": "美的集团拟注销回购股份：提升每股收益，股东权益迎利好",
        "url": "https://finance.sina.com.cn/stock/relnews/cn/2023-12-01/doc-imzwncta4615698.shtml",
        "docid": "mzwncta4615698"
    },
    {
        "title": "京新药业(002020)：失眠新药地达西尼获批上市 引燃国内失眠药物市场",
        "url": "https://finance.sina.com.cn/stock/relnews/cn/2023-12-01/doc-imzwniyy4497110.shtml",
        "docid": "mzwniyy4497110"
    },
    {
        "title": "刚刚，比亚迪官宣：限时钜惠，最高20000元！",
        "url": "https://finance.sina.com.cn/jjxw/2023-12-01/doc-imzwnqhy8968819.shtml",
        "docid": "mzwnqhy8968819"
    },
    {
        "title": "韩媒担忧：“这个市场全都要被中国抢走了”",
        "url": "https://cj.sina.cn/articles/view/5328873187/13da026e3019016n0v?from=finance",
        "docid": "mzwncta4612206"
    },
    {
        "title": "广州11月二手房成交破万套",
        "url": "https://finance.sina.com.cn/jjxw/2023-12-01/doc-imzwncta4610139.shtml",
        "docid": "mzwncta4610139"
    },
    {
        "title": "男子买韭菜炒出像洗衣液绿色汤汁，有人怀疑是用了保鲜的波尔多液",
        "url": "https://t.cj.sina.cn/articles/view/6212976462/172527f4e02001b3du?from=tech",
        "docid": "mzwnize1006687"
    },
    {
        "title": "信维通信(300136.SZ)：卫星通讯、智能汽车、物联网均是目前公司重点挖掘的新业务领域",
        "url": "https://finance.sina.com.cn/stock/relnews/cn/2023-11-30/doc-imzwkvxu9793521.shtml",
        "docid": "mzwkvxu9793521"
    },
    {
        "title": "泰永长征连收3个涨停板",
        "url": "https://finance.sina.com.cn/jjxw/2023-12-01/doc-imzwniyy4515689.shtml",
        "docid": "mzwniyy4515689"
    },
    {
        "title": "打破韩系垄断，中国首条高世代OLED面板产线将落地成都",
        "url": "https://cj.sina.cn/articles/view/1678885903/6411c40f00101a7ni?from=finance",
        "docid": "mzwkrrt1418334"
    },
    {
        "title": "外交部：敦促立方回到一个中国的正确轨道上来",
        "url": "https://finance.sina.com.cn/jjxw/2023-11-30/doc-imzwkvxp4516451.shtml",
        "docid": "mzwkvxp4516451"
    },
    {
        "title": "打通大模型训练任督二脉！国内首个千亿参数、全面开源大模型来了，还联手开发者共训",
        "url": "https://t.cj.sina.cn/articles/view/5213469505/136bf3b41020010q74?from=tech",
        "docid": "mzwmafq5125662"
    },
    {
        "title": "军机刹车制造龙头——北摩高科成长空间广阔",
        "url": "https://cj.sina.cn/articles/view/2311077472/89c03e60020025fkd?from=finance",
        "docid": "mzwmafq5130798"
    },
    {
        "title": "又一城市宣告破产！",
        "url": "https://finance.sina.com.cn/wm/2023-11-30/doc-imzwkrrw9877607.shtml",
        "docid": "mzwkrrw9877607"
    },
    {
        "title": "男子跑分50万被同伙打一耳光后抢走",
        "url": "https://finance.sina.com.cn/jjxw/2023-12-01/doc-imzwncta4610961.shtml",
        "docid": "mzwncta4610961"
    },
    {
        "title": "不再遮掩，拜登政府承认援乌是笔“大生意” | 京酿馆",
        "url": "https://finance.sina.com.cn/wm/2023-11-30/doc-imzwkmiw5380616.shtml",
        "docid": "mzwkmiw5380616"
    },
    {
        "title": "寻找受害人！这个“渣男”骗财骗色，曾与20多名女性交往",
        "url": "https://finance.sina.com.cn/jjxw/2023-12-01/doc-imzwnize0965886.shtml",
        "docid": "mzwnize0965886"
    },
    {
        "title": "为什么现在是抄底美团的最佳时机？",
        "url": "https://cj.sina.cn/articles/view/7043693474/1a3d63ba2027013j74?from=finance",
        "docid": "mzwnqhw4422003"
    },
    {
        "title": "北向资金大幅减持股名单",
        "url": "https://finance.sina.com.cn/jjxw/2023-11-30/doc-imzwkezv4773313.shtml",
        "docid": "mzwkezv4773313"
    },
    {
        "title": "警惕！多国暴发疫情！已出现死亡病例",
        "url": "https://finance.sina.com.cn/jjxw/2023-12-01/doc-imzwncta4609457.shtml",
        "docid": "mzwncta4609457"
    },
    {
        "title": "日本反对无效",
        "url": "https://finance.sina.com.cn/wm/2023-12-01/doc-imzwnqhw4431288.shtml",
        "docid": "mzwnqhw4431288"
    },
    {
        "title": "以媒爆料：布林肯三访以色列“罕见训斥”，美以会晤出现“不寻常对抗”",
        "url": "https://finance.sina.com.cn/roll/2023-12-01/doc-imzwnqic7680447.shtml",
        "docid": "mzwnqic7680447"
    },
    {
        "title": "\"半小时缩水4000元\"？知名平台道歉！",
        "url": "https://t.cj.sina.cn/articles/view/1989020644/768e0be401901a1ii?from=digit",
        "docid": "mzwkmiw5381970"
    },
    {
        "title": "地铁普遍亏损背后：最赚钱的为何是武汉？",
        "url": "https://finance.sina.com.cn/china/gncj/2023-12-01/doc-imzwncte9169780.shtml",
        "docid": "mzwncte9169780"
    },
    {
        "title": "3013.63亿元！恒大地产集团最新公告",
        "url": "https://finance.sina.com.cn/chanjing/gsnews/2023-12-01/doc-imzwnqic7698740.shtml",
        "docid": "mzwnqic7698740"
    },
    {
        "title": "视频|斯坦福华人女博士休学造出最强视频AI，半个硅谷参投",
        "url": "https://finance.sina.com.cn/tech/2023-12-01/doc-imzwniyy4519958.shtml",
        "docid": "mzwniyy4519958"
    },
    {
        "title": "碧桂园获邀参加工商银行组织的房企座谈会",
        "url": "https://finance.sina.com.cn/chanjing/gsnews/2023-11-30/doc-imzwkrrw9881167.shtml",
        "docid": "mzwkrrw9881167"
    },
    {
        "title": "特斯拉Cybertruck正式交付 部分性能堪比跑车 缺点就是贵！",
        "url": "https://finance.sina.com.cn/stock/relnews/us/2023-12-01/doc-imzwniza9063248.shtml",
        "docid": "mzwniza9063248"
    },
    {
        "title": "上千员工涉培训考试作弊，普华永道中国内地和香港分公司被罚700万美元",
        "url": "https://finance.sina.com.cn/jjxw/2023-12-01/doc-imzwnize0984754.shtml",
        "docid": "mzwnize0984754"
    },
    {
        "title": "数据造假？国家统计局罕见发声，两省被点名！",
        "url": "https://finance.sina.cn/2023-12-01/detail-imzwnqic7678503.d.html",
        "docid": "mzwnqic7678503"
    },
    {
        "title": "茅台带着周杰伦，抢不了百润的生意",
        "url": "https://finance.sina.com.cn/jjxw/2023-12-01/doc-imzwnqic7658260.shtml",
        "docid": "mzwnqic7658260"
    },
    {
        "title": "新华时评：美企用脚投票反对“脱钩断链”",
        "url": "https://finance.sina.com.cn/jjxw/2023-12-01/doc-imzwnqia0897345.shtml",
        "docid": "mzwnqia0897345"
    },
    {
        "title": "字节跳动“断舍离”朝夕光年 游戏市场进入存量竞争阶段",
        "url": "https://finance.sina.com.cn/jjxw/2023-12-01/doc-imzwmtch4818741.shtml",
        "docid": "mzwmtch4818741"
    },
    {
        "title": "准备好！2023最后一个月，拐点已来！",
        "url": "https://finance.sina.com.cn/wm/2023-12-01/doc-imzwncte9171810.shtml",
        "docid": "mzwncte9171810"
    },
    {
        "title": "李国庆连麦中吐槽前妻，张兰这回没惯着",
        "url": "https://finance.sina.com.cn/hy/hyjz/2023-11-30/doc-imzwmhpq9602060.shtml",
        "docid": "mzwmhpq9602060"
    },
    {
        "title": "家长日记：从14日晚排到19日凌晨，孩子的呼吸道感染熬成了肺炎",
        "url": "https://finance.sina.com.cn/jjxw/2023-11-30/doc-imzwmhpq9591554.shtml",
        "docid": "mzwmhpq9591554"
    },
    {
        "title": "主持人朱丹被骗涉案公司已被吊销，最终自己扛下所有债务",
        "url": "https://t.cj.sina.cn/articles/view/6212976462/172527f4e02001b3ga?from=tech",
        "docid": "mzwnqhw4432210"
    },
    {
        "title": "房企降价：两难之间",
        "url": "https://finance.sina.com.cn/jjxw/2023-12-01/doc-imzwniza9082991.shtml",
        "docid": "mzwniza9082991"
    },
    {
        "title": "造谣郑强人员被抓 系去年刑满释放人员",
        "url": "https://finance.sina.com.cn/jjxw/2023-12-01/doc-imzwnqhw4407804.shtml",
        "docid": "mzwnqhw4407804"
    },
    {
        "title": "父亲未按承诺帮儿子买房，被告上法庭……法院判了！",
        "url": "https://finance.sina.com.cn/jjxw/2023-12-01/doc-imzwniza9068888.shtml",
        "docid": "mzwniza9068888"
    },
    {
        "title": "爱尔眼科(300015.SZ)累计回购1131.04万股 耗资2.04亿元",
        "url": "https://finance.sina.com.cn/stock/hkstock/ggscyd/2023-11-30/doc-imzwmhpq9591494.shtml",
        "docid": "mzwmhpq9591494"
    },
    {
        "title": "彻底爆发！久违一幕",
        "url": "https://finance.sina.com.cn/jjxw/2023-12-01/doc-imzwnuqw8864567.shtml",
        "docid": "mzwnuqw8864567"
    },
    {
        "title": "美媒：布林肯警告以色列，战争持续时间越长，全球对美以的压力越大",
        "url": "https://finance.sina.com.cn/jjxw/2023-12-01/doc-imzwnuqu4313675.shtml",
        "docid": "mzwnuqu4313675"
    },
    {
        "title": "高调炫耀的阿里血槽姐，到底刺痛了谁的心？",
        "url": "https://finance.sina.com.cn/stock/estate/sd/2023-11-30/doc-imzwmhpq9588032.shtml",
        "docid": "mzwmhpq9588032"
    },
    {
        "title": "一个信号发出强烈警告 美国经济比想象中糟糕",
        "url": "https://finance.sina.com.cn/stock/hkstock/hkstocknews/2023-12-01/doc-imzwncti7847929.shtml",
        "docid": "mzwncti7847929"
    },
    {
        "title": "“宁王”发力！已累计回购近8亿元",
        "url": "https://finance.sina.com.cn/jjxw/2023-12-01/doc-imzwnuqz7570374.shtml",
        "docid": "mzwnuqz7570374"
    },
    {
        "title": "终结燃油！比亚迪官宣：8.98万的秦PLUS DM-i来了",
        "url": "https://t.cj.sina.cn/articles/view/1659643027/62ec249302001aq4m?from=tech",
        "docid": "mzwnqhw4404967"
    },
    {
        "title": "一个中国企业22年只做椅子，申请了1267项专利，卖遍全球",
        "url": "https://finance.sina.com.cn/wm/2023-11-30/doc-imzwmafs9669391.shtml",
        "docid": "mzwmafs9669391"
    },
    {
        "title": "国务院任免国家工作人员",
        "url": "https://cj.sina.cn/articles/view/6456450127/180d59c4f02001rb0r?from=news&subch=onews",
        "docid": "mzwncth1073897"
    },
    {
        "title": "典型案例丨青海省柴达木盆地盐湖资源开发无序扩张 加剧生态环境承载负担",
        "url": "https://finance.sina.com.cn/money/future/fmnews/2023-12-01/doc-imzwnqia0904737.shtml",
        "docid": "mzwnqia0904737"
    },
    {
        "title": "华为车BU“起死回生”后单飞，余承东剑指车圈话事人｜未来车研所",
        "url": "https://t.cj.sina.cn/articles/view/1856404484/6ea67c0402701a6p4",
        "docid": "mzwnqhw4421919"
    },
    {
        "title": "润和软件：公司暂未涉及自主研发算力芯片业务",
        "url": "https://cj.sina.cn/articles/view/1850649324/6e4eaaec02001ajc0?from=finance",
        "docid": "mzwkvxu9783293"
    },
    {
        "title": "消费下沉了，二手车为什么还是没人买？",
        "url": "https://finance.sina.com.cn/jjxw/2023-11-30/doc-imzwmafq5120671.shtml",
        "docid": "mzwmafq5120671"
    },
    {
        "title": "再见了！曾为亚洲第一的秦岭水泥厂",
        "url": "https://cj.sina.cn/articles/view/2268603763/87382573027013bkm?from=finance",
        "docid": "mzwkvxu9758539"
    },
    {
        "title": "在阿里集团总部，马云有一天去上厕所……",
        "url": "https://t.cj.sina.cn/articles/view/5074648251/12e78fcbb04001615q?from=tech",
        "docid": "mzwnuqu4310391"
    },
    {
        "title": "又有银行触发股价维稳，高管“护盘”效果甚微，银行股“破净”何时迎价值回归",
        "url": "https://cj.sina.cn/articles/view/5617041192/14ecd3f2802001evfo?from=finance",
        "docid": "mzwmhpt8254492"
    },
    {
        "title": "市场：你涨你的羽绒服 顾客：我买我的军大衣",
        "url": "https://finance.sina.com.cn/jjxw/2023-11-30/doc-imzwiiwi1938932.shtml",
        "docid": "mzwiiwi1938932"
    },
    {
        "title": "马云着急了？",
        "url": "https://finance.sina.com.cn/money/smjj/smdt/2023-11-29/doc-imzwhxht0678750.shtml",
        "docid": "mzwhxht0678750"
    },
    {
        "title": "3年300亿！大股东坚定“回购”背后，格力底气何在？",
        "url": "https://finance.sina.com.cn/tech/it/2023-12-01/doc-imzwnqhy8977291.shtml",
        "docid": "mzwnqhy8977291"
    },
    {
        "title": "43.5万元起，特斯拉交付首批电动皮卡！号称可行驶在任何星球表面，网友：这车怎么看起来这么眼熟？",
        "url": "https://finance.sina.com.cn/jjxw/2023-12-01/doc-imzwnqhw4418097.shtml",
        "docid": "mzwnqhw4418097"
    },
    {
        "title": "北证50连续4日大跌，交投连续萎缩，汇添富北证50（A：017519 C：017520）基金经理火线发声！",
        "url": "https://finance.sina.com.cn/money/fund/etf/2023-12-01/doc-imzwnuqy0820615.shtml",
        "docid": "mzwnuqy0820615"
    },
    {
        "title": "最新：“布林肯警告以色列”",
        "url": "https://finance.sina.com.cn/jjxw/2023-12-01/doc-imzwnuqw8870455.shtml",
        "docid": "mzwnuqw8870455"
    },
    {
        "title": "联发科为什么无法替代华为麒麟？",
        "url": "https://t.cj.sina.cn/articles/view/5048846089/12cef470900101al4t?from=digit",
        "docid": "mzwnuqy0793769"
    },
    {
        "title": "最新消息！免税！",
        "url": "https://cj.sina.cn/articles/view/2137096053/7f617f7501901cjvp?from=society",
        "docid": "mzwnqic7694692"
    },
    {
        "title": "重磅！中国版的 GPTs 就要来了？",
        "url": "https://t.cj.sina.cn/articles/view/1931279877/731cfe05001011osp",
        "docid": "mzwnqic7670003"
    },
    {
        "title": "美英真干得出来",
        "url": "https://finance.sina.com.cn/jjxw/2023-11-30/doc-imzwkfac0037586.shtml",
        "docid": "mzwkfac0037586"
    },
    {
        "title": "北交所“打新”越来越卷 上周2只新股网上冻结资金规模都超千亿",
        "url": "https://finance.sina.com.cn/jjxw/2023-11-29/doc-imzwicqr0567125.shtml",
        "docid": "mzwicqr0567125"
    },
    {
        "title": "以色列部长威胁：内塔尼亚胡同意停战就“解散政府”",
        "url": "https://finance.sina.com.cn/jjxw/2023-11-30/doc-imzwkrrw9862935.shtml",
        "docid": "mzwkrrw9862935"
    },
    {
        "title": "小米汽车SU7内饰图曝光 比：比亚迪汉还大",
        "url": "https://finance.sina.com.cn/jjxw/2023-12-01/doc-imzwnuqu4315671.shtml",
        "docid": "mzwnuqu4315671"
    },
    {
        "title": "北交所又找不着北？",
        "url": "https://finance.sina.com.cn/tech/roll/2023-12-01/doc-imzwmnvr8174775.shtml",
        "docid": "mzwmnvr8174775"
    },
    {
        "title": "威帝股份连收3个涨停板",
        "url": "https://finance.sina.com.cn/jjxw/2023-12-01/doc-imzwnize0996034.shtml",
        "docid": "mzwnize0996034"
    },
    {
        "title": "长安汽车股价创历史新高",
        "url": "https://cj.sina.cn/articles/view/1657130987/62c5cfeb001012vfy?from=finance",
        "docid": "mzwhxhm5375018"
    },
    {
        "title": "据市场消息，日本机器人制造商安川电机考虑",
        "url": "https://finance.sina.com.cn/stock/hkstock/marketalerts/2023-11-30/doc-imzwkezv4813536.shtml",
        "docid": "mzwkezv4813536"
    },
    {
        "title": "突发！“国家队”进场，“中字头”爆发！",
        "url": "https://finance.sina.com.cn/stock/marketresearch/2023-12-01/doc-imzwnywu8769385.shtml",
        "docid": "mzwnywu8769385"
    },
    {
        "title": "最高利率达3.85%！这个比肩“存款特种兵”的品种突然热了",
        "url": "https://finance.sina.com.cn/money/fund/jjzl/2023-11-30/doc-imzwmnvk4926852.shtml",
        "docid": "mzwmnvk4926852"
    },
    {
        "title": "江西刘先生崩溃了！才买了半年……",
        "url": "https://finance.sina.com.cn/wm/2023-12-01/doc-imzwnyww0698737.shtml",
        "docid": "mzwnyww0698737"
    },
    {
        "title": "高中家长会，爸爸变多了？",
        "url": "https://finance.sina.com.cn/jjxw/2023-12-01/doc-imzwniza9075232.shtml",
        "docid": "mzwniza9075232"
    },
    {
        "title": "利好！美的集团拟注销剩余回购股份6980.79万股",
        "url": "https://finance.sina.com.cn/stock/roll/2023-12-01/doc-imzwniyy4510045.shtml",
        "docid": "mzwniyy4510045"
    },
    {
        "title": "东方日升(300118.SZ)：耗资1.46亿元以集中竞价回购830.03万股",
        "url": "https://finance.sina.com.cn/stock/hkstock/ggscyd/2023-11-30/doc-imzwmhpq9602863.shtml",
        "docid": "mzwmhpq9602863"
    },
    {
        "title": "14分钟卖出3000辆，广州跑出隐形汽车黑马",
        "url": "https://cj.sina.cn/articles/view/1651428902/626ece260200160rd?from=auto&subch=oauto",
        "docid": "mzwmnvn9490439"
    },
    {
        "title": "CPO概念股震荡拉升 光迅科技午后涨停",
        "url": "https://finance.sina.com.cn/roll/2023-12-01/doc-imzwnuqu4333117.shtml",
        "docid": "mzwnuqu4333117"
    },
    {
        "title": "华为建联盟，赛力斯必须跟",
        "url": "https://finance.sina.com.cn/jjxw/2023-12-01/doc-imzwnuqu4332586.shtml",
        "docid": "mzwnuqu4332586"
    },
    {
        "title": "存储芯片板块拉升 佰维存储大涨10%",
        "url": "https://t.cj.sina.cn/articles/view/2868676035/aafc85c3020017aut?from=tech",
        "docid": "mzwnuqw8891465"
    },
    {
        "title": "展望2024年经济：中国经济爬坡过坎",
        "url": "https://finance.sina.com.cn/china/2023-12-01/doc-imzwnqhy8963095.shtml",
        "docid": "mzwnqhy8963095"
    },
    {
        "title": "美联储官员口风变了 稍微向该央行何时降息的市场对话靠拢",
        "url": "https://finance.sina.com.cn/stock/usstock/c/2023-12-01/doc-imzwnizf7744400.shtml",
        "docid": "mzwnizf7744400"
    },
    {
        "title": "美联储官员暗示加息或已结束 但下结论还为时过早",
        "url": "https://finance.sina.com.cn/stock/hkstock/ggscyd/2023-12-01/doc-imzwnqic7666972.shtml",
        "docid": "mzwnqic7666972"
    },
    {
        "title": "金融反腐不断：11月至少13人被处分",
        "url": "https://finance.sina.com.cn/jjxw/2023-12-01/doc-imzwnuqz7592961.shtml",
        "docid": "mzwnuqz7592961"
    },
    {
        "title": "“市场没有看清阿里全貌”？瑞银、高盛等纷纷“力挺”",
        "url": "https://finance.sina.com.cn/stock/relnews/us/2023-12-01/doc-imzwnqia0900783.shtml",
        "docid": "mzwnqia0900783"
    },
    {
        "title": "锂矿板块异动拉升 西藏矿业涨停",
        "url": "https://cj.sina.cn/articles/view/2868676035/aafc85c3020017auk?from=finance",
        "docid": "mzwnuqu4326425"
    },
    {
        "title": "三季度全球纯电动车销量排名出炉！比亚迪逼近特斯拉",
        "url": "https://finance.sina.com.cn/tech/mobile/n/n/2023-12-01/doc-imzwkrrw9863057.shtml",
        "docid": "mzwkrrw9863057"
    },
    {
        "title": "中国代工厂现状：零售100的内裤，工厂只赚几块钱",
        "url": "https://finance.sina.com.cn/wm/2023-11-30/doc-imzwmafq5111772.shtml",
        "docid": "mzwmafq5111772"
    },
    {
        "title": "充电10分钟续行400公里电池正落地量产，宁德时代向零碳电池产业链迈进",
        "url": "https://finance.sina.com.cn/jjxw/2023-11-30/doc-imzwmafs9667929.shtml",
        "docid": "mzwmafs9667929"
    },
    {
        "title": "“超级牛散”葛卫东、王孝安新建仓了这些标的？华为概念、培育钻石领域备受关注！",
        "url": "https://finance.sina.com.cn/stock/marketresearch/2023-11-30/doc-imzwmafs9671509.shtml",
        "docid": "mzwmafs9671509"
    },
    {
        "title": "反转，可能要等到明年三季度了",
        "url": "https://cj.sina.cn/articles/view/6098228048/16b7b9350001013lmd?from=finance&subch=futures",
        "docid": "mzwnizf7775467"
    },
    {
        "title": "女生为避无效社交朋友圈发文不随礼引热议：网友称90%同学没用 都是塑料感情",
        "url": "https://finance.sina.com.cn/tech/mobile/n/n/2023-12-01/doc-imzwnizf7742050.shtml",
        "docid": "mzwnizf7742050"
    },
    {
        "title": "事关朝鲜，韩国、美国宣布！",
        "url": "https://finance.sina.com.cn/jjxw/2023-12-01/doc-imzwnuqw8864622.shtml",
        "docid": "mzwnuqw8864622"
    },
    {
        "title": "一个人越没钱，越不建议做6件事，避免越做越穷",
        "url": "https://cj.sina.cn/articles/view/7631269926/1c6dbf02600100ygro?from=finance",
        "docid": "mzwnize0998583"
    },
    {
        "title": "新股N中机午后大涨209%，触发临时停牌",
        "url": "https://cj.sina.cn/articles/view/5044281310/12ca99fde020022eq9?from=finance",
        "docid": "mzwnuqu4319103"
    },
    {
        "title": "美英法出席“挺巴”活动，巴林代表当面怒斥：你们像杀了人再来吊丧",
        "url": "https://cj.sina.cn/articles/view/1887344341/707e96d502001f9rg?from=finance",
        "docid": "mzwnyws4217913"
    },
    {
        "title": "北向资金高比例持有股票名单",
        "url": "https://finance.sina.com.cn/jjxw/2023-11-30/doc-imzwkezy5467723.shtml",
        "docid": "mzwkezy5467723"
    },
    {
        "title": "美媒：美军将向太空发射核反应堆",
        "url": "https://finance.sina.com.cn/jjxw/2023-12-01/doc-imzwnuqw8866660.shtml",
        "docid": "mzwnuqw8866660"
    },
    {
        "title": "行业市盈率不足5倍，估值跌至历史底部，银行股拐点到了吗？",
        "url": "https://cj.sina.cn/articles/view/2637695114/9d38088a00101dcmk?from=finance&subch=astocks",
        "docid": "mzwnize1002887"
    },
    {
        "title": "对话阿里地区“献血事件”女子丈夫：妻子简化了经过，给大家造成误解",
        "url": "https://finance.sina.com.cn/jjxw/2023-11-29/doc-imzwhxhm5388634.shtml",
        "docid": "mzwhxhm5388634"
    },
    {
        "title": "做好这个准备，神秘资金来了",
        "url": "https://cj.sina.cn/articles/view/5751923188/156d761f401901c3uu?from=finance",
        "docid": "mzwnyws4222846"
    },
    {
        "title": "突然大幅拉升！国有资本运营公司进场抄底",
        "url": "https://finance.sina.com.cn/jjxw/2023-12-01/doc-imzwnywu8772678.shtml",
        "docid": "mzwnywu8772678"
    },
    {
        "title": "跨年度行情望正式展开",
        "url": "https://cj.sina.cn/articles/view/1285707277/4ca2560d02701bng1?from=finance",
        "docid": "mzwnyws4210246"
    },
    {
        "title": "西班牙首相一句话，以色列怒了",
        "url": "https://finance.sina.com.cn/jjxw/2023-12-01/doc-imzwnuqu4319623.shtml",
        "docid": "mzwnuqu4319623"
    },
    {
        "title": "光通信器件产销全国第1,主营大数据用光模块,布局量子通信光芯片",
        "url": "https://cj.sina.cn/articles/view/7669966052/1c92a64e4001014gft?from=finance&subch=astocks",
        "docid": "mzwnywx7490131"
    },
    {
        "title": "最大降幅近80%！港股两家锂电池公司遭机构下调目标价",
        "url": "https://finance.sina.com.cn/jjxw/2023-12-01/doc-imzwnuqw8882666.shtml",
        "docid": "mzwnuqw8882666"
    },
    {
        "title": "广汽集团与格林美签署战略合作协议",
        "url": "https://finance.sina.com.cn/jjxw/2023-11-30/doc-imzwmafq5130277.shtml",
        "docid": "mzwmafq5130277"
    },
    {
        "title": "中富电路：公司作为二级供应商给小米供应PCB产品。谢谢您的关注与支持！",
        "url": "https://cj.sina.cn/articles/view/1850649324/6e4eaaec02001ajis?from=finance",
        "docid": "mzwmafq5143579"
    },
    {
        "title": "美的集团：拟变更回购股份用途为注销并减少公司注册资本",
        "url": "https://cj.sina.cn/articles/view/2868676035/aafc85c3020017anp?from=finance",
        "docid": "mzwmafq5145932"
    },
    {
        "title": "华侨城西安“窘境”？",
        "url": "https://finance.sina.com.cn/stock/relnews/cn/2023-11-30/doc-imzwmafs9686946.shtml",
        "docid": "mzwmafs9686946"
    },
    {
        "title": "“我后悔死了，甚至跪下了她都不接受……”男子婚内出轨，妻子坚持要离婚！婚姻咨询师这样说",
        "url": "https://finance.sina.com.cn/jjxw/2023-12-01/doc-imzwpfeu0622404.shtml",
        "docid": "mzwpfeu0622404"
    },
    {
        "title": "上海独生女继承2亿遗产后被离婚引热议，律师：男方可分得共同财产至少20%，原则上一人一半",
        "url": "https://finance.sina.com.cn/jjxw/2023-12-01/doc-imzwpfev7390339.shtml",
        "docid": "mzwpfev7390339"
    },
    {
        "title": "创59年来暴跌纪录！美国楼市陷入“冰封”",
        "url": "https://cj.sina.cn/articles/view/1651428902/626ece260190160gr?from=finance",
        "docid": "mzwhxht0667891"
    },
    {
        "title": "贵州茅台午后小幅跳水跌近2.5%，恒瑞医药挫近5%",
        "url": "https://finance.sina.com.cn/jjxw/2023-12-01/doc-imzwnuqw8873827.shtml",
        "docid": "mzwnuqw8873827"
    },
    {
        "title": "成都断臂爸爸摆摊炒河粉开直播走红！不见卖惨，只见乐观",
        "url": "https://finance.sina.com.cn/jjxw/2023-11-30/doc-imzwmhpt8269839.shtml",
        "docid": "mzwmhpt8269839"
    },
    {
        "title": "重磅！刚刚“国家队”进场抄底",
        "url": "https://cj.sina.cn/articles/view/5115326071/130e5ae77020021192?from=finance",
        "docid": "mzwnyww0712098"
    },
    {
        "title": "“乌军在前线已无路可走”",
        "url": "https://finance.sina.com.cn/jjxw/2023-12-01/doc-imzwpfes8677255.shtml",
        "docid": "mzwpfes8677255"
    },
    {
        "title": "突发！以军宣布：哈马斯违反临时停火协议，已恢复军事打击",
        "url": "https://finance.sina.com.cn/jjxw/2023-12-01/doc-imzwpfeu0611711.shtml",
        "docid": "mzwpfeu0611711"
    },
    {
        "title": "GJD抄底！！！",
        "url": "https://finance.sina.com.cn/wm/2023-12-01/doc-imzwnyww0720680.shtml",
        "docid": "mzwnyww0720680"
    },
    {
        "title": "“欧佩克+”决定：每天进一步减产70万桶石油",
        "url": "https://finance.sina.com.cn/jjxw/2023-12-01/doc-imzwnyws4234798.shtml",
        "docid": "mzwnyws4234798"
    },
    {
        "title": "12月1日姚记科技涨停分析：游戏，手游，字节跳动概念股概念热股",
        "url": "https://cj.sina.cn/articles/view/1850649324/6e4eaaec02001ajzn?from=finance",
        "docid": "mzwnyww0725091"
    },
    {
        "title": "华为的邀请，车企们为啥会犹豫？",
        "url": "https://cj.sina.cn/articles/view/1191050205/46fdfbdd0270130mw?from=auto&subch=oauto",
        "docid": "mzwnqhy8993770"
    },
    {
        "title": "三花智控：未来公司机器人项目有望受益于人形机器人市场的快速增长",
        "url": "https://finance.sina.com.cn/jjxw/2023-11-30/doc-imzwmhpt8271950.shtml",
        "docid": "mzwmhpt8271950"
    },
    {
        "title": "“国家队”进场！多路资金已然出动",
        "url": "https://finance.sina.com.cn/roll/2023-12-01/doc-imzwnyww0713573.shtml",
        "docid": "mzwnyww0713573"
    },
    {
        "title": "北向资金今日净卖出49.97亿元 贵州茅台遭净卖出9.69亿元",
        "url": "https://cj.sina.cn/articles/view/2868676035/aafc85c3020017axh?from=finance",
        "docid": "mzwpfeq4131086"
    },
    {
        "title": "12月1日万通发展涨停分析：5G，毫米波通信，卫星互联网概念热股",
        "url": "https://cj.sina.cn/articles/view/1850649324/6e4eaaec02001ak02?from=finance",
        "docid": "mzwnywu8791230"
    },
    {
        "title": "异动快报：展鹏科技（603488）12月1日9点48分触及涨停板",
        "url": "https://finance.sina.com.cn/stock/relnews/cn/2023-12-01/doc-imzwnqhw4394925.shtml",
        "docid": "mzwnqhw4394925"
    },
    {
        "title": "稀土永磁概念拉升 宁波韵升涨停",
        "url": "https://finance.sina.com.cn/jjxw/2023-11-30/doc-imzwkezv4817621.shtml",
        "docid": "mzwkezv4817621"
    },
    {
        "title": "美利信(301307.SZ)：与长安汽车、其合资公司长安福特均有合作关系",
        "url": "https://finance.sina.com.cn/stock/relnews/cn/2023-11-30/doc-imzwkvxw1669267.shtml",
        "docid": "mzwkvxw1669267"
    },
    {
        "title": "比亚迪仰望U8刚交付，对手却先走红！你愿为国产车花多少钱？",
        "url": "https://finance.sina.com.cn/jjxw/2023-12-01/doc-imzwnuqw8873042.shtml",
        "docid": "mzwnuqw8873042"
    },
    {
        "title": "是什么拖累了PMI？",
        "url": "https://cj.sina.cn/articles/view/1916733321/723f07890190191tt?from=finance",
        "docid": "mzwnqhy8972766"
    },
    {
        "title": "沪上独生女继承2亿遗产后丈夫要离婚分钱，网友争论“父母遗产是否该当属于夫妻共同财产”",
        "url": "https://finance.sina.com.cn/wm/2023-12-01/doc-imzwpfes8706277.shtml",
        "docid": "mzwpfes8706277"
    },
    {
        "title": "欧美“白肺”病例激增，专家：肺炎传染浪潮通常三到七年袭击一个国家",
        "url": "https://finance.sina.com.cn/tech/roll/2023-12-01/doc-imzwpfeq4131035.shtml",
        "docid": "mzwpfeq4131035"
    },
    {
        "title": "125亿巨资抄底！",
        "url": "https://finance.sina.com.cn/stock/marketresearch/2023-12-01/doc-imzwpfes8706821.shtml",
        "docid": "mzwpfes8706821"
    },
    {
        "title": "张兰：汪小菲夜里两点多抱怨我把俏江南整丢了，被我骂一顿",
        "url": "https://finance.sina.com.cn/chanjing/gsnews/2023-11-30/doc-imzwmhps1469164.shtml",
        "docid": "mzwmhps1469164"
    },
    {
        "title": "通过事前反垄断审查，中国宝武推进山东钢铁重组",
        "url": "https://finance.sina.com.cn/jjxw/2023-11-30/doc-imzwkvxw1662518.shtml",
        "docid": "mzwkvxw1662518"
    },
    {
        "title": "惨！从159元到38元，宁愿60亿理财也不回购，赣锋锂业成散户噩梦",
        "url": "https://cj.sina.cn/articles/view/5930172409/161773ff900101a1q5?from=finance&subch=astocks",
        "docid": "mzwnywx7517621"
    },
    {
        "title": "刚刚，总资产超8000亿的“国家队”官宣，增持A股！养猪巨头大跌近9%，拟定增超70亿“御寒”！",
        "url": "https://finance.sina.com.cn/stock/marketresearch/2023-12-01/doc-imzwpfes8707640.shtml",
        "docid": "mzwpfes8707640"
    },
    {
        "title": "近期密集出台金融政策 一文速览！",
        "url": "https://finance.sina.com.cn/jjxw/2023-12-01/doc-imzwnqhy8989534.shtml",
        "docid": "mzwnqhy8989534"
    },
    {
        "title": "终于有人敢动外资车企的基本盘了",
        "url": "https://t.cj.sina.cn/articles/view/2357213493/8c80393501901ft9c?from=tech",
        "docid": "mzwpfes8707498"
    },
    {
        "title": "妻子在婚前房产加名后离婚被丈夫诉欺诈，法院判了",
        "url": "https://finance.sina.com.cn/jjxw/2023-11-30/doc-imzwkrrt1398864.shtml",
        "docid": "mzwkrrt1398864"
    },
    {
        "title": "又一家券商系基金公司获批",
        "url": "https://finance.sina.com.cn/jjxw/2023-12-01/doc-imzwnyww0737596.shtml",
        "docid": "mzwnyww0737596"
    },
    {
        "title": "又现断崖式暴跌？股价从42元跌至9元：近9亿资金出逃！",
        "url": "https://finance.sina.com.cn/roll/2023-12-01/doc-imzwpfeq4146647.shtml",
        "docid": "mzwpfeq4146647"
    },
    {
        "title": "A股股息率逼近历史新高，透露这个信号！",
        "url": "https://finance.sina.com.cn/stock/zqgd/2023-12-01/doc-imzwniyy4490638.shtml",
        "docid": "mzwniyy4490638"
    },
    {
        "title": "外交部：欢迎任何有意愿的国家成为金砖大家庭一员",
        "url": "https://finance.sina.com.cn/jjxw/2023-12-01/doc-imzwnywx7490141.shtml",
        "docid": "mzwnywx7490141"
    },
    {
        "title": "做味精的跨界算力？处罚来了！",
        "url": "https://finance.sina.com.cn/stock/s/2023-11-30/doc-imzwmnvr8148465.shtml",
        "docid": "mzwmnvr8148465"
    },
    {
        "title": "王思聪最后的倔强是不穿西装，一万八的发型五千的卫衣会见领导",
        "url": "https://cj.sina.cn/articles/view/1424630243/54ea21e30200130ml?from=finance",
        "docid": "mzwnqhw4432830"
    },
    {
        "title": "沸腾！关键力量出手，什么信号？",
        "url": "https://finance.sina.com.cn/jjxw/2023-12-01/doc-imzwpfeu0616995.shtml",
        "docid": "mzwpfeu0616995"
    },
    {
        "title": "补能1分钟，能跑470km！与汉兰达同级，只要10来万！",
        "url": "https://finance.sina.com.cn/wm/2023-12-01/doc-imzwnizf7744827.shtml",
        "docid": "mzwnizf7744827"
    },
    {
        "title": "马斯克开着Cybertruck亮相特斯拉得州超级工厂交付仪式",
        "url": "https://finance.sina.com.cn/7x24/2023-12-01/doc-imzwmxmm7959463.shtml",
        "docid": "mzwmxmm7959463"
    },
    {
        "title": "热点丨刚刚，跌破10万！",
        "url": "https://finance.sina.com.cn/wm/2023-12-01/doc-imzwpmnn4029273.shtml",
        "docid": "mzwpmnn4029273"
    },
    {
        "title": "多家中小券商现人事变动 合并重组传闻下中小券商何去何从",
        "url": "https://cj.sina.cn/articles/view/7327346231/1b4be6e37001025da4?from=finance&subch=astocks",
        "docid": "mzwpfev7413735"
    },
    {
        "title": "重磅官宣！“国家队”进场了…",
        "url": "https://finance.sina.com.cn/wm/2023-12-01/doc-imzwpfes8681917.shtml",
        "docid": "mzwpfes8681917"
    },
    {
        "title": "“中植系”爆雷冲击波惊人，美吉姆、天山生物董事长失联",
        "url": "https://cj.sina.cn/articles/view/2116828502/7e2c3d560010132l0?from=finance&subch=astocks",
        "docid": "mzwnuqz7596276"
    },
    {
        "title": "被政务降级的原女市长，重回正厅级",
        "url": "https://cj.sina.cn/articles/view/5823040284/15b148b1c01900yzen?from=finance",
        "docid": "mzwnqhw4428511"
    },
    {
        "title": "女子入住酒店，副店长刷卡开门闯入...全季酒店道歉：赔付20倍房费，开除涉事员工",
        "url": "https://finance.sina.com.cn/jjxw/2023-11-30/doc-imzwiiwp0455527.shtml",
        "docid": "mzwiiwp0455527"
    },
    {
        "title": "美国突然“动手”，印度官员谋划暗杀？以色列最新宣布，影响有多大？上千员工作弊，普华永道被罚",
        "url": "https://finance.sina.com.cn/stock/zqgd/2023-12-01/doc-imzwpfes8708279.shtml",
        "docid": "mzwpfes8708279"
    },
    {
        "title": "在伦敦、纽约买房有多爽？上一个留学生靠租金赚了四年学费......",
        "url": "https://finance.sina.com.cn/jjxw/2023-11-30/doc-imzwmhpq9608442.shtml",
        "docid": "mzwmhpq9608442"
    },
    {
        "title": "操盘丨国家队午后突然出手，12月对A股非常重要，有三件大事！",
        "url": "https://finance.sina.com.cn/wm/2023-12-01/doc-imzwpmnq8586664.shtml",
        "docid": "mzwpmnq8586664"
    },
    {
        "title": "中指研究院发布2023年1-11月中国房地产企业销售业绩排行榜",
        "url": "https://finance.sina.com.cn/jjxw/2023-11-30/doc-imzwmnvn9482181.shtml",
        "docid": "mzwmnvn9482181"
    },
    {
        "title": "华为nova 12三款齐入网：Pro/Ultra首发麒麟5G芯、标准版仅支持4G",
        "url": "https://t.cj.sina.cn/articles/view/1659643027/62ec249302001aq45?from=tech",
        "docid": "mzwniyy4511364"
    },
    {
        "title": "“在国内卖2000，在美国卖6万，价格依然能打”",
        "url": "https://cj.sina.cn/articles/view/1887344341/707e96d502001f9gb?from=finance",
        "docid": "mzwkvxp4538849"
    },
    {
        "title": "散户不炒新",
        "url": "https://finance.sina.com.cn/wm/2023-12-01/doc-imzwpmnq8588197.shtml",
        "docid": "mzwpmnq8588197"
    },
    {
        "title": "大降价！却涨停？",
        "url": "https://finance.sina.com.cn/cj/2023-12-01/doc-imzwpfeq4157327.shtml",
        "docid": "mzwpfeq4157327"
    },
    {
        "title": "有老鼠在啃肉！知名火锅店被立案、查封！",
        "url": "https://finance.sina.com.cn/jjxw/2023-11-30/doc-imzwkvxr1303405.shtml",
        "docid": "mzwkvxr1303405"
    },
    {
        "title": "警惕！这些人群易出现“白肺”",
        "url": "https://finance.sina.com.cn/jjxw/2023-12-01/doc-imzwpfev7404337.shtml",
        "docid": "mzwpfev7404337"
    },
    {
        "title": "造车新势力11月成绩单出炉：小鹏汽车再创单月交付新高，理想汽车同比增172.9%",
        "url": "https://finance.sina.com.cn/stock/2023-12-01/doc-imzwpfes8689677.shtml",
        "docid": "mzwpfes8689677"
    },
    {
        "title": "碳酸锂期价再创新低！广期所：提高手续费！多家期交所对热门品种出手",
        "url": "https://finance.sina.com.cn/wm/2023-12-01/doc-imzwnuqz7572114.shtml",
        "docid": "mzwnuqz7572114"
    },
    {
        "title": "重磅！华为和这家知名车企签了，合作造车，有效期10年",
        "url": "https://finance.sina.com.cn/stock/relnews/cn/2023-12-01/doc-imzwpmnn4034953.shtml",
        "docid": "mzwpmnn4034953"
    },
    {
        "title": "他写信警告国会：美军方将付出“历史性的高昂代价”",
        "url": "https://cj.sina.cn/articles/view/1887344341/707e96d502001f9v7?from=finance",
        "docid": "mzwpmnn4031999"
    },
    {
        "title": "清华北大争抢的鹅腿，到底有多好吃？",
        "url": "https://t.cj.sina.cn/articles/view/1850988623/6e53d84f0190184x2?from=tech",
        "docid": "mzwpmnt7318687"
    },
    {
        "title": "国家队抄底！让子弹飞一会",
        "url": "https://cj.sina.cn/articles/view/5115326071/130e5ae770200211lv?from=finance",
        "docid": "mzwpmnq8593484"
    },
    {
        "title": "世界紧盯巴以之际，乌军要暗杀普京？泽连斯基豁出去了，克宫回应",
        "url": "https://finance.sina.com.cn/wm/2023-12-01/doc-imzwpmnn4038454.shtml",
        "docid": "mzwpmnn4038454"
    },
    {
        "title": "中国，下一个爆发点！",
        "url": "https://cj.sina.cn/articles/view/2268916473/873ceaf90190175em?from=finance",
        "docid": "mzwpmnt7303887"
    },
    {
        "title": "雅戈尔近日增持宁波银行近2200万股 持股比例增至9.97%",
        "url": "https://finance.sina.com.cn/jjxw/2023-12-01/doc-imzwpfeu0648957.shtml",
        "docid": "mzwpfeu0648957"
    },
    {
        "title": "新政策：“冰冻”的二手房，有解了！",
        "url": "https://cj.sina.cn/articles/view/5296321390/13baf736e027017h6l?from=estate",
        "docid": "mzwniyy4516185"
    },
    {
        "title": "2023年余额不足，有人给A股充值",
        "url": "https://cj.sina.cn/articles/view/1284139322/4c8a693a027017ldx?from=finance",
        "docid": "mzwpmnn4050148"
    },
    {
        "title": "中央民大副校长田琳落马，曾通过全国公选成为民大附中校长",
        "url": "https://finance.sina.com.cn/jjxw/2023-12-01/doc-imzwpfeu0649035.shtml",
        "docid": "mzwpfeu0649035"
    },
    {
        "title": "这下有关方面都满意了吗？",
        "url": "https://finance.sina.com.cn/cj/2023-12-01/doc-imzwnywu8781353.shtml",
        "docid": "mzwnywu8781353"
    },
    {
        "title": "武汉顶级豪宅，即将破8.5万/平",
        "url": "https://cj.sina.cn/articles/view/1376907761/5211f1f100101emg9",
        "docid": "mzwpfeu0639897"
    },
    {
        "title": "猪肉股走低 新希望逼近跌停",
        "url": "https://finance.sina.com.cn/stock/hkstock/marketalerts/2023-12-01/doc-imzwnqhw4420919.shtml",
        "docid": "mzwnqhw4420919"
    },
    {
        "title": "以岭药业：连花清瘟是临床常用于治疗呼吸系统疾病的中成药",
        "url": "https://cj.sina.cn/articles/view/1850649324/6e4eaaec02001akb5?from=finance",
        "docid": "mzwpfeq4140283"
    },
    {
        "title": "银行板块2024年有望迎估值新起点",
        "url": "https://finance.sina.com.cn/roll/2023-11-30/doc-imzwmnvn9488618.shtml",
        "docid": "mzwmnvn9488618"
    },
    {
        "title": "蔚来11月交付新车1.59万台：高端纯电市场占有率60.6%",
        "url": "https://t.cj.sina.cn/articles/view/1659643027/62ec249302001aq7r?from=tech",
        "docid": "mzwpfeq4141989"
    },
    {
        "title": "闻泰科技(600745.SH)：得尔塔停产特定客户光学模组产品 预计将减少公司年度净利润约7.33亿元",
        "url": "https://finance.sina.com.cn/stock/hkstock/ggscyd/2023-12-01/doc-imzwpfeq4158141.shtml",
        "docid": "mzwpfeq4158141"
    },
    {
        "title": "突发！沙钢涨100！焦炭涨100！钢价要大爆涨？",
        "url": "https://finance.sina.com.cn/money/future/wemedia/2023-12-01/doc-imzwpfeq4156510.shtml",
        "docid": "mzwpfeq4156510"
    },
    {
        "title": "国家队年内第三次入场，这一次明确央企+科技，中特估行情又行了？",
        "url": "https://finance.sina.com.cn/jjxw/2023-12-01/doc-imzwpfeu0648402.shtml",
        "docid": "mzwpfeu0648402"
    },
    {
        "title": "定车12小时″血亏″5000元!知名车企遭遇集体维权",
        "url": "https://cj.sina.cn/articles/view/1872005590/6f9489d6027013w2u?from=auto&subch=oauto",
        "docid": "mzwnywu8792347"
    },
    {
        "title": "锦龙股份：拟公开挂牌转让东莞证券不超过6亿股份",
        "url": "https://finance.sina.com.cn/stock/relnews/cn/2023-12-01/doc-imzwpfes8687509.shtml",
        "docid": "mzwpfes8687509"
    },
    {
        "title": "持仓量、投机度居高不下，碳酸锂2401合约成重点调控对象",
        "url": "https://finance.sina.com.cn/roll/2023-12-01/doc-imzwpmnt7314074.shtml",
        "docid": "mzwpmnt7314074"
    },
    {
        "title": "最近的北京年轻人，流行周末去沈阳",
        "url": "https://finance.sina.com.cn/wm/2023-12-01/doc-imzwpmnn4043886.shtml",
        "docid": "mzwpmnn4043886"
    },
    {
        "title": "王石再预测中国未来房地产走向，或大概率又是对的",
        "url": "https://cj.sina.cn/articles/view/7127695145/1a8d7ff2902001396o?from=estate",
        "docid": "mzwprun8488421"
    },
    {
        "title": "北京中产，为啥都穿上了“县城校服”？",
        "url": "https://finance.sina.com.cn/wm/2023-12-01/doc-imzwpmnn4044012.shtml",
        "docid": "mzwpmnn4044012"
    },
    {
        "title": "这个恶魔，不知又要劝退多少想要结婚的女性",
        "url": "https://t.cj.sina.cn/articles/view/1219921942/48b6881601901fuf9?from=tech",
        "docid": "mzwpruk3933585"
    },
    {
        "title": "重磅官宣！又有“国家队”进场了…",
        "url": "https://cj.sina.cn/articles/view/3100860304/b8d35f90019017duz?from=finance",
        "docid": "mzwpfeu0633918"
    },
    {
        "title": "天津楼市陷入僵持，大象要跳舞了。",
        "url": "https://cj.sina.cn/articles/view/5296321390/13baf736e027017h6o?from=estate",
        "docid": "mzwniza9076816"
    },
    {
        "title": "暴涨4200%，3亿阿根廷华侨连夜回国！",
        "url": "https://finance.sina.com.cn/wm/2023-12-01/doc-imzwpmnt7303762.shtml",
        "docid": "mzwpmnt7303762"
    },
    {
        "title": "房子已准备好 亿万富翁与被拐儿子相认第二天就要去提车",
        "url": "https://finance.sina.com.cn/jjxw/2023-12-01/doc-imzwpmnt7332884.shtml",
        "docid": "mzwpmnt7332884"
    },
    {
        "title": "马斯克“大嘴”又闯祸！炮轰广告金主后 分析师：他正在“杀死”X",
        "url": "https://finance.sina.com.cn/jjxw/2023-12-01/doc-imzwniyy4524588.shtml",
        "docid": "mzwniyy4524588"
    },
    {
        "title": "病毒感染蔓延，一夜之间身边人都中招了",
        "url": "https://finance.sina.com.cn/wm/2023-12-01/doc-imzwpfev7423545.shtml",
        "docid": "mzwpfev7423545"
    }
]